\relax 
\providecommand*\caption@xref[2]{\@setref\relax\@undefined{#1}}
\newlabel{fig:fig1}{{\caption@xref {fig:fig1}{ on input line 60}}{3}}
\@writefile{lof}{\contentsline {figure}{\numberline {1}{\ignorespaces (a) variation of $t$ with $N$ at $k=0$ and $5$ for small value of $N$. (b) variation of $t$ with $N$ for $k=0,5$ at larger value of $N$. (c) variation of $t$ with $k$ for $N$=10000, at small values of $k$. (d) variation of $t$ with $k$ for $N=10000$ at larger value of $k$, error bar calculated using 5 repetitions. \relax }}{3}}
