%!PS-Adobe-3.0 EPSF-3.0
%%Title: cnm.eps
%%Creator: matplotlib version 3.1.1, http://matplotlib.org/
%%CreationDate: Tue Apr 14 17:24:35 2020
%%Orientation: portrait
%%BoundingBox: 90.0 252.0 522.0 540.0
%%EndComments
%%BeginProlog
/mpldict 8 dict def
mpldict begin
/m { moveto } bind def
/l { lineto } bind def
/r { rlineto } bind def
/c { curveto } bind def
/cl { closepath } bind def
/box {
m
1 index 0 r
0 exch r
neg 0 r
cl
} bind def
/clipbox {
box
clip
newpath
} bind def
%!PS-Adobe-3.0 Resource-Font
%%Title: DejaVu Sans
%%Copyright: Copyright (c) 2003 by Bitstream, Inc. All Rights Reserved. Copyright (c) 2006 by Tavmjong Bah. All Rights Reserved. DejaVu changes are in public domain 
%%Creator: Converted from TrueType to type 3 by PPR
25 dict begin
/_d{bind def}bind def
/_m{moveto}_d
/_l{lineto}_d
/_cl{closepath eofill}_d
/_c{curveto}_d
/_sc{7 -1 roll{setcachedevice}{pop pop pop pop pop pop}ifelse}_d
/_e{exec}_d
/FontName /DejaVuSans def
/PaintType 0 def
/FontMatrix[.001 0 0 .001 0 0]def
/FontBBox[-1021 -463 1793 1232]def
/FontType 3 def
/Encoding [ /zero /one /two /three /four /five /six /seven /eight ] def
/FontInfo 10 dict dup begin
/FamilyName (DejaVu Sans) def
/FullName (DejaVu Sans) def
/Notice (Copyright (c) 2003 by Bitstream, Inc. All Rights Reserved. Copyright (c) 2006 by Tavmjong Bah. All Rights Reserved. DejaVu changes are in public domain ) def
/Weight (Book) def
/Version (Version 2.35) def
/ItalicAngle 0.0 def
/isFixedPitch false def
/UnderlinePosition -130 def
/UnderlineThickness 90 def
end readonly def
/CharStrings 10 dict dup begin
/.notdef 0 def
/zero{636 0 66 -13 570 742 _sc
318 664 _m
267 664 229 639 203 589 _c
177 539 165 464 165 364 _c
165 264 177 189 203 139 _c
229 89 267 64 318 64 _c
369 64 407 89 433 139 _c
458 189 471 264 471 364 _c
471 464 458 539 433 589 _c
407 639 369 664 318 664 _c
318 742 _m
399 742 461 709 505 645 _c
548 580 570 486 570 364 _c
570 241 548 147 505 83 _c
461 19 399 -13 318 -13 _c
236 -13 173 19 130 83 _c
87 147 66 241 66 364 _c
66 486 87 580 130 645 _c
173 709 236 742 318 742 _c
_cl}_d
/one{636 0 110 0 544 729 _sc
124 83 _m
285 83 _l
285 639 _l
110 604 _l
110 694 _l
284 729 _l
383 729 _l
383 83 _l
544 83 _l
544 0 _l
124 0 _l
124 83 _l
_cl}_d
/two{{636 0 73 0 536 742 _sc
192 83 _m
536 83 _l
536 0 _l
73 0 _l
73 83 _l
110 121 161 173 226 239 _c
290 304 331 346 348 365 _c
380 400 402 430 414 455 _c
426 479 433 504 433 528 _c
433 566 419 598 392 622 _c
365 646 330 659 286 659 _c
255 659 222 653 188 643 _c
154 632 117 616 78 594 _c
78 694 _l
118 710 155 722 189 730 _c
223 738 255 742 284 742 _c
}_e{359 742 419 723 464 685 _c
509 647 532 597 532 534 _c
532 504 526 475 515 449 _c
504 422 484 390 454 354 _c
446 344 420 317 376 272 _c
332 227 271 164 192 83 _c
_cl}_e}_d
/three{{636 0 76 -13 556 742 _sc
406 393 _m
453 383 490 362 516 330 _c
542 298 556 258 556 212 _c
556 140 531 84 482 45 _c
432 6 362 -13 271 -13 _c
240 -13 208 -10 176 -4 _c
144 1 110 10 76 22 _c
76 117 _l
103 101 133 89 166 81 _c
198 73 232 69 268 69 _c
330 69 377 81 409 105 _c
441 129 458 165 458 212 _c
458 254 443 288 413 312 _c
383 336 341 349 287 349 _c
}_e{202 349 _l
202 430 _l
291 430 _l
339 430 376 439 402 459 _c
428 478 441 506 441 543 _c
441 580 427 609 401 629 _c
374 649 336 659 287 659 _c
260 659 231 656 200 650 _c
169 644 135 635 98 623 _c
98 711 _l
135 721 170 729 203 734 _c
235 739 266 742 296 742 _c
370 742 429 725 473 691 _c
517 657 539 611 539 553 _c
539 513 527 479 504 451 _c
481 423 448 403 406 393 _c
_cl}_e}_d
/four{636 0 49 0 580 729 _sc
378 643 _m
129 254 _l
378 254 _l
378 643 _l
352 729 _m
476 729 _l
476 254 _l
580 254 _l
580 172 _l
476 172 _l
476 0 _l
378 0 _l
378 172 _l
49 172 _l
49 267 _l
352 729 _l
_cl}_d
/five{{636 0 77 -13 549 729 _sc
108 729 _m
495 729 _l
495 646 _l
198 646 _l
198 467 _l
212 472 227 476 241 478 _c
255 480 270 482 284 482 _c
365 482 429 459 477 415 _c
525 370 549 310 549 234 _c
549 155 524 94 475 51 _c
426 8 357 -13 269 -13 _c
238 -13 207 -10 175 -6 _c
143 -1 111 6 77 17 _c
77 116 _l
106 100 136 88 168 80 _c
199 72 232 69 267 69 _c
}_e{323 69 368 83 401 113 _c
433 143 450 183 450 234 _c
450 284 433 324 401 354 _c
368 384 323 399 267 399 _c
241 399 214 396 188 390 _c
162 384 135 375 108 363 _c
108 729 _l
_cl}_e}_d
/six{{636 0 70 -13 573 742 _sc
330 404 _m
286 404 251 388 225 358 _c
199 328 186 286 186 234 _c
186 181 199 139 225 109 _c
251 79 286 64 330 64 _c
374 64 409 79 435 109 _c
461 139 474 181 474 234 _c
474 286 461 328 435 358 _c
409 388 374 404 330 404 _c
526 713 _m
526 623 _l
501 635 476 644 451 650 _c
425 656 400 659 376 659 _c
310 659 260 637 226 593 _c
}_e{192 549 172 482 168 394 _c
187 422 211 444 240 459 _c
269 474 301 482 336 482 _c
409 482 467 459 509 415 _c
551 371 573 310 573 234 _c
573 159 550 99 506 54 _c
462 9 403 -13 330 -13 _c
246 -13 181 19 137 83 _c
92 147 70 241 70 364 _c
70 479 97 571 152 639 _c
206 707 280 742 372 742 _c
396 742 421 739 447 735 _c
472 730 498 723 526 713 _c
_cl}_e}_d
/seven{636 0 82 0 551 729 _sc
82 729 _m
551 729 _l
551 687 _l
286 0 _l
183 0 _l
432 646 _l
82 646 _l
82 729 _l
_cl}_d
/eight{{636 0 68 -13 568 742 _sc
318 346 _m
271 346 234 333 207 308 _c
180 283 167 249 167 205 _c
167 161 180 126 207 101 _c
234 76 271 64 318 64 _c
364 64 401 76 428 102 _c
455 127 469 161 469 205 _c
469 249 455 283 429 308 _c
402 333 365 346 318 346 _c
219 388 _m
177 398 144 418 120 447 _c
96 476 85 511 85 553 _c
85 611 105 657 147 691 _c
188 725 245 742 318 742 _c
}_e{390 742 447 725 489 691 _c
530 657 551 611 551 553 _c
551 511 539 476 515 447 _c
491 418 459 398 417 388 _c
464 377 501 355 528 323 _c
554 291 568 251 568 205 _c
568 134 546 80 503 43 _c
459 5 398 -13 318 -13 _c
237 -13 175 5 132 43 _c
89 80 68 134 68 205 _c
68 251 81 291 108 323 _c
134 355 171 377 219 388 _c
183 544 _m
183 506 194 476 218 455 _c
}_e{242 434 275 424 318 424 _c
360 424 393 434 417 455 _c
441 476 453 506 453 544 _c
453 582 441 611 417 632 _c
393 653 360 664 318 664 _c
275 664 242 653 218 632 _c
194 611 183 582 183 544 _c
_cl}_e}_d
end readonly def

/BuildGlyph
 {exch begin
 CharStrings exch
 2 copy known not{pop /.notdef}if
 true 3 1 roll get exec
 end}_d

/BuildChar {
 1 index /Encoding get exch get
 1 index /BuildGlyph get exec
}_d

FontName currentdict end definefont pop
end
%%EndProlog
mpldict begin
90 252 translate
432 288 0 0 clipbox
gsave
0 0 m
432 0 l
432 288 l
0 288 l
cl
1.000 setgray
fill
grestore
gsave
54 36 m
388.8 36 l
388.8 253.44 l
54 253.44 l
cl
1.000 setgray
fill
grestore
1.000 setlinewidth
1 setlinejoin
0 setlinecap
[] 0 setdash
0.122 0.467 0.706 setrgbcolor
gsave
334.8 217.4 54 36 clipbox
/o {
gsave
newpath
translate
1.0 setlinewidth
1 setlinejoin
0 setlinecap
0 -3 m
0.795609 -3 1.55874 -2.683901 2.12132 -2.12132 c
2.683901 -1.55874 3 -0.795609 3 0 c
3 0.795609 2.683901 1.55874 2.12132 2.12132 c
1.55874 2.683901 0.795609 3 0 3 c
-0.795609 3 -1.55874 2.683901 -2.12132 2.12132 c
-2.683901 1.55874 -3 0.795609 -3 0 c
-3 -0.795609 -2.683901 -1.55874 -2.12132 -2.12132 c
-1.55874 -2.683901 -0.795609 -3 0 -3 c
cl

gsave
0.122 0.467 0.706 setrgbcolor
fill
grestore
stroke
grestore
} bind def
282.438 191.101 o
244.096 167.917 o
288.953 198.223 o
209.29 155.921 o
259.999 183.2 o
269.477 184.67 o
318.623 212.439 o
184.701 138.822 o
203.857 153.845 o
257.077 178.384 o
317.881 211.862 o
221.912 163.736 o
279.664 188.159 o
286.942 192.946 o
233.957 163.361 o
258.717 182.421 o
267.869 183.488 o
271.026 193.494 o
285.636 193.898 o
267.644 186.948 o
306.554 211.372 o
299.368 207.566 o
298.671 201.395 o
228.71 164.803 o
308.479 207.681 o
253.886 170.512 o
287.688 190.928 o
286.006 194.388 o
308.499 205.518 o
190.714 146.982 o
228.981 164.774 o
257.69 180.922 o
72.2182 48.8836 o
290.247 194.676 o
272.027 184.093 o
272.358 183.401 o
267.057 180.633 o
252.789 176.625 o
351.915 224.982 o
331.45 216.706 o
274.655 187.035 o
260.084 180.057 o
295.819 206.268 o
278.231 189.543 o
220.149 162.38 o
183.134 149.923 o
316.894 210.19 o
323.064 217.37 o
233.022 168.724 o
258.023 186.631 o
240.218 169.993 o
264.104 182.19 o
227.382 164.428 o
343.734 223.685 o
215.993 165.177 o
276.629 187.41 o
245.378 168.638 o
232.952 165.581 o
256.474 172.732 o
178.161 144.906 o
309.771 203.846 o
286.485 192.686 o
195.906 154.479 o
270.018 185.679 o
267.219 181.123 o
332.123 222.358 o
278.042 186.718 o
330.261 217.6 o
360.384 234.325 o
284.261 190.091 o
244.343 175.183 o
287.691 200.414 o
316.678 211.977 o
105.49 99.5477 o
293.44 197.329 o
241.638 170.714 o
289.563 203.529 o
251.263 178.701 o
183.685 137.611 o
195.273 146.348 o
249 178.384 o
227.128 162.582 o
255.841 177.894 o
257.792 177.663 o
233.841 165.322 o
202.82 156.988 o
266.864 187.957 o
250.935 175.76 o
157.137 124.231 o
205.099 149.635 o
252.33 173.915 o
241.532 167.888 o
203.892 144.993 o
354.972 230.461 o
327.36 222.128 o
148.483 119.041 o
263.198 180.374 o
211.465 149.145 o
264.04 182.709 o
311.578 207.075 o
283.015 194.647 o
312.674 213.736 o
226.868 158.689 o
281.911 197.358 o
271.596 188.217 o
252.442 178.355 o
270.047 190.264 o
121.606 104.306 o
260.658 181.239 o
269.14 192.542 o
281.212 187.756 o
215.397 149.923 o
212.236 165.956 o
351.263 225.357 o
291.441 201.222 o
268.808 181.787 o
305.731 200.097 o
189.56 135.996 o
188.383 133.516 o
275.432 189.457 o
303.736 204.394 o
243.329 166.792 o
306.166 206.845 o
173.999 134.41 o
278.627 187.813 o
291.13 194.763 o
220.615 155.489 o
298.818 204.451 o
355.405 235.796 o
223.387 165.235 o
224.364 163.13 o
229.784 159.41 o
351.537 232.335 o
210.552 150.414 o
273.137 182.882 o
229.488 163.476 o
267.775 184.209 o
258.382 179.134 o
186.207 137.034 o
257.208 170.685 o
284.196 184.382 o
230.918 171.896 o
241.741 160.852 o
228.936 166.446 o
310.176 206.758 o
370.582 243.552 o
258.427 177.346 o
245.367 176.712 o
170.396 135.967 o
289.837 194.647 o
231.783 167.888 o
258.781 178.586 o
282.891 191.533 o
171.257 132.824 o
329.131 211.401 o
296.399 198.194 o
289.529 199.809 o
280.312 187.092 o
344.766 223.483 o
356.237 235.363 o
291.392 195.945 o
258.434 184.497 o
262.408 181.325 o
235.28 170.079 o
287.372 201.914 o
278.921 187.035 o
296.787 200.616 o
299.79 208.661 o
280.415 187.525 o
298.886 198.482 o
159.295 125.817 o
251.129 172.098 o
260.073 176.135 o
298.699 197.387 o
311.574 202.375 o
292.761 196.204 o
271.466 185.91 o
218.39 162.496 o
347.835 241.765 o
254.028 174.607 o
261.26 178.845 o
218.928 165.841 o
303.439 203.875 o
165.518 138.476 o
243.425 167.974 o
349.994 229.913 o
248.512 172.934 o
320.044 218.725 o
168.107 127.057 o
308.876 201.106 o
310.322 200.27 o
267.815 182.796 o
225.922 163.217 o
254.929 174.808 o
278.29 189.572 o
grestore
1.000 0.498 0.055 setrgbcolor
gsave
334.8 217.4 54 36 clipbox
/o {
gsave
newpath
translate
1.0 setlinewidth
1 setlinejoin
0 setlinecap
0 -3 m
0.795609 -3 1.55874 -2.683901 2.12132 -2.12132 c
2.683901 -1.55874 3 -0.795609 3 0 c
3 0.795609 2.683901 1.55874 2.12132 2.12132 c
1.55874 2.683901 0.795609 3 0 3 c
-0.795609 3 -1.55874 2.683901 -2.12132 2.12132 c
-2.683901 1.55874 -3 0.795609 -3 0 c
-3 -0.795609 -2.683901 -1.55874 -2.12132 -2.12132 c
-1.55874 -2.683901 -0.795609 -3 0 -3 c
cl

gsave
1.000 0.498 0.055 setrgbcolor
fill
grestore
stroke
grestore
} bind def
282.438 124.894 o
244.096 111.86 o
288.953 130.286 o
209.29 106.266 o
259.999 122.212 o
269.477 122.126 o
318.623 138.043 o
184.701 97.4427 o
203.857 104.911 o
257.077 118.954 o
317.881 135.448 o
221.912 110.303 o
279.664 122.962 o
286.942 125.182 o
233.957 109.986 o
258.717 121.751 o
267.869 122.876 o
271.026 128.326 o
285.636 126.941 o
267.644 124.058 o
306.554 137.784 o
299.368 135.852 o
298.671 132.103 o
228.71 110.794 o
308.479 136.053 o
253.886 114.167 o
287.688 124.317 o
286.006 127.143 o
308.499 131.613 o
190.714 101.595 o
228.981 111.63 o
257.69 119.934 o
72.2182 48.8836 o
290.247 127.114 o
272.027 120.742 o
272.358 119.934 o
267.057 118.521 o
252.789 117.31 o
351.915 143.839 o
331.45 140.379 o
274.655 123.741 o
260.084 119.041 o
295.819 135.217 o
278.231 126.134 o
220.149 109.525 o
183.134 103.066 o
316.894 135.16 o
323.064 138.216 o
233.022 113.216 o
258.023 124.894 o
240.218 113.245 o
264.104 120.165 o
227.382 110.563 o
343.734 143.407 o
215.993 111.947 o
276.629 124.231 o
245.378 112.264 o
232.952 111.313 o
256.474 114.917 o
178.161 100.384 o
309.771 130.402 o
286.485 125.298 o
195.906 105.863 o
270.018 123.395 o
267.219 119.387 o
332.123 144.185 o
278.042 121.578 o
330.261 140.609 o
360.384 148.943 o
284.261 123.308 o
244.343 117.426 o
287.691 132.507 o
316.678 137.697 o
105.49 77.8345 o
293.44 129.421 o
241.638 114.369 o
289.563 133.747 o
251.263 119.444 o
183.685 96.8083 o
195.273 101.393 o
249 120.165 o
227.128 109.323 o
255.841 117.628 o
257.792 117.195 o
233.841 111.197 o
202.82 106.93 o
266.864 124.865 o
250.935 116.705 o
157.137 90.0896 o
205.099 102.662 o
252.33 115.378 o
241.532 112.524 o
203.892 100.528 o
354.972 147.674 o
327.36 143.493 o
148.483 87.4656 o
263.198 120.886 o
211.465 102.777 o
264.04 120.828 o
311.578 132.853 o
283.015 127.057 o
312.674 139.254 o
226.868 107.391 o
281.911 129.825 o
271.596 125.154 o
252.442 118.723 o
270.047 126.855 o
121.606 80.199 o
260.658 120.771 o
269.14 128.239 o
281.212 122.53 o
215.397 102.748 o
212.236 112.812 o
351.263 143.262 o
291.441 132.363 o
268.808 119.127 o
305.731 132.218 o
189.56 95.7991 o
188.383 94.5591 o
275.432 124.836 o
303.736 131.18 o
243.329 111.37 o
306.166 134.525 o
173.999 95.2224 o
278.627 123.452 o
291.13 125.702 o
220.615 105.517 o
298.818 134.554 o
355.405 149.087 o
223.387 111.572 o
224.364 109.813 o
229.784 107.737 o
351.537 148.655 o
210.552 103.21 o
273.137 121.866 o
229.488 109.9 o
267.775 121.261 o
258.382 118.781 o
186.207 96.6641 o
257.208 113.273 o
284.196 121.751 o
230.918 116.388 o
241.741 108.083 o
228.936 111.745 o
310.176 135.794 o
370.582 154.191 o
258.427 118.608 o
245.367 117.656 o
170.396 95.8567 o
289.837 127.201 o
231.783 113.562 o
258.781 117.685 o
282.891 125.355 o
171.257 94.4438 o
329.131 136.313 o
296.399 127.807 o
289.529 131.815 o
280.312 121.866 o
344.766 144.243 o
356.237 149.923 o
291.392 126.567 o
258.434 122.443 o
262.408 119.963 o
235.28 114.196 o
287.372 132.939 o
278.921 121.982 o
296.787 130.373 o
299.79 136.457 o
280.415 121.866 o
298.886 128.672 o
159.295 90.8682 o
251.129 114.369 o
260.073 116.157 o
298.699 126.74 o
311.574 130.978 o
292.761 128.383 o
271.466 123.568 o
218.39 109.957 o
347.835 149.26 o
254.028 115.609 o
261.26 117.829 o
218.928 112.38 o
303.439 134.785 o
165.518 97.2697 o
243.425 112.437 o
349.994 148.136 o
248.512 114.773 o
320.044 141.619 o
168.107 91.4161 o
308.876 130.719 o
310.322 130.546 o
267.815 119.79 o
225.922 109.928 o
254.929 115.523 o
278.29 125.759 o
grestore
0.173 0.627 0.173 setrgbcolor
gsave
334.8 217.4 54 36 clipbox
/o {
gsave
newpath
translate
1.0 setlinewidth
1 setlinejoin
0 setlinecap
0 -3 m
0.795609 -3 1.55874 -2.683901 2.12132 -2.12132 c
2.683901 -1.55874 3 -0.795609 3 0 c
3 0.795609 2.683901 1.55874 2.12132 2.12132 c
1.55874 2.683901 0.795609 3 0 3 c
-0.795609 3 -1.55874 2.683901 -2.12132 2.12132 c
-2.683901 1.55874 -3 0.795609 -3 0 c
-3 -0.795609 -2.683901 -1.55874 -2.12132 -2.12132 c
-1.55874 -2.683901 -0.795609 -3 0 -3 c
cl

gsave
0.173 0.627 0.173 setrgbcolor
fill
grestore
stroke
grestore
} bind def
282.438 101.739 o
244.096 92.4541 o
288.953 106.612 o
209.29 88.792 o
259.999 101.018 o
269.477 100.096 o
318.623 111.745 o
184.701 82.7366 o
203.857 87.7828 o
257.077 98.0771 o
317.881 108.804 o
221.912 91.6467 o
279.664 100.24 o
286.942 101.653 o
233.957 91.2719 o
258.717 100.643 o
267.869 101.537 o
271.026 105.055 o
285.636 103.469 o
267.644 102.143 o
306.554 111.514 o
299.368 110.188 o
298.671 107.795 o
228.71 91.9351 o
308.479 110.534 o
253.886 94.2996 o
287.688 101.076 o
286.006 103.585 o
308.499 105.978 o
190.714 85.5624 o
228.981 92.8578 o
257.69 98.6826 o
72.2182 48.8836 o
290.247 103.412 o
272.027 98.6826 o
272.358 97.9617 o
267.057 97.039 o
252.789 96.6353 o
351.915 115.263 o
331.45 113.562 o
274.655 101.48 o
260.084 97.7599 o
295.819 109.784 o
278.231 103.787 o
220.149 91.07 o
183.134 86.6005 o
316.894 108.862 o
323.064 110.707 o
233.022 93.8382 o
258.023 102.806 o
240.218 93.5499 o
264.104 98.5384 o
227.382 91.7621 o
343.734 115.177 o
215.993 93.3192 o
276.629 101.999 o
245.378 92.7137 o
232.952 92.31 o
256.474 94.6745 o
178.161 84.6974 o
309.771 104.969 o
286.485 101.826 o
195.906 88.7055 o
270.018 101.537 o
267.219 97.8464 o
332.123 116.243 o
278.042 99.0575 o
330.261 113.331 o
360.384 119.012 o
284.261 100.211 o
244.343 97.2985 o
287.691 108.141 o
316.678 111.399 o
105.49 69.6452 o
293.44 105.517 o
241.638 94.6168 o
289.563 108.746 o
251.263 98.8268 o
183.685 82.304 o
195.273 85.4471 o
249 99.7207 o
227.128 90.8105 o
255.841 96.693 o
257.792 96.2316 o
233.841 92.2235 o
202.82 89.3399 o
266.864 102.518 o
250.935 96.1163 o
157.137 77.8057 o
205.099 86.1968 o
252.33 94.9917 o
241.532 93.1462 o
203.892 84.7839 o
354.972 118.147 o
327.36 115.436 o
148.483 76.0467 o
263.198 99.8937 o
211.465 86.3698 o
264.04 99.2017 o
311.578 106.987 o
283.015 103.498 o
312.674 112.553 o
226.868 89.4552 o
281.911 106.122 o
271.596 103.181 o
252.442 97.8752 o
270.047 104.363 o
121.606 71.2023 o
260.658 99.6054 o
269.14 105.199 o
281.212 99.8072 o
215.397 86.2257 o
212.236 93.9824 o
351.263 114.34 o
291.441 108.602 o
268.808 97.4427 o
305.731 108.17 o
189.56 81.5831 o
188.383 80.7469 o
275.432 102.229 o
303.736 105.776 o
243.329 92.137 o
306.166 109.208 o
173.999 81.2371 o
278.627 100.874 o
291.13 101.826 o
220.615 88.1288 o
298.818 109.611 o
355.405 118.493 o
223.387 92.7713 o
224.364 91.2142 o
229.784 89.6571 o
351.537 118.781 o
210.552 86.6005 o
273.137 100.269 o
229.488 91.2142 o
267.775 99.2882 o
258.382 97.7022 o
186.207 82.2464 o
257.208 93.348 o
284.196 99.6054 o
230.918 97.1543 o
241.741 89.7724 o
228.936 92.656 o
310.176 110.88 o
370.582 122.501 o
258.427 97.9041 o
245.367 97.1543 o
170.396 81.6408 o
289.837 103.527 o
231.783 94.415 o
258.781 96.5776 o
282.891 102.201 o
171.257 80.7181 o
329.131 109.698 o
296.399 103.412 o
289.529 107.766 o
280.312 99.2593 o
344.766 116.042 o
356.237 119.646 o
291.392 102.547 o
258.434 101.018 o
262.408 98.5096 o
235.28 94.6456 o
287.372 108.573 o
278.921 99.4323 o
296.787 105.747 o
299.79 110.563 o
280.415 99.2017 o
298.886 104.219 o
159.295 78.3247 o
251.129 94.2708 o
260.073 95.3665 o
298.699 102.374 o
311.574 105.834 o
292.761 104.479 o
271.466 101.739 o
218.39 91.5314 o
347.835 117.512 o
254.028 95.107 o
261.26 96.6641 o
218.928 93.5211 o
303.439 110.39 o
165.518 82.6212 o
243.425 93.002 o
349.994 118.81 o
248.512 94.588 o
320.044 114.081 o
168.107 78.6708 o
308.876 105.805 o
310.322 105.834 o
267.815 97.9906 o
225.922 91.3296 o
254.929 94.9917 o
278.29 103.325 o
grestore
0.839 0.153 0.157 setrgbcolor
gsave
334.8 217.4 54 36 clipbox
/o {
gsave
newpath
translate
1.0 setlinewidth
1 setlinejoin
0 setlinecap
0 -3 m
0.795609 -3 1.55874 -2.683901 2.12132 -2.12132 c
2.683901 -1.55874 3 -0.795609 3 0 c
3 0.795609 2.683901 1.55874 2.12132 2.12132 c
1.55874 2.683901 0.795609 3 0 3 c
-0.795609 3 -1.55874 2.683901 -2.12132 2.12132 c
-2.683901 1.55874 -3 0.795609 -3 0 c
-3 -0.795609 -2.683901 -1.55874 -2.12132 -2.12132 c
-1.55874 -2.683901 -0.795609 -3 0 -3 c
cl

gsave
0.839 0.153 0.157 setrgbcolor
fill
grestore
stroke
grestore
} bind def
282.438 89.7724 o
244.096 82.4482 o
288.953 94.7033 o
209.29 79.7665 o
259.999 90.378 o
269.477 88.6767 o
318.623 98.1924 o
184.701 75.0663 o
203.857 78.9591 o
257.077 87.2926 o
317.881 95.107 o
221.912 82.0733 o
279.664 88.5325 o
286.942 89.5418 o
233.957 81.6408 o
258.717 90.032 o
267.869 90.6087 o
271.026 92.9155 o
285.636 91.3584 o
267.644 91.07 o
306.554 97.7599 o
299.368 96.7218 o
298.671 95.453 o
228.71 82.2175 o
308.479 97.212 o
253.886 84.0053 o
287.688 89.1092 o
286.006 91.4449 o
308.499 92.8002 o
190.714 77.2578 o
228.981 83.1403 o
257.69 87.7828 o
72.2182 48.8836 o
290.247 91.1565 o
272.027 87.3214 o
272.358 86.687 o
267.057 85.995 o
252.789 85.9661 o
351.915 100.499 o
331.45 99.7784 o
274.655 90.0031 o
260.084 86.8024 o
295.819 96.4334 o
278.231 92.2523 o
220.149 81.5831 o
183.134 78.094 o
316.894 95.3089 o
323.064 96.6065 o
233.022 83.8611 o
258.023 91.243 o
240.218 83.4286 o
264.104 87.3791 o
227.382 82.1022 o
343.734 100.672 o
215.993 83.8611 o
276.629 90.5222 o
245.378 82.6789 o
232.952 82.5059 o
256.474 84.236 o
178.161 76.5946 o
309.771 91.9063 o
286.485 89.7436 o
195.906 79.7953 o
270.018 90.3491 o
267.219 86.7159 o
332.123 101.624 o
278.042 87.4944 o
330.261 99.1728 o
360.384 103.7 o
284.261 88.3595 o
244.343 87.0619 o
287.691 95.3089 o
316.678 97.7887 o
105.49 65.2334 o
293.44 93.2327 o
241.638 84.4379 o
289.563 95.6549 o
251.263 88.3883 o
183.685 74.778 o
195.273 77.1713 o
249 89.2534 o
227.128 81.266 o
255.841 85.9085 o
257.792 85.4471 o
233.841 82.4194 o
202.82 80.2855 o
266.864 90.9259 o
250.935 85.5336 o
157.137 71.3754 o
205.099 77.6903 o
252.33 84.5244 o
241.532 83.1114 o
203.892 76.6234 o
354.972 102.748 o
327.36 100.759 o
148.483 70.0201 o
263.198 89.1092 o
211.465 77.8345 o
264.04 88.0711 o
311.578 93.6652 o
283.015 91.3872 o
312.674 98.5673 o
226.868 80.199 o
281.911 93.9824 o
271.596 92.0504 o
252.442 87.1772 o
270.047 92.5983 o
121.606 66.4156 o
260.658 88.7632 o
269.14 93.0885 o
281.212 88.1288 o
215.397 77.6903 o
212.236 84.2648 o
351.263 99.4035 o
291.441 97.1543 o
268.808 86.2833 o
305.731 95.5972 o
189.56 74.1724 o
188.383 73.538 o
275.432 90.6087 o
303.736 92.7137 o
243.329 82.2175 o
306.166 96.3181 o
173.999 73.9417 o
278.627 89.1957 o
291.13 89.5994 o
220.615 79.1321 o
298.818 96.52 o
355.405 102.662 o
223.387 83.0826 o
224.364 81.6408 o
229.784 80.3432 o
351.537 103.21 o
210.552 78.0075 o
273.137 89.0804 o
229.488 81.5831 o
267.775 87.9846 o
258.382 86.8312 o
186.207 74.7203 o
257.208 83.1114 o
284.196 88.1 o
230.918 87.5233 o
241.741 80.3432 o
228.936 82.8519 o
310.176 97.9329 o
370.582 106.007 o
258.427 87.2061 o
245.367 86.7159 o
170.396 74.2301 o
289.837 91.3007 o
231.783 84.582 o
258.781 85.7355 o
282.891 90.2338 o
171.257 73.5669 o
329.131 95.9144 o
296.399 90.8394 o
289.529 95.3377 o
280.312 87.6674 o
344.766 101.307 o
356.237 103.902 o
291.392 90.205 o
258.434 90.3491 o
262.408 87.4656 o
235.28 84.6397 o
287.372 96.0009 o
278.921 87.8116 o
296.787 93.0885 o
299.79 97.0102 o
280.415 87.5809 o
298.886 91.6179 o
159.295 71.7502 o
251.129 83.9188 o
260.073 84.6974 o
298.699 89.9166 o
311.574 92.829 o
292.761 92.1658 o
271.466 90.551 o
218.39 82.0445 o
347.835 101.307 o
254.028 84.582 o
261.26 85.7643 o
218.928 83.8035 o
303.439 97.4715 o
165.518 75.0086 o
243.425 82.9672 o
349.994 103.44 o
248.512 84.1783 o
320.044 99.6919 o
168.107 72.0097 o
308.876 92.8867 o
310.322 92.9732 o
267.815 86.7447 o
225.922 81.7273 o
254.929 84.4379 o
278.29 91.8198 o
grestore
0.580 0.404 0.741 setrgbcolor
gsave
334.8 217.4 54 36 clipbox
/o {
gsave
newpath
translate
1.0 setlinewidth
1 setlinejoin
0 setlinecap
0 -3 m
0.795609 -3 1.55874 -2.683901 2.12132 -2.12132 c
2.683901 -1.55874 3 -0.795609 3 0 c
3 0.795609 2.683901 1.55874 2.12132 2.12132 c
1.55874 2.683901 0.795609 3 0 3 c
-0.795609 3 -1.55874 2.683901 -2.12132 2.12132 c
-2.683901 1.55874 -3 0.795609 -3 0 c
-3 -0.795609 -2.683901 -1.55874 -2.12132 -2.12132 c
-1.55874 -2.683901 -0.795609 -3 0 -3 c
cl

gsave
0.580 0.404 0.741 setrgbcolor
fill
grestore
stroke
grestore
} bind def
282.438 82.4482 o
244.096 76.3351 o
288.953 87.9558 o
209.29 74.2301 o
259.999 84.236 o
269.477 81.6408 o
318.623 89.8589 o
184.701 70.3661 o
203.857 73.538 o
257.077 80.6892 o
317.881 86.7159 o
221.912 76.1909 o
279.664 81.3236 o
286.942 82.131 o
233.957 75.7007 o
258.717 83.8611 o
267.869 83.9188 o
271.026 85.3894 o
285.636 83.9477 o
267.644 84.6685 o
306.554 89.2246 o
299.368 88.3595 o
298.671 88.1 o
228.71 76.2774 o
308.479 88.8785 o
253.886 77.6615 o
287.688 81.7562 o
286.006 84.0342 o
308.499 84.7262 o
190.714 72.1251 o
228.981 77.229 o
257.69 81.1506 o
72.2182 48.8836 o
290.247 83.6593 o
272.027 80.372 o
272.358 79.7665 o
267.057 79.1898 o
252.789 79.4205 o
351.915 91.4449 o
331.45 91.243 o
274.655 82.9961 o
260.084 80.0837 o
295.819 88.1576 o
278.231 85.1299 o
220.149 75.7584 o
183.134 72.8748 o
316.894 86.9754 o
323.064 87.9846 o
233.022 77.8057 o
258.023 84.0342 o
240.218 77.2001 o
264.104 80.5451 o
227.382 76.1621 o
343.734 91.9063 o
215.993 78.2671 o
276.629 83.544 o
245.378 76.5081 o
232.952 76.5081 o
256.474 77.8057 o
178.161 71.606 o
309.771 83.9188 o
286.485 82.3329 o
195.906 74.3454 o
270.018 83.6305 o
267.219 79.9107 o
332.123 92.5118 o
278.042 80.4009 o
330.261 90.4357 o
360.384 94.5015 o
284.261 81.0929 o
244.343 80.9776 o
287.691 87.2926 o
316.678 89.4552 o
105.49 62.4652 o
293.44 85.7643 o
241.638 78.1805 o
289.563 87.4944 o
251.263 82.304 o
183.685 70.1066 o
195.273 72.0674 o
249 82.7654 o
227.128 75.4123 o
255.841 79.2763 o
257.792 78.8438 o
233.841 76.4216 o
202.82 74.7203 o
266.864 83.8323 o
250.935 79.0456 o
157.137 67.3672 o
205.099 72.4711 o
252.33 78.0652 o
241.532 76.9695 o
203.892 71.606 o
354.972 93.2327 o
327.36 91.6467 o
148.483 66.3003 o
263.198 82.5636 o
211.465 72.5865 o
264.04 81.2371 o
311.578 85.5048 o
283.015 83.9765 o
312.674 89.8878 o
226.868 74.4896 o
281.911 86.7735 o
271.596 85.3318 o
252.442 80.6604 o
270.047 85.2164 o
121.606 63.4167 o
260.658 82.2175 o
269.14 85.5048 o
281.212 80.9488 o
215.397 72.4423 o
212.236 78.3824 o
351.263 90.205 o
291.441 89.8589 o
268.808 79.4493 o
305.731 87.7539 o
189.56 69.6164 o
188.383 69.0974 o
275.432 83.544 o
303.736 84.7262 o
243.329 76.1332 o
306.166 88.7632 o
173.999 69.4434 o
278.627 82.0445 o
291.13 82.1022 o
220.615 73.6245 o
298.818 88.3595 o
355.405 92.9155 o
223.387 77.2001 o
224.364 75.7584 o
229.784 74.6049 o
351.537 93.5787 o
210.552 72.7306 o
273.137 82.1887 o
229.488 75.6719 o
267.775 81.0353 o
258.382 80.1702 o
186.207 70.0778 o
257.208 76.8253 o
284.196 81.0064 o
230.918 81.6408 o
241.741 74.5761 o
228.936 76.8541 o
310.176 89.7436 o
370.582 95.7991 o
258.427 80.6316 o
245.367 80.4586 o
170.396 69.6741 o
289.837 83.7746 o
231.783 78.6419 o
258.781 79.0744 o
282.891 82.9096 o
171.257 69.1262 o
329.131 87.4079 o
296.399 83.1403 o
289.529 87.5521 o
280.312 80.5451 o
344.766 92.1658 o
356.237 94.1554 o
291.392 82.6501 o
258.434 84.7262 o
262.408 80.6892 o
235.28 78.5266 o
287.372 88.1288 o
278.921 80.6892 o
296.787 85.3318 o
299.79 88.5902 o
280.415 80.4586 o
298.886 83.89 o
159.295 67.6844 o
251.129 77.575 o
260.073 78.1517 o
298.699 82.304 o
311.574 84.8127 o
292.761 84.582 o
271.466 83.8035 o
218.39 76.2486 o
347.835 91.4449 o
254.028 78.094 o
261.26 79.0744 o
218.928 77.8922 o
303.439 89.2822 o
165.518 70.3084 o
243.425 76.7964 o
349.994 93.8959 o
248.512 77.8057 o
320.044 90.7528 o
168.107 67.8574 o
308.876 84.9569 o
310.322 85.0722 o
267.815 79.8818 o
225.922 75.8449 o
254.929 77.9787 o
278.29 84.8704 o
grestore
0.549 0.337 0.294 setrgbcolor
gsave
334.8 217.4 54 36 clipbox
/o {
gsave
newpath
translate
1.0 setlinewidth
1 setlinejoin
0 setlinecap
0 -3 m
0.795609 -3 1.55874 -2.683901 2.12132 -2.12132 c
2.683901 -1.55874 3 -0.795609 3 0 c
3 0.795609 2.683901 1.55874 2.12132 2.12132 c
1.55874 2.683901 0.795609 3 0 3 c
-0.795609 3 -1.55874 2.683901 -2.12132 2.12132 c
-2.683901 1.55874 -3 0.795609 -3 0 c
-3 -0.795609 -2.683901 -1.55874 -2.12132 -2.12132 c
-1.55874 -2.683901 -0.795609 -3 0 -3 c
cl

gsave
0.549 0.337 0.294 setrgbcolor
fill
grestore
stroke
grestore
} bind def
282.438 77.4597 o
244.096 72.1828 o
288.953 83.0538 o
209.29 70.4815 o
259.999 79.9395 o
269.477 76.8829 o
318.623 84.1207 o
184.701 67.1365 o
203.857 69.8471 o
257.077 76.2197 o
317.881 81.0353 o
221.912 72.2404 o
279.664 76.4504 o
286.942 77.0848 o
233.957 71.6926 o
258.717 79.6223 o
267.869 79.2475 o
271.026 80.199 o
285.636 78.9591 o
267.644 80.4874 o
306.554 83.3709 o
299.368 82.6501 o
298.671 82.9672 o
228.71 72.2404 o
308.479 83.1403 o
253.886 73.365 o
287.688 76.7676 o
286.006 79.0168 o
308.499 79.2763 o
190.714 68.6648 o
228.981 73.2208 o
257.69 76.7388 o
72.2182 48.8836 o
290.247 78.5554 o
272.027 75.6142 o
272.358 75.0663 o
267.057 74.6049 o
252.789 75.0086 o
351.915 85.3606 o
331.45 85.2741 o
274.655 78.3247 o
260.084 75.5277 o
295.819 82.477 o
278.231 80.1414 o
220.149 71.8367 o
183.134 69.328 o
316.894 81.3525 o
323.064 82.1599 o
233.022 73.711 o
258.023 79.0744 o
240.218 73.019 o
264.104 75.9314 o
227.382 72.1251 o
343.734 86.0527 o
215.993 74.8356 o
276.629 78.9014 o
245.378 72.3269 o
232.952 72.4134 o
256.474 73.4515 o
178.161 68.2034 o
309.771 78.4977 o
286.485 77.2866 o
195.906 70.6833 o
270.018 79.2475 o
267.219 75.2682 o
332.123 86.2833 o
278.042 75.6142 o
330.261 84.4667 o
360.384 88.2442 o
284.261 76.1909 o
244.343 77.1713 o
287.691 81.785 o
316.678 83.7458 o
105.49 60.5332 o
293.44 80.8623 o
241.638 73.9706 o
289.563 81.9292 o
251.263 78.5554 o
183.685 66.9059 o
195.273 68.5783 o
249 78.2382 o
227.128 71.433 o
255.841 74.8068 o
257.792 74.3454 o
233.841 72.3269 o
202.82 70.9717 o
266.864 79.0456 o
250.935 74.6626 o
157.137 64.6278 o
205.099 68.9243 o
252.33 73.711 o
241.532 72.7883 o
203.892 68.1746 o
354.972 86.7159 o
327.36 85.3894 o
148.483 63.7339 o
263.198 78.1805 o
211.465 69.0108 o
264.04 76.6523 o
311.578 79.9684 o
283.015 79.0456 o
312.674 83.9188 o
226.868 70.6256 o
281.911 81.958 o
271.596 80.4874 o
252.442 76.3062 o
270.047 80.0837 o
121.606 61.3118 o
260.658 77.9787 o
269.14 80.2855 o
281.212 76.0756 o
215.397 68.8667 o
212.236 74.4608 o
351.263 83.9765 o
291.441 84.2937 o
268.808 74.8356 o
305.731 82.304 o
189.56 66.5022 o
188.383 66.0696 o
275.432 78.9014 o
303.736 79.3051 o
243.329 72.0097 o
306.166 84.1207 o
173.999 66.3868 o
278.627 77.1713 o
291.13 77.0271 o
220.615 69.8759 o
298.818 82.7077 o
355.405 86.3122 o
223.387 73.2785 o
224.364 71.7791 o
229.784 70.7121 o
351.537 86.9754 o
210.552 69.1262 o
273.137 77.575 o
229.488 71.6926 o
267.775 76.3351 o
258.382 75.643 o
186.207 66.9059 o
257.208 72.5576 o
284.196 76.1909 o
230.918 77.4308 o
241.741 70.6545 o
228.936 72.7883 o
310.176 83.9765 o
370.582 88.8497 o
258.427 76.2197 o
245.367 76.4216 o
170.396 66.5598 o
289.837 78.6996 o
231.783 74.7203 o
258.781 74.5761 o
282.891 77.921 o
171.257 66.0985 o
329.131 81.612 o
296.399 77.9499 o
289.529 82.1022 o
280.312 75.7007 o
344.766 85.8796 o
356.237 87.4944 o
291.392 77.5173 o
258.434 81.6408 o
262.408 76.1044 o
235.28 74.4608 o
287.372 82.6212 o
278.921 75.8449 o
296.787 80.1125 o
299.79 82.8231 o
280.415 75.6142 o
298.886 78.6131 o
159.295 64.8874 o
251.129 73.2497 o
260.073 73.711 o
298.699 77.1425 o
311.574 79.3916 o
292.761 79.507 o
271.466 79.334 o
218.39 72.3269 o
347.835 84.7839 o
254.028 73.711 o
261.26 74.5473 o
218.928 73.9129 o
303.439 83.5728 o
165.518 67.1077 o
243.425 72.6153 o
349.994 87.3503 o
248.512 73.5092 o
320.044 84.6397 o
168.107 65.0315 o
308.876 79.5358 o
310.322 79.68 o
267.815 75.2105 o
225.922 71.8656 o
254.929 73.5669 o
278.29 80.1702 o
grestore
0.890 0.467 0.761 setrgbcolor
gsave
334.8 217.4 54 36 clipbox
/o {
gsave
newpath
translate
1.0 setlinewidth
1 setlinejoin
0 setlinecap
0 -3 m
0.795609 -3 1.55874 -2.683901 2.12132 -2.12132 c
2.683901 -1.55874 3 -0.795609 3 0 c
3 0.795609 2.683901 1.55874 2.12132 2.12132 c
1.55874 2.683901 0.795609 3 0 3 c
-0.795609 3 -1.55874 2.683901 -2.12132 2.12132 c
-2.683901 1.55874 -3 0.795609 -3 0 c
-3 -0.795609 -2.683901 -1.55874 -2.12132 -2.12132 c
-1.55874 -2.683901 -0.795609 -3 0 -3 c
cl

gsave
0.890 0.467 0.761 setrgbcolor
fill
grestore
stroke
grestore
} bind def
282.438 73.8552 o
244.096 69.155 o
288.953 79.0744 o
209.29 67.7421 o
259.999 76.4216 o
269.477 73.4227 o
318.623 79.8242 o
184.701 64.8009 o
203.857 67.1942 o
257.077 73.0478 o
317.881 76.9118 o
221.912 69.3857 o
279.664 72.9036 o
286.942 73.4515 o
233.957 68.7513 o
258.717 76.1909 o
267.869 75.7295 o
271.026 76.3927 o
285.636 75.4123 o
267.644 76.9118 o
306.554 79.1033 o
299.368 78.4401 o
298.671 78.9879 o
228.71 69.328 o
308.479 78.9303 o
253.886 70.2219 o
287.688 73.1343 o
286.006 75.47 o
308.499 75.297 o
190.714 66.1273 o
228.981 70.3661 o
257.69 73.6534 o
72.2182 48.8836 o
290.247 74.8645 o
272.027 72.1828 o
272.358 71.6637 o
267.057 71.26 o
252.789 71.8079 o
351.915 81.0064 o
331.45 80.8623 o
274.655 75.0663 o
260.084 72.2404 o
295.819 78.2959 o
278.231 76.4504 o
220.149 68.982 o
183.134 66.7328 o
316.894 77.2866 o
323.064 77.9499 o
233.022 70.7698 o
258.023 75.4123 o
240.218 69.9624 o
264.104 72.5576 o
227.382 69.2415 o
343.734 81.6696 o
215.993 72.673 o
276.629 75.6142 o
245.378 69.2992 o
232.952 69.4722 o
256.474 70.2796 o
178.161 65.7524 o
309.771 74.6049 o
286.485 73.6245 o
195.906 68.0304 o
270.018 76.0179 o
267.219 71.8944 o
332.123 81.7273 o
278.042 72.1251 o
330.261 80.0837 o
360.384 83.5151 o
284.261 72.6153 o
244.343 74.5761 o
287.691 77.7192 o
316.678 79.5358 o
105.49 59.1203 o
293.44 77.4885 o
241.638 70.9428 o
289.563 77.8345 o
251.263 75.5853 o
183.685 64.599 o
195.273 66.0696 o
249 74.8068 o
227.128 68.5495 o
255.841 71.5484 o
257.792 71.087 o
233.841 69.3857 o
202.82 68.29 o
266.864 75.5853 o
250.935 71.4619 o
157.137 62.6382 o
205.099 66.3291 o
252.33 70.5391 o
241.532 69.7606 o
203.892 65.6948 o
354.972 81.958 o
327.36 80.8334 o
148.483 61.8596 o
263.198 74.8933 o
211.465 66.4156 o
264.04 73.3362 o
311.578 75.9602 o
283.015 75.5565 o
312.674 79.5647 o
226.868 67.8286 o
281.911 78.1517 o
271.596 76.7676 o
252.442 73.2497 o
270.047 76.3062 o
121.606 59.7835 o
260.658 75.124 o
269.14 76.4504 o
281.212 72.5576 o
215.397 66.2715 o
212.236 71.6926 o
351.263 79.4781 o
291.441 80.1125 o
268.808 71.4619 o
305.731 78.2671 o
189.56 64.2241 o
188.383 63.8781 o
275.432 75.8449 o
303.736 75.3835 o
243.329 69.0108 o
306.166 80.199 o
173.999 64.1376 o
278.627 73.6245 o
291.13 73.3362 o
220.615 67.1654 o
298.818 78.5842 o
355.405 81.4966 o
223.387 70.5103 o
224.364 68.9243 o
229.784 67.9151 o
351.537 82.1599 o
210.552 66.531 o
273.137 74.2589 o
229.488 68.7802 o
267.775 72.9325 o
258.382 72.3846 o
186.207 64.5702 o
257.208 69.4722 o
284.196 72.673 o
230.918 74.1724 o
241.741 67.8286 o
228.936 69.8759 o
310.176 79.7377 o
370.582 83.7746 o
258.427 73.0767 o
245.367 74.1147 o
170.396 64.3107 o
289.837 75.0375 o
231.783 72.0386 o
258.781 71.2889 o
282.891 74.3454 o
171.257 63.907 o
329.131 77.4308 o
296.399 74.1724 o
289.529 78.0652 o
280.312 72.2116 o
344.766 81.2948 o
356.237 82.6212 o
291.392 73.7975 o
258.434 77.921 o
262.408 72.7883 o
235.28 71.6349 o
287.372 78.5554 o
278.921 72.3558 o
296.787 76.3927 o
299.79 78.5842 o
280.415 72.1251 o
298.886 74.8068 o
159.295 62.84 o
251.129 70.1354 o
260.073 70.4815 o
298.699 73.3938 o
311.574 75.4412 o
292.761 75.8449 o
271.466 75.9602 o
218.39 69.5299 o
347.835 79.9972 o
254.028 70.5391 o
261.26 71.26 o
218.928 71.1447 o
303.439 79.3628 o
165.518 64.8009 o
243.425 69.5876 o
349.994 82.5924 o
248.512 70.3661 o
320.044 80.1702 o
168.107 62.9842 o
308.876 75.5853 o
310.322 75.7584 o
267.815 71.8367 o
225.922 68.982 o
254.929 70.395 o
278.29 76.5946 o
grestore
0.498 setgray
gsave
334.8 217.4 54 36 clipbox
/o {
gsave
newpath
translate
1.0 setlinewidth
1 setlinejoin
0 setlinecap
0 -3 m
0.795609 -3 1.55874 -2.683901 2.12132 -2.12132 c
2.683901 -1.55874 3 -0.795609 3 0 c
3 0.795609 2.683901 1.55874 2.12132 2.12132 c
1.55874 2.683901 0.795609 3 0 3 c
-0.795609 3 -1.55874 2.683901 -2.12132 2.12132 c
-2.683901 1.55874 -3 0.795609 -3 0 c
-3 -0.795609 -2.683901 -1.55874 -2.12132 -2.12132 c
-1.55874 -2.683901 -0.795609 -3 0 -3 c
cl

gsave
0.498 setgray
fill
grestore
stroke
grestore
} bind def
282.438 71.1447 o
244.096 66.877 o
288.953 75.9602 o
209.29 65.6659 o
259.999 73.5957 o
269.477 70.7986 o
318.623 76.5369 o
184.701 63.0131 o
203.857 65.1469 o
257.077 70.6833 o
317.881 73.7975 o
221.912 67.223 o
279.664 70.2219 o
286.942 70.6833 o
233.957 66.531 o
258.717 73.3938 o
267.869 72.9613 o
271.026 73.4804 o
285.636 72.846 o
267.644 74.0282 o
306.554 75.816 o
299.368 75.2393 o
298.671 75.8737 o
228.71 67.1077 o
308.479 75.7295 o
253.886 67.8574 o
287.688 70.395 o
286.006 72.8748 o
308.499 72.2981 o
190.714 64.1953 o
228.981 68.2323 o
257.69 71.6349 o
72.2182 48.8836 o
290.247 72.0962 o
272.027 69.5876 o
272.358 69.0685 o
267.057 68.7225 o
252.789 69.4145 o
351.915 77.6903 o
331.45 77.4597 o
274.655 72.7883 o
260.084 69.7317 o
295.819 75.124 o
278.231 73.5669 o
220.149 66.8193 o
183.134 64.8009 o
316.894 74.2589 o
323.064 74.778 o
233.022 68.636 o
258.023 72.5865 o
240.218 67.6556 o
264.104 70.0201 o
227.382 67.0212 o
343.734 78.1805 o
215.993 70.6833 o
276.629 73.0478 o
245.378 66.9924 o
232.952 67.223 o
256.474 67.8863 o
178.161 63.8781 o
309.771 71.6349 o
286.485 70.8563 o
195.906 66.0408 o
270.018 73.3073 o
267.219 69.328 o
332.123 78.2671 o
278.042 69.4722 o
330.261 76.7099 o
360.384 79.8242 o
284.261 69.9047 o
244.343 72.1828 o
287.691 74.6338 o
316.678 76.2774 o
105.49 58.0245 o
293.44 74.7491 o
241.638 68.636 o
289.563 74.6914 o
251.263 72.9613 o
183.685 62.84 o
195.273 64.1376 o
249 72.1539 o
227.128 66.3868 o
255.841 69.0974 o
257.792 68.636 o
233.841 67.1365 o
202.82 66.2426 o
266.864 72.9036 o
250.935 69.0685 o
157.137 61.1099 o
205.099 64.3683 o
252.33 68.1169 o
241.532 67.4537 o
203.892 63.7916 o
354.972 78.3247 o
327.36 77.3443 o
148.483 60.4179 o
263.198 72.2981 o
211.465 64.4548 o
264.04 70.914 o
311.578 72.9036 o
283.015 73.0767 o
312.674 76.2486 o
226.868 65.6948 o
281.911 75.124 o
271.596 73.8264 o
252.442 71.1735 o
270.047 73.3938 o
121.606 58.6012 o
260.658 72.7306 o
269.14 73.5092 o
281.212 69.8759 o
215.397 64.3107 o
212.236 69.5876 o
351.263 76.0467 o
291.441 76.8541 o
268.808 68.8955 o
305.731 75.1817 o
189.56 62.494 o
188.383 62.1768 o
275.432 74.2301 o
303.736 72.4134 o
243.329 66.7328 o
306.166 76.9983 o
173.999 62.4363 o
278.627 70.9717 o
291.13 70.5391 o
220.615 65.0892 o
298.818 75.4123 o
355.405 77.8634 o
223.387 68.5495 o
224.364 66.7328 o
229.784 65.7524 o
351.537 78.4689 o
210.552 64.5413 o
273.137 71.7791 o
229.488 66.5598 o
267.775 70.3661 o
258.382 69.9336 o
186.207 62.8112 o
257.208 67.1077 o
284.196 70.0201 o
230.918 71.606 o
241.741 65.6659 o
228.936 67.6556 o
310.176 76.4793 o
370.582 79.9107 o
258.427 70.7698 o
245.367 73.6534 o
170.396 62.5805 o
289.837 72.2693 o
231.783 70.1354 o
258.781 68.809 o
282.891 71.6349 o
171.257 62.2345 o
329.131 74.2301 o
296.399 71.2889 o
289.529 74.951 o
280.312 69.5587 o
344.766 77.8057 o
356.237 78.9303 o
291.392 70.9717 o
258.434 74.9798 o
262.408 70.3084 o
235.28 69.6741 o
287.372 75.4412 o
278.921 69.7029 o
296.787 73.6822 o
299.79 75.3547 o
280.415 69.4722 o
298.886 71.9232 o
159.295 61.2829 o
251.129 67.7421 o
260.073 68.0304 o
298.699 70.568 o
311.574 72.4423 o
292.761 73.1632 o
271.466 73.2497 o
218.39 67.4537 o
347.835 76.3639 o
254.028 68.1169 o
261.26 68.7513 o
218.928 69.1262 o
303.439 76.1044 o
165.518 63.0131 o
243.425 67.2807 o
349.994 78.9303 o
248.512 67.9728 o
320.044 76.7676 o
168.107 61.3983 o
308.876 72.6153 o
310.322 72.7883 o
267.815 69.2415 o
225.922 66.7905 o
254.929 67.9728 o
278.29 73.7687 o
grestore
0.737 0.741 0.133 setrgbcolor
gsave
334.8 217.4 54 36 clipbox
/o {
gsave
newpath
translate
1.0 setlinewidth
1 setlinejoin
0 setlinecap
0 -3 m
0.795609 -3 1.55874 -2.683901 2.12132 -2.12132 c
2.683901 -1.55874 3 -0.795609 3 0 c
3 0.795609 2.683901 1.55874 2.12132 2.12132 c
1.55874 2.683901 0.795609 3 0 3 c
-0.795609 3 -1.55874 2.683901 -2.12132 2.12132 c
-2.683901 1.55874 -3 0.795609 -3 0 c
-3 -0.795609 -2.683901 -1.55874 -2.12132 -2.12132 c
-1.55874 -2.683901 -0.795609 -3 0 -3 c
cl

gsave
0.737 0.741 0.133 setrgbcolor
fill
grestore
stroke
grestore
} bind def
282.438 68.982 o
244.096 65.0604 o
288.953 73.4515 o
209.29 64.0511 o
259.999 71.3465 o
269.477 68.7513 o
318.623 73.8841 o
184.701 61.6001 o
203.857 63.5609 o
257.077 68.9532 o
317.881 71.3465 o
221.912 65.5506 o
279.664 68.1169 o
286.942 68.4918 o
233.957 64.8009 o
258.717 71.1447 o
267.869 70.741 o
271.026 71.1447 o
285.636 71.0582 o
267.644 71.6637 o
306.554 73.2208 o
299.368 72.7018 o
298.671 73.365 o
228.71 65.3776 o
308.479 73.1632 o
253.886 65.9543 o
287.688 68.2034 o
286.006 71.087 o
308.499 69.9336 o
190.714 62.6959 o
228.981 66.6175 o
257.69 71.26 o
72.2182 48.8836 o
290.247 69.9336 o
272.027 67.5402 o
272.358 67.05 o
267.057 66.7328 o
252.789 67.5402 o
351.915 75.0086 o
331.45 74.7491 o
274.655 71.0005 o
260.084 67.7998 o
295.819 72.5865 o
278.231 71.26 o
220.149 65.1469 o
183.134 63.2726 o
316.894 71.8656 o
323.064 72.3269 o
233.022 67.0212 o
258.023 70.3661 o
240.218 65.8389 o
264.104 68.0593 o
227.382 65.2911 o
343.734 75.4123 o
215.993 68.8667 o
276.629 70.8852 o
245.378 65.1757 o
232.952 65.4641 o
256.474 65.9831 o
178.161 62.3787 o
309.771 69.2992 o
286.485 68.6937 o
195.906 64.5125 o
270.018 71.087 o
267.219 67.3095 o
332.123 75.5277 o
278.042 67.3961 o
330.261 74.0282 o
360.384 76.8829 o
284.261 67.7709 o
244.343 70.1354 o
287.691 72.1539 o
316.678 73.6822 o
105.49 57.1594 o
293.44 72.3846 o
241.638 66.877 o
289.563 72.2116 o
251.263 70.7986 o
183.685 61.4559 o
195.273 62.6382 o
249 70.0201 o
227.128 64.6567 o
255.841 67.1654 o
257.792 66.6752 o
233.841 65.3776 o
202.82 64.6855 o
266.864 70.7121 o
250.935 67.1942 o
157.137 59.8988 o
205.099 62.8112 o
252.33 66.2426 o
241.532 65.6371 o
203.892 62.2922 o
354.972 75.47 o
327.36 74.6049 o
148.483 59.2933 o
263.198 70.1643 o
211.465 62.8977 o
264.04 69.0974 o
311.578 70.5103 o
283.015 72.7018 o
312.674 73.5957 o
226.868 64.0223 o
281.911 72.7018 o
271.596 71.4907 o
252.442 70.0489 o
270.047 71.0582 o
121.606 57.6785 o
260.658 70.6256 o
269.14 71.1447 o
281.212 67.7709 o
215.397 62.7535 o
212.236 67.8863 o
351.263 73.365 o
291.441 74.2877 o
268.808 66.9059 o
305.731 72.7306 o
189.56 61.1387 o
188.383 60.8504 o
275.432 72.1539 o
303.736 70.0778 o
243.329 64.945 o
306.166 74.3454 o
173.999 61.0811 o
278.627 68.8667 o
291.13 68.3476 o
220.615 63.4744 o
298.818 72.8748 o
355.405 75.0375 o
223.387 67.3095 o
224.364 65.0315 o
229.784 64.08 o
351.537 75.5853 o
210.552 62.9554 o
273.137 69.8759 o
229.488 64.8297 o
267.775 68.3765 o
258.382 68.0593 o
186.207 61.4271 o
257.208 65.2622 o
284.196 67.9151 o
230.918 69.5299 o
241.741 63.9646 o
228.936 65.9543 o
310.176 73.8841 o
370.582 76.8541 o
258.427 69.0685 o
245.367 71.4907 o
170.396 61.1964 o
289.837 70.1354 o
231.783 68.5206 o
258.781 66.8482 o
282.891 69.5299 o
171.257 60.9081 o
329.131 71.7214 o
296.399 69.0397 o
289.529 72.4711 o
280.312 67.4537 o
344.766 75.0375 o
356.237 75.989 o
291.392 68.7513 o
258.434 72.5865 o
262.408 68.4053 o
235.28 68.6937 o
287.372 72.9613 o
278.921 67.5979 o
296.787 71.8079 o
299.79 72.8171 o
280.415 67.3672 o
298.886 69.6452 o
159.295 60.0718 o
251.129 65.8678 o
260.073 66.1273 o
298.699 68.3476 o
311.574 70.0778 o
292.761 71.2312 o
271.466 71.0293 o
218.39 65.8678 o
347.835 73.5092 o
254.028 66.185 o
261.26 66.7905 o
218.928 67.5979 o
303.439 73.538 o
165.518 61.6289 o
243.425 65.4641 o
349.994 76.0756 o
248.512 66.0985 o
320.044 74.0571 o
168.107 60.1583 o
308.876 70.2508 o
310.322 70.4238 o
267.815 67.223 o
225.922 65.0604 o
254.929 66.0696 o
278.29 71.4619 o
grestore
0.800 setlinewidth
0.000 setgray
gsave
/o {
gsave
newpath
translate
0.8 setlinewidth
1 setlinejoin
0 setlinecap
0 0 m
0 -3.5 l

gsave
0.000 setgray
fill
grestore
stroke
grestore
} bind def
72.2182 36 o
grestore
/DejaVuSans findfont
10.000 scalefont
setfont
gsave
69.038494 21.406250 translate
0.000000 rotate
0.000000 0.000000 m /zero glyphshow
grestore
gsave
/o {
gsave
newpath
translate
0.8 setlinewidth
1 setlinejoin
0 setlinecap
0 0 m
0 -3.5 l

gsave
0.000 setgray
fill
grestore
stroke
grestore
} bind def
110.512 36 o
grestore
gsave
107.332128 21.406250 translate
0.000000 rotate
0.000000 0.000000 m /two glyphshow
grestore
gsave
/o {
gsave
newpath
translate
0.8 setlinewidth
1 setlinejoin
0 setlinecap
0 0 m
0 -3.5 l

gsave
0.000 setgray
fill
grestore
stroke
grestore
} bind def
148.805 36 o
grestore
gsave
145.625761 21.406250 translate
0.000000 rotate
0.000000 0.000000 m /four glyphshow
grestore
gsave
/o {
gsave
newpath
translate
0.8 setlinewidth
1 setlinejoin
0 setlinecap
0 0 m
0 -3.5 l

gsave
0.000 setgray
fill
grestore
stroke
grestore
} bind def
187.099 36 o
grestore
gsave
183.919395 21.406250 translate
0.000000 rotate
0.000000 0.000000 m /six glyphshow
grestore
gsave
/o {
gsave
newpath
translate
0.8 setlinewidth
1 setlinejoin
0 setlinecap
0 0 m
0 -3.5 l

gsave
0.000 setgray
fill
grestore
stroke
grestore
} bind def
225.393 36 o
grestore
gsave
222.213029 21.406250 translate
0.000000 rotate
0.000000 0.000000 m /eight glyphshow
grestore
gsave
/o {
gsave
newpath
translate
0.8 setlinewidth
1 setlinejoin
0 setlinecap
0 0 m
0 -3.5 l

gsave
0.000 setgray
fill
grestore
stroke
grestore
} bind def
263.686 36 o
grestore
gsave
257.326975 21.406250 translate
0.000000 rotate
0.000000 0.000000 m /one glyphshow
6.362305 0.000000 m /zero glyphshow
grestore
gsave
/o {
gsave
newpath
translate
0.8 setlinewidth
1 setlinejoin
0 setlinecap
0 0 m
0 -3.5 l

gsave
0.000 setgray
fill
grestore
stroke
grestore
} bind def
301.98 36 o
grestore
gsave
295.620608 21.406250 translate
0.000000 rotate
0.000000 0.000000 m /one glyphshow
6.362305 0.000000 m /two glyphshow
grestore
gsave
/o {
gsave
newpath
translate
0.8 setlinewidth
1 setlinejoin
0 setlinecap
0 0 m
0 -3.5 l

gsave
0.000 setgray
fill
grestore
stroke
grestore
} bind def
340.274 36 o
grestore
gsave
333.914242 21.406250 translate
0.000000 rotate
0.000000 0.000000 m /one glyphshow
6.362305 0.000000 m /four glyphshow
grestore
gsave
/o {
gsave
newpath
translate
0.8 setlinewidth
1 setlinejoin
0 setlinecap
0 0 m
0 -3.5 l

gsave
0.000 setgray
fill
grestore
stroke
grestore
} bind def
378.567 36 o
grestore
gsave
372.207875 21.406250 translate
0.000000 rotate
0.000000 0.000000 m /one glyphshow
6.362305 0.000000 m /six glyphshow
grestore
gsave
/o {
gsave
newpath
translate
0.8 setlinewidth
1 setlinejoin
0 setlinecap
0 0 m
-3.5 0 l

gsave
0.000 setgray
fill
grestore
stroke
grestore
} bind def
54 48.8548 o
grestore
gsave
40.640625 45.057926 translate
0.000000 rotate
0.000000 0.000000 m /zero glyphshow
grestore
gsave
/o {
gsave
newpath
translate
0.8 setlinewidth
1 setlinejoin
0 setlinecap
0 0 m
-3.5 0 l

gsave
0.000 setgray
fill
grestore
stroke
grestore
} bind def
54 77.6903 o
grestore
gsave
27.921875 73.893469 translate
0.000000 rotate
0.000000 0.000000 m /one glyphshow
6.362305 0.000000 m /zero glyphshow
12.724609 0.000000 m /zero glyphshow
grestore
gsave
/o {
gsave
newpath
translate
0.8 setlinewidth
1 setlinejoin
0 setlinecap
0 0 m
-3.5 0 l

gsave
0.000 setgray
fill
grestore
stroke
grestore
} bind def
54 106.526 o
grestore
gsave
27.921875 102.729011 translate
0.000000 rotate
0.000000 0.000000 m /two glyphshow
6.362305 0.000000 m /zero glyphshow
12.724609 0.000000 m /zero glyphshow
grestore
gsave
/o {
gsave
newpath
translate
0.8 setlinewidth
1 setlinejoin
0 setlinecap
0 0 m
-3.5 0 l

gsave
0.000 setgray
fill
grestore
stroke
grestore
} bind def
54 135.361 o
grestore
gsave
27.921875 131.564554 translate
0.000000 rotate
0.000000 0.000000 m /three glyphshow
6.362305 0.000000 m /zero glyphshow
12.724609 0.000000 m /zero glyphshow
grestore
gsave
/o {
gsave
newpath
translate
0.8 setlinewidth
1 setlinejoin
0 setlinecap
0 0 m
-3.5 0 l

gsave
0.000 setgray
fill
grestore
stroke
grestore
} bind def
54 164.197 o
grestore
gsave
27.921875 160.400097 translate
0.000000 rotate
0.000000 0.000000 m /four glyphshow
6.362305 0.000000 m /zero glyphshow
12.724609 0.000000 m /zero glyphshow
grestore
gsave
/o {
gsave
newpath
translate
0.8 setlinewidth
1 setlinejoin
0 setlinecap
0 0 m
-3.5 0 l

gsave
0.000 setgray
fill
grestore
stroke
grestore
} bind def
54 193.033 o
grestore
gsave
27.921875 189.235639 translate
0.000000 rotate
0.000000 0.000000 m /five glyphshow
6.362305 0.000000 m /zero glyphshow
12.724609 0.000000 m /zero glyphshow
grestore
gsave
/o {
gsave
newpath
translate
0.8 setlinewidth
1 setlinejoin
0 setlinecap
0 0 m
-3.5 0 l

gsave
0.000 setgray
fill
grestore
stroke
grestore
} bind def
54 221.868 o
grestore
gsave
27.921875 218.071182 translate
0.000000 rotate
0.000000 0.000000 m /six glyphshow
6.362305 0.000000 m /zero glyphshow
12.724609 0.000000 m /zero glyphshow
grestore
gsave
/o {
gsave
newpath
translate
0.8 setlinewidth
1 setlinejoin
0 setlinecap
0 0 m
-3.5 0 l

gsave
0.000 setgray
fill
grestore
stroke
grestore
} bind def
54 250.704 o
grestore
gsave
27.921875 246.906725 translate
0.000000 rotate
0.000000 0.000000 m /seven glyphshow
6.362305 0.000000 m /zero glyphshow
12.724609 0.000000 m /zero glyphshow
grestore
0 setlinejoin
2 setlinecap
[] 0 setdash
gsave
54 36 m
54 253.44 l
stroke
grestore
gsave
388.8 36 m
388.8 253.44 l
stroke
grestore
gsave
54 36 m
388.8 36 l
stroke
grestore
gsave
54 253.44 m
388.8 253.44 l
stroke
grestore

end
showpage
