%!PS-Adobe-3.0 EPSF-3.0
%%Title: predict.eps
%%Creator: matplotlib version 3.1.1, http://matplotlib.org/
%%CreationDate: Tue Apr 14 18:28:47 2020
%%Orientation: portrait
%%BoundingBox: 90.0 252.0 522.0 540.0
%%EndComments
%%BeginProlog
/mpldict 8 dict def
mpldict begin
/m { moveto } bind def
/l { lineto } bind def
/r { rlineto } bind def
/c { curveto } bind def
/cl { closepath } bind def
/box {
m
1 index 0 r
0 exch r
neg 0 r
cl
} bind def
/clipbox {
box
clip
newpath
} bind def
%!PS-Adobe-3.0 Resource-Font
%%Title: DejaVu Sans
%%Copyright: Copyright (c) 2003 by Bitstream, Inc. All Rights Reserved. Copyright (c) 2006 by Tavmjong Bah. All Rights Reserved. DejaVu changes are in public domain 
%%Creator: Converted from TrueType to type 3 by PPR
25 dict begin
/_d{bind def}bind def
/_m{moveto}_d
/_l{lineto}_d
/_cl{closepath eofill}_d
/_c{curveto}_d
/_sc{7 -1 roll{setcachedevice}{pop pop pop pop pop pop}ifelse}_d
/_e{exec}_d
/FontName /DejaVuSans def
/PaintType 0 def
/FontMatrix[.001 0 0 .001 0 0]def
/FontBBox[-1021 -463 1793 1232]def
/FontType 3 def
/Encoding [ /space /comma /period /zero /one /two /three /four /five /six /seven /eight /nine /equal /C /R /T /asciicircum /underscore /a /d /e /f /n /o /r /t /u /y ] def
/FontInfo 10 dict dup begin
/FamilyName (DejaVu Sans) def
/FullName (DejaVu Sans) def
/Notice (Copyright (c) 2003 by Bitstream, Inc. All Rights Reserved. Copyright (c) 2006 by Tavmjong Bah. All Rights Reserved. DejaVu changes are in public domain ) def
/Weight (Book) def
/Version (Version 2.35) def
/ItalicAngle 0.0 def
/isFixedPitch false def
/UnderlinePosition -130 def
/UnderlineThickness 90 def
end readonly def
/CharStrings 30 dict dup begin
/.notdef 0 def
/space{318 0 0 0 0 0 _sc
}_d
/comma{318 0 77 -115 220 124 _sc
117 124 _m
220 124 _l
220 40 _l
140 -115 _l
77 -115 _l
117 40 _l
117 124 _l
_cl}_d
/period{318 0 107 0 210 124 _sc
107 124 _m
210 124 _l
210 0 _l
107 0 _l
107 124 _l
_cl}_d
/zero{636 0 66 -13 570 742 _sc
318 664 _m
267 664 229 639 203 589 _c
177 539 165 464 165 364 _c
165 264 177 189 203 139 _c
229 89 267 64 318 64 _c
369 64 407 89 433 139 _c
458 189 471 264 471 364 _c
471 464 458 539 433 589 _c
407 639 369 664 318 664 _c
318 742 _m
399 742 461 709 505 645 _c
548 580 570 486 570 364 _c
570 241 548 147 505 83 _c
461 19 399 -13 318 -13 _c
236 -13 173 19 130 83 _c
87 147 66 241 66 364 _c
66 486 87 580 130 645 _c
173 709 236 742 318 742 _c
_cl}_d
/one{636 0 110 0 544 729 _sc
124 83 _m
285 83 _l
285 639 _l
110 604 _l
110 694 _l
284 729 _l
383 729 _l
383 83 _l
544 83 _l
544 0 _l
124 0 _l
124 83 _l
_cl}_d
/two{{636 0 73 0 536 742 _sc
192 83 _m
536 83 _l
536 0 _l
73 0 _l
73 83 _l
110 121 161 173 226 239 _c
290 304 331 346 348 365 _c
380 400 402 430 414 455 _c
426 479 433 504 433 528 _c
433 566 419 598 392 622 _c
365 646 330 659 286 659 _c
255 659 222 653 188 643 _c
154 632 117 616 78 594 _c
78 694 _l
118 710 155 722 189 730 _c
223 738 255 742 284 742 _c
}_e{359 742 419 723 464 685 _c
509 647 532 597 532 534 _c
532 504 526 475 515 449 _c
504 422 484 390 454 354 _c
446 344 420 317 376 272 _c
332 227 271 164 192 83 _c
_cl}_e}_d
/three{{636 0 76 -13 556 742 _sc
406 393 _m
453 383 490 362 516 330 _c
542 298 556 258 556 212 _c
556 140 531 84 482 45 _c
432 6 362 -13 271 -13 _c
240 -13 208 -10 176 -4 _c
144 1 110 10 76 22 _c
76 117 _l
103 101 133 89 166 81 _c
198 73 232 69 268 69 _c
330 69 377 81 409 105 _c
441 129 458 165 458 212 _c
458 254 443 288 413 312 _c
383 336 341 349 287 349 _c
}_e{202 349 _l
202 430 _l
291 430 _l
339 430 376 439 402 459 _c
428 478 441 506 441 543 _c
441 580 427 609 401 629 _c
374 649 336 659 287 659 _c
260 659 231 656 200 650 _c
169 644 135 635 98 623 _c
98 711 _l
135 721 170 729 203 734 _c
235 739 266 742 296 742 _c
370 742 429 725 473 691 _c
517 657 539 611 539 553 _c
539 513 527 479 504 451 _c
481 423 448 403 406 393 _c
_cl}_e}_d
/four{636 0 49 0 580 729 _sc
378 643 _m
129 254 _l
378 254 _l
378 643 _l
352 729 _m
476 729 _l
476 254 _l
580 254 _l
580 172 _l
476 172 _l
476 0 _l
378 0 _l
378 172 _l
49 172 _l
49 267 _l
352 729 _l
_cl}_d
/five{{636 0 77 -13 549 729 _sc
108 729 _m
495 729 _l
495 646 _l
198 646 _l
198 467 _l
212 472 227 476 241 478 _c
255 480 270 482 284 482 _c
365 482 429 459 477 415 _c
525 370 549 310 549 234 _c
549 155 524 94 475 51 _c
426 8 357 -13 269 -13 _c
238 -13 207 -10 175 -6 _c
143 -1 111 6 77 17 _c
77 116 _l
106 100 136 88 168 80 _c
199 72 232 69 267 69 _c
}_e{323 69 368 83 401 113 _c
433 143 450 183 450 234 _c
450 284 433 324 401 354 _c
368 384 323 399 267 399 _c
241 399 214 396 188 390 _c
162 384 135 375 108 363 _c
108 729 _l
_cl}_e}_d
/six{{636 0 70 -13 573 742 _sc
330 404 _m
286 404 251 388 225 358 _c
199 328 186 286 186 234 _c
186 181 199 139 225 109 _c
251 79 286 64 330 64 _c
374 64 409 79 435 109 _c
461 139 474 181 474 234 _c
474 286 461 328 435 358 _c
409 388 374 404 330 404 _c
526 713 _m
526 623 _l
501 635 476 644 451 650 _c
425 656 400 659 376 659 _c
310 659 260 637 226 593 _c
}_e{192 549 172 482 168 394 _c
187 422 211 444 240 459 _c
269 474 301 482 336 482 _c
409 482 467 459 509 415 _c
551 371 573 310 573 234 _c
573 159 550 99 506 54 _c
462 9 403 -13 330 -13 _c
246 -13 181 19 137 83 _c
92 147 70 241 70 364 _c
70 479 97 571 152 639 _c
206 707 280 742 372 742 _c
396 742 421 739 447 735 _c
472 730 498 723 526 713 _c
_cl}_e}_d
/seven{636 0 82 0 551 729 _sc
82 729 _m
551 729 _l
551 687 _l
286 0 _l
183 0 _l
432 646 _l
82 646 _l
82 729 _l
_cl}_d
/eight{{636 0 68 -13 568 742 _sc
318 346 _m
271 346 234 333 207 308 _c
180 283 167 249 167 205 _c
167 161 180 126 207 101 _c
234 76 271 64 318 64 _c
364 64 401 76 428 102 _c
455 127 469 161 469 205 _c
469 249 455 283 429 308 _c
402 333 365 346 318 346 _c
219 388 _m
177 398 144 418 120 447 _c
96 476 85 511 85 553 _c
85 611 105 657 147 691 _c
188 725 245 742 318 742 _c
}_e{390 742 447 725 489 691 _c
530 657 551 611 551 553 _c
551 511 539 476 515 447 _c
491 418 459 398 417 388 _c
464 377 501 355 528 323 _c
554 291 568 251 568 205 _c
568 134 546 80 503 43 _c
459 5 398 -13 318 -13 _c
237 -13 175 5 132 43 _c
89 80 68 134 68 205 _c
68 251 81 291 108 323 _c
134 355 171 377 219 388 _c
183 544 _m
183 506 194 476 218 455 _c
}_e{242 434 275 424 318 424 _c
360 424 393 434 417 455 _c
441 476 453 506 453 544 _c
453 582 441 611 417 632 _c
393 653 360 664 318 664 _c
275 664 242 653 218 632 _c
194 611 183 582 183 544 _c
_cl}_e}_d
/nine{{636 0 63 -13 566 742 _sc
110 15 _m
110 105 _l
134 93 159 84 185 78 _c
210 72 235 69 260 69 _c
324 69 374 90 408 134 _c
442 178 462 244 468 334 _c
448 306 424 284 396 269 _c
367 254 335 247 300 247 _c
226 247 168 269 126 313 _c
84 357 63 417 63 494 _c
63 568 85 628 129 674 _c
173 719 232 742 306 742 _c
390 742 455 709 499 645 _c
543 580 566 486 566 364 _c
}_e{566 248 538 157 484 89 _c
429 21 356 -13 264 -13 _c
239 -13 214 -10 189 -6 _c
163 -2 137 5 110 15 _c
306 324 _m
350 324 385 339 411 369 _c
437 399 450 441 450 494 _c
450 546 437 588 411 618 _c
385 648 350 664 306 664 _c
262 664 227 648 201 618 _c
175 588 162 546 162 494 _c
162 441 175 399 201 369 _c
227 339 262 324 306 324 _c
_cl}_e}_d
/equal{838 0 106 172 732 454 _sc
106 454 _m
732 454 _l
732 372 _l
106 372 _l
106 454 _l
106 255 _m
732 255 _l
732 172 _l
106 172 _l
106 255 _l
_cl}_d
/C{{698 0 56 -13 644 742 _sc
644 673 _m
644 569 _l
610 599 575 622 537 638 _c
499 653 460 661 418 661 _c
334 661 270 635 226 584 _c
182 533 160 460 160 364 _c
160 268 182 194 226 143 _c
270 92 334 67 418 67 _c
460 67 499 74 537 90 _c
575 105 610 128 644 159 _c
644 56 _l
609 32 572 15 534 4 _c
496 -7 455 -13 412 -13 _c
302 -13 215 20 151 87 _c
}_e{87 154 56 246 56 364 _c
56 481 87 573 151 641 _c
215 708 302 742 412 742 _c
456 742 497 736 535 725 _c
573 713 610 696 644 673 _c
_cl}_e}_d
/R{{695 0 98 0 666 729 _sc
444 342 _m
465 334 486 319 506 296 _c
526 272 546 240 566 199 _c
666 0 _l
560 0 _l
467 187 _l
443 235 419 268 397 284 _c
374 300 343 308 304 308 _c
197 308 _l
197 0 _l
98 0 _l
98 729 _l
321 729 _l
404 729 466 711 507 677 _c
548 642 569 589 569 519 _c
569 473 558 434 537 404 _c
515 374 484 353 444 342 _c
197 648 _m
197 389 _l
321 389 _l
}_e{368 389 404 400 428 422 _c
452 444 465 476 465 519 _c
465 561 452 593 428 615 _c
404 637 368 648 321 648 _c
197 648 _l
_cl}_e}_d
/T{611 0 -2 0 614 729 _sc
-2 729 _m
614 729 _l
614 646 _l
355 646 _l
355 0 _l
256 0 _l
256 646 _l
-2 646 _l
-2 729 _l
_cl}_d
/asciicircum{838 0 106 457 732 729 _sc
467 729 _m
732 457 _l
634 457 _l
419 650 _l
204 457 _l
106 457 _l
371 729 _l
467 729 _l
_cl}_d
/underscore{500 0 -9 -235 510 -165 _sc
510 -165 _m
510 -235 _l
-9 -235 _l
-9 -165 _l
510 -165 _l
_cl}_d
/a{{613 0 60 -13 522 560 _sc
343 275 _m
270 275 220 266 192 250 _c
164 233 150 205 150 165 _c
150 133 160 107 181 89 _c
202 70 231 61 267 61 _c
317 61 357 78 387 114 _c
417 149 432 196 432 255 _c
432 275 _l
343 275 _l
522 312 _m
522 0 _l
432 0 _l
432 83 _l
411 49 385 25 355 10 _c
325 -5 287 -13 243 -13 _c
187 -13 142 2 109 33 _c
76 64 60 106 60 159 _c
}_e{60 220 80 266 122 298 _c
163 329 224 345 306 345 _c
432 345 _l
432 354 _l
432 395 418 427 391 450 _c
364 472 326 484 277 484 _c
245 484 215 480 185 472 _c
155 464 127 453 100 439 _c
100 522 _l
132 534 164 544 195 550 _c
226 556 256 560 286 560 _c
365 560 424 539 463 498 _c
502 457 522 395 522 312 _c
_cl}_e}_d
/d{{635 0 55 -13 544 760 _sc
454 464 _m
454 760 _l
544 760 _l
544 0 _l
454 0 _l
454 82 _l
435 49 411 25 382 10 _c
353 -5 319 -13 279 -13 _c
213 -13 159 13 117 65 _c
75 117 55 187 55 273 _c
55 359 75 428 117 481 _c
159 533 213 560 279 560 _c
319 560 353 552 382 536 _c
411 520 435 496 454 464 _c
148 273 _m
148 207 161 155 188 117 _c
215 79 253 61 301 61 _c
}_e{348 61 385 79 413 117 _c
440 155 454 207 454 273 _c
454 339 440 390 413 428 _c
385 466 348 485 301 485 _c
253 485 215 466 188 428 _c
161 390 148 339 148 273 _c
_cl}_e}_d
/e{{615 0 55 -13 562 560 _sc
562 296 _m
562 252 _l
149 252 _l
153 190 171 142 205 110 _c
238 78 284 62 344 62 _c
378 62 412 66 444 74 _c
476 82 509 95 541 113 _c
541 28 _l
509 14 476 3 442 -3 _c
408 -9 373 -13 339 -13 _c
251 -13 182 12 131 62 _c
80 112 55 181 55 268 _c
55 357 79 428 127 481 _c
175 533 241 560 323 560 _c
397 560 455 536 498 489 _c
}_e{540 441 562 377 562 296 _c
472 322 _m
471 371 457 410 431 440 _c
404 469 368 484 324 484 _c
274 484 234 469 204 441 _c
174 413 156 373 152 322 _c
472 322 _l
_cl}_e}_d
/f{352 0 23 0 371 760 _sc
371 760 _m
371 685 _l
285 685 _l
253 685 230 678 218 665 _c
205 652 199 629 199 595 _c
199 547 _l
347 547 _l
347 477 _l
199 477 _l
199 0 _l
109 0 _l
109 477 _l
23 477 _l
23 547 _l
109 547 _l
109 585 _l
109 645 123 690 151 718 _c
179 746 224 760 286 760 _c
371 760 _l
_cl}_d
/n{634 0 91 0 549 560 _sc
549 330 _m
549 0 _l
459 0 _l
459 327 _l
459 379 448 417 428 443 _c
408 469 378 482 338 482 _c
289 482 251 466 223 435 _c
195 404 181 362 181 309 _c
181 0 _l
91 0 _l
91 547 _l
181 547 _l
181 462 _l
202 494 227 519 257 535 _c
286 551 320 560 358 560 _c
420 560 468 540 500 501 _c
532 462 549 405 549 330 _c
_cl}_d
/o{612 0 55 -13 557 560 _sc
306 484 _m
258 484 220 465 192 427 _c
164 389 150 338 150 273 _c
150 207 163 156 191 118 _c
219 80 257 62 306 62 _c
354 62 392 80 420 118 _c
448 156 462 207 462 273 _c
462 337 448 389 420 427 _c
392 465 354 484 306 484 _c
306 560 _m
384 560 445 534 490 484 _c
534 433 557 363 557 273 _c
557 183 534 113 490 63 _c
445 12 384 -13 306 -13 _c
227 -13 165 12 121 63 _c
77 113 55 183 55 273 _c
55 363 77 433 121 484 _c
165 534 227 560 306 560 _c
_cl}_d
/r{411 0 91 0 411 560 _sc
411 463 _m
401 469 390 473 378 476 _c
366 478 353 480 339 480 _c
288 480 249 463 222 430 _c
194 397 181 350 181 288 _c
181 0 _l
91 0 _l
91 547 _l
181 547 _l
181 462 _l
199 495 224 520 254 536 _c
284 552 321 560 365 560 _c
371 560 378 559 386 559 _c
393 558 401 557 411 555 _c
411 463 _l
_cl}_d
/t{392 0 27 0 368 702 _sc
183 702 _m
183 547 _l
368 547 _l
368 477 _l
183 477 _l
183 180 _l
183 135 189 106 201 94 _c
213 81 238 75 276 75 _c
368 75 _l
368 0 _l
276 0 _l
206 0 158 13 132 39 _c
106 65 93 112 93 180 _c
93 477 _l
27 477 _l
27 547 _l
93 547 _l
93 702 _l
183 702 _l
_cl}_d
/u{634 0 85 -13 543 560 _sc
85 216 _m
85 547 _l
175 547 _l
175 219 _l
175 167 185 129 205 103 _c
225 77 255 64 296 64 _c
344 64 383 79 411 110 _c
439 141 453 183 453 237 _c
453 547 _l
543 547 _l
543 0 _l
453 0 _l
453 84 _l
431 50 405 26 377 10 _c
348 -5 315 -13 277 -13 _c
214 -13 166 6 134 45 _c
101 83 85 140 85 216 _c
311 560 _m
311 560 _l
_cl}_d
/y{592 0 30 -207 562 547 _sc
322 -50 _m
296 -114 271 -157 247 -177 _c
223 -197 191 -207 151 -207 _c
79 -207 _l
79 -132 _l
132 -132 _l
156 -132 175 -126 189 -114 _c
203 -102 218 -75 235 -31 _c
251 9 _l
30 547 _l
125 547 _l
296 119 _l
467 547 _l
562 547 _l
322 -50 _l
_cl}_d
end readonly def

/BuildGlyph
 {exch begin
 CharStrings exch
 2 copy known not{pop /.notdef}if
 true 3 1 roll get exec
 end}_d

/BuildChar {
 1 index /Encoding get exch get
 1 index /BuildGlyph get exec
}_d

FontName currentdict end definefont pop
end
%%EndProlog
mpldict begin
90 252 translate
432 288 0 0 clipbox
gsave
0 0 m
432 0 l
432 288 l
0 288 l
cl
1.000 setgray
fill
grestore
gsave
54 36 m
388.8 36 l
388.8 253.44 l
54 253.44 l
cl
1.000 setgray
fill
grestore
1.000 setlinewidth
1 setlinejoin
0 setlinecap
[] 0 setdash
0.122 0.467 0.706 setrgbcolor
gsave
334.8 217.4 54 36 clipbox
/o {
gsave
newpath
translate
1.0 setlinewidth
1 setlinejoin
0 setlinecap
0 -0.273861 m
0.072629 -0.273861 0.142293 -0.245006 0.193649 -0.193649 c
0.245006 -0.142293 0.273861 -0.072629 0.273861 0 c
0.273861 0.072629 0.245006 0.142293 0.193649 0.193649 c
0.142293 0.245006 0.072629 0.273861 0 0.273861 c
-0.072629 0.273861 -0.142293 0.245006 -0.193649 0.193649 c
-0.245006 0.142293 -0.273861 0.072629 -0.273861 0 c
-0.273861 -0.072629 -0.245006 -0.142293 -0.193649 -0.193649 c
-0.142293 -0.245006 -0.072629 -0.273861 0 -0.273861 c
cl

gsave
0.122 0.467 0.706 setrgbcolor
fill
grestore
stroke
grestore
} bind def
268.033 187.103 o
231.82 161.076 o
274.186 214.695 o
198.948 152.685 o
246.84 199.335 o
255.791 184.259 o
302.207 219.957 o
175.725 136.186 o
193.817 149.556 o
244.08 180.988 o
301.506 204.739 o
210.869 161.36 o
265.412 182.125 o
272.286 185.254 o
222.245 158.658 o
245.629 197.77 o
254.272 195.921 o
257.254 200.615 o
271.052 194.499 o
254.061 202.037 o
290.808 216.26 o
284.021 212.704 o
283.364 214.268 o
217.289 161.36 o
292.627 215.122 o
241.066 166.907 o
272.991 183.69 o
271.402 194.783 o
292.646 196.064 o
181.405 143.724 o
217.545 166.196 o
244.659 183.548 o
69.492 46.1575 o
275.408 192.508 o
258.2 178.001 o
258.512 175.299 o
253.505 173.023 o
240.03 175.014 o
333.649 226.073 o
314.322 225.646 o
260.682 191.37 o
246.92 177.574 o
280.67 211.851 o
264.059 200.33 o
209.204 159.369 o
174.246 146.996 o
300.574 206.304 o
306.401 210.286 o
221.362 168.614 o
244.974 195.068 o
228.158 165.201 o
250.717 179.565 o
216.035 160.792 o
325.922 229.487 o
205.279 174.161 o
262.546 194.215 o
233.032 161.787 o
221.296 162.214 o
243.511 167.334 o
169.549 141.449 o
293.847 192.223 o
271.855 186.25 o
186.308 153.68 o
256.303 195.921 o
253.659 176.294 o
314.957 230.624 o
263.88 178.001 o
313.199 221.664 o
341.648 240.296 o
269.754 180.845 o
232.054 185.681 o
272.993 208.437 o
300.37 218.109 o
100.915 103.617 o
278.423 203.886 o
229.499 169.894 o
274.762 209.148 o
238.589 192.508 o
174.766 135.049 o
185.71 143.298 o
236.452 190.943 o
215.795 157.378 o
242.913 174.019 o
244.755 171.743 o
222.136 161.787 o
192.837 155.102 o
253.324 194.926 o
238.28 173.307 o
149.693 123.813 o
194.99 145.004 o
239.597 168.614 o
229.399 164.063 o
193.85 141.307 o
336.536 232.758 o
310.458 226.215 o
141.52 119.404 o
249.861 190.659 o
201.002 145.431 o
250.657 183.121 o
295.554 199.477 o
268.577 194.926 o
296.589 218.962 o
215.55 153.396 o
267.535 209.291 o
257.793 202.037 o
239.703 181.414 o
256.329 200.046 o
116.136 107.457 o
247.462 189.663 o
255.473 201.041 o
266.874 180.276 o
204.716 144.72 o
201.73 172.312 o
333.033 219.246 o
276.536 220.811 o
255.16 174.161 o
290.031 210.997 o
180.315 133.057 o
179.203 130.924 o
261.415 194.215 o
288.147 196.206 o
231.096 160.223 o
290.442 219.957 o
165.618 132.489 o
264.433 185.681 o
276.241 184.97 o
209.644 149.698 o
283.502 212.988 o
336.945 230.767 o
212.262 166.481 o
213.185 159.085 o
218.303 153.822 o
333.292 234.038 o
200.141 146 o
259.248 187.672 o
218.024 158.658 o
254.184 181.556 o
245.313 178.143 o
177.148 135.049 o
244.204 162.925 o
269.693 180.845 o
219.374 186.961 o
229.597 153.538 o
217.503 164.063 o
294.229 219.246 o
351.279 243.283 o
245.355 180.988 o
233.021 181.983 o
162.215 133.342 o
275.02 193.219 o
220.192 173.592 o
245.689 172.881 o
268.46 189.379 o
163.028 131.066 o
312.131 207.584 o
281.218 189.521 o
274.73 210.002 o
266.024 178.428 o
326.897 228.633 o
337.731 236.598 o
276.488 187.388 o
245.362 207.726 o
249.115 180.419 o
223.494 172.312 o
272.692 212.562 o
264.711 179.139 o
281.584 200.188 o
284.42 213.557 o
266.121 178.001 o
283.567 192.792 o
151.731 125.093 o
238.462 166.338 o
246.91 168.614 o
283.389 185.539 o
295.55 196.632 o
277.782 197.201 o
257.67 196.348 o
207.542 161.787 o
329.796 223.229 o
241.201 168.614 o
248.031 172.738 o
208.05 169.61 o
287.867 217.255 o
157.609 136.044 o
231.187 163.209 o
331.835 235.887 o
235.991 167.618 o
303.549 222.518 o
160.054 125.804 o
293.001 197.344 o
294.367 198.055 o
254.221 176.01 o
214.656 159.511 o
242.052 167.903 o
264.114 200.473 o
grestore
1.000 0.498 0.055 setrgbcolor
gsave
334.8 217.4 54 36 clipbox
/o {
gsave
newpath
translate
1.0 setlinewidth
1 setlinejoin
0 setlinecap
0 -0.273861 m
0.072629 -0.273861 0.142293 -0.245006 0.193649 -0.193649 c
0.245006 -0.142293 0.273861 -0.072629 0.273861 0 c
0.273861 0.072629 0.245006 0.142293 0.193649 0.193649 c
0.142293 0.245006 0.072629 0.273861 0 0.273861 c
-0.072629 0.273861 -0.142293 0.245006 -0.193649 0.193649 c
-0.245006 0.142293 -0.273861 0.072629 -0.273861 0 c
-0.273861 -0.072629 -0.245006 -0.142293 -0.193649 -0.193649 c
-0.142293 -0.245006 -0.072629 -0.273861 0 -0.273861 c
cl

gsave
1.000 0.498 0.055 setrgbcolor
fill
grestore
stroke
grestore
} bind def
290.302 187.103 o
254.09 161.076 o
296.455 214.695 o
216.557 152.685 o
265.648 199.335 o
278.061 184.259 o
318.796 219.957 o
178.855 136.186 o
216.086 149.556 o
266.349 180.988 o
323.775 204.739 o
233.138 161.36 o
287.682 182.125 o
294.555 185.254 o
238.317 158.658 o
267.898 197.77 o
266.566 195.921 o
273.843 200.615 o
293.322 194.499 o
276.33 202.037 o
307.397 216.26 o
300.611 212.704 o
305.633 214.268 o
239.117 161.36 o
309.216 215.122 o
239.753 166.907 o
295.26 183.69 o
285.281 194.783 o
314.915 196.064 o
190.589 143.724 o
200.869 166.196 o
266.929 183.548 o
91.7612 46.1575 o
297.677 192.508 o
280.469 178.001 o
280.781 175.299 o
275.775 173.023 o
262.3 175.014 o
346.498 226.073 o
336.591 225.646 o
277.439 191.37 o
269.189 177.574 o
297.259 211.851 o
282.07 200.33 o
231.473 159.369 o
196.515 146.996 o
322.843 206.304 o
328.671 210.286 o
239.492 168.614 o
261.563 195.068 o
250.427 165.201 o
272.986 179.565 o
238.304 160.792 o
348.192 229.487 o
225.651 174.161 o
284.815 194.215 o
255.301 161.787 o
235.887 162.214 o
245.113 167.334 o
191.818 141.449 o
316.116 192.223 o
294.124 186.25 o
181.895 153.68 o
278.572 195.921 o
275.928 176.294 o
310.544 230.624 o
286.15 178.001 o
335.468 221.664 o
363.917 240.296 o
292.023 180.845 o
253.604 185.681 o
289.583 208.437 o
316.959 218.109 o
69.492 103.617 o
295.012 203.886 o
251.769 169.894 o
291.351 209.148 o
255.638 192.508 o
175.451 135.049 o
186.706 143.298 o
247.279 190.943 o
238.064 157.378 o
265.182 174.019 o
267.025 171.743 o
228.562 161.787 o
210.426 155.102 o
269.913 194.926 o
257.773 173.307 o
156.652 123.813 o
217.259 145.004 o
261.088 168.614 o
251.668 164.063 o
214.872 141.307 o
338.138 232.758 o
327.047 226.215 o
163.505 119.404 o
263.054 190.659 o
222.895 145.431 o
272.926 183.121 o
317.823 199.477 o
290.846 194.926 o
313.178 218.962 o
237.539 153.396 o
278.751 209.291 o
280.062 202.037 o
261.972 181.414 o
278.598 200.046 o
138.405 107.457 o
269.731 189.663 o
277.742 201.041 o
274.77 180.276 o
226.986 144.72 o
218.32 172.312 o
355.302 219.246 o
298.805 220.811 o
277.429 174.161 o
292.699 210.997 o
202.584 133.057 o
201.472 130.924 o
275.361 194.215 o
310.416 196.206 o
245.027 160.223 o
301.578 219.957 o
175.551 132.489 o
286.702 185.681 o
298.51 184.97 o
231.913 149.698 o
300.091 212.988 o
351.072 230.767 o
218.05 166.481 o
235.454 159.085 o
227.245 153.822 o
336.422 234.038 o
214.267 146 o
264.663 187.672 o
239.562 158.658 o
276.453 181.556 o
267.582 178.143 o
167.391 135.049 o
266.473 162.925 o
246.784 180.845 o
241.643 186.961 o
251.866 153.538 o
239.772 164.063 o
316.498 219.246 o
367.868 243.283 o
258.212 180.988 o
255.29 181.983 o
184.485 133.342 o
297.29 193.219 o
240.537 173.592 o
267.959 172.881 o
290.729 189.379 o
165.852 131.066 o
307.078 207.584 o
303.487 189.521 o
291.319 210.002 o
288.293 178.428 o
348.388 228.633 o
360.001 236.598 o
296.94 187.388 o
267.631 207.726 o
271.384 180.419 o
238.106 172.312 o
283.908 212.562 o
277.825 179.139 o
303.853 200.188 o
301.009 213.557 o
288.391 178.001 o
305.836 192.792 o
159.803 125.093 o
260.732 166.338 o
269.179 168.614 o
305.659 185.539 o
300.967 196.632 o
298.595 197.201 o
279.939 196.348 o
229.811 161.787 o
352.065 223.229 o
263.47 168.614 o
270.3 172.738 o
230.32 169.61 o
306.711 217.255 o
174.198 136.044 o
253.456 163.209 o
348.424 235.887 o
258.26 167.618 o
320.138 222.518 o
182.323 125.804 o
296.131 197.344 o
292.087 198.055 o
276.49 176.01 o
225.873 159.511 o
264.321 167.903 o
275.331 200.473 o
grestore
0.173 0.627 0.173 setrgbcolor
gsave
334.8 217.4 54 36 clipbox
/o {
gsave
newpath
translate
1.0 setlinewidth
1 setlinejoin
0 setlinecap
0 -0.273861 m
0.072629 -0.273861 0.142293 -0.245006 0.193649 -0.193649 c
0.245006 -0.142293 0.273861 -0.072629 0.273861 0 c
0.273861 0.072629 0.245006 0.142293 0.193649 0.193649 c
0.142293 0.245006 0.072629 0.273861 0 0.273861 c
-0.072629 0.273861 -0.142293 0.245006 -0.193649 0.193649 c
-0.245006 0.142293 -0.273861 0.072629 -0.273861 0 c
-0.273861 -0.072629 -0.245006 -0.142293 -0.193649 -0.193649 c
-0.142293 -0.245006 -0.072629 -0.273861 0 -0.273861 c
cl

gsave
0.173 0.627 0.173 setrgbcolor
fill
grestore
stroke
grestore
} bind def
290.067 187.103 o
253.854 161.076 o
296.22 214.695 o
220.982 152.685 o
268.874 199.335 o
277.825 184.259 o
324.241 219.957 o
197.759 136.186 o
215.851 149.556 o
266.114 180.988 o
323.54 204.739 o
232.903 161.36 o
287.446 182.125 o
294.32 185.254 o
244.279 158.658 o
267.663 197.77 o
276.306 195.921 o
279.288 200.615 o
293.086 194.499 o
276.095 202.037 o
312.842 216.26 o
306.055 212.704 o
305.398 214.268 o
239.323 161.36 o
314.661 215.122 o
263.1 166.907 o
295.025 183.69 o
293.436 194.783 o
314.68 196.064 o
203.439 143.724 o
239.579 166.196 o
266.693 183.548 o
91.526 46.1575 o
297.442 192.508 o
280.234 178.001 o
280.546 175.299 o
275.539 173.023 o
262.064 175.014 o
355.683 226.073 o
336.356 225.646 o
282.716 191.37 o
268.954 177.574 o
302.704 211.851 o
286.093 200.33 o
231.238 159.369 o
196.28 146.996 o
322.608 206.304 o
328.435 210.286 o
243.396 168.614 o
267.008 195.068 o
250.192 165.201 o
272.751 179.565 o
238.069 160.792 o
347.956 229.487 o
227.313 174.161 o
284.58 194.215 o
255.066 161.787 o
243.33 162.214 o
265.545 167.334 o
191.583 141.449 o
315.881 192.223 o
293.889 186.25 o
208.342 153.68 o
278.336 195.921 o
275.693 176.294 o
336.991 230.624 o
285.914 178.001 o
335.233 221.664 o
363.682 240.296 o
291.788 180.845 o
254.088 185.681 o
295.027 208.437 o
322.404 218.109 o
122.949 103.617 o
300.457 203.886 o
251.533 169.894 o
296.796 209.148 o
260.623 192.508 o
196.799 135.049 o
191.447 143.298 o
258.486 190.943 o
237.829 157.378 o
264.947 174.019 o
266.789 171.743 o
237.352 161.787 o
214.871 155.102 o
275.358 194.926 o
260.314 173.307 o
171.727 123.813 o
217.024 145.004 o
261.631 168.614 o
251.433 164.063 o
215.884 141.307 o
358.57 232.758 o
332.492 226.215 o
163.554 119.404 o
271.895 190.659 o
223.036 145.431 o
272.691 183.121 o
317.588 199.477 o
290.611 194.926 o
318.623 218.962 o
237.584 153.396 o
289.569 209.291 o
279.827 202.037 o
261.737 181.414 o
278.363 200.046 o
69.492 107.457 o
269.496 189.663 o
277.507 201.041 o
288.908 180.276 o
226.75 144.72 o
223.764 172.312 o
355.067 219.246 o
298.569 220.811 o
277.194 174.161 o
312.065 210.997 o
202.349 133.057 o
201.237 130.924 o
283.449 194.215 o
310.181 196.206 o
253.13 160.223 o
312.476 219.957 o
184.477 132.489 o
286.467 185.681 o
298.275 184.97 o
231.678 149.698 o
305.536 212.988 o
358.979 230.767 o
234.296 166.481 o
235.218 159.085 o
240.337 153.822 o
355.326 234.038 o
222.175 146 o
269.405 187.672 o
240.058 158.658 o
276.218 181.556 o
267.347 178.143 o
181.466 135.049 o
266.238 162.925 o
291.727 180.845 o
241.408 186.961 o
251.631 153.538 o
239.537 164.063 o
316.263 219.246 o
373.313 243.283 o
267.389 180.988 o
255.055 181.983 o
184.249 133.342 o
297.054 193.219 o
242.226 173.592 o
267.723 172.881 o
290.494 189.379 o
185.062 131.066 o
334.165 207.584 o
303.252 189.521 o
296.764 210.002 o
288.058 178.428 o
348.931 228.633 o
359.765 236.598 o
298.522 187.388 o
267.396 207.726 o
271.149 180.419 o
245.528 172.312 o
294.726 212.562 o
286.745 179.139 o
303.618 200.188 o
306.454 213.557 o
288.155 178.001 o
305.601 192.792 o
171.145 125.093 o
260.496 166.338 o
268.944 168.614 o
305.423 185.539 o
317.584 196.632 o
299.816 197.201 o
279.704 196.348 o
229.576 161.787 o
351.83 223.229 o
263.235 168.614 o
270.065 172.738 o
230.084 169.61 o
309.901 217.255 o
179.643 136.044 o
253.221 163.209 o
353.869 235.887 o
258.025 167.618 o
325.583 222.518 o
182.088 125.804 o
315.035 197.344 o
316.401 198.055 o
276.255 176.01 o
236.69 159.511 o
264.086 167.903 o
286.148 200.473 o
grestore
0.839 0.153 0.157 setrgbcolor
gsave
334.8 217.4 54 36 clipbox
/o {
gsave
newpath
translate
1.0 setlinewidth
1 setlinejoin
0 setlinecap
0 -0.273861 m
0.072629 -0.273861 0.142293 -0.245006 0.193649 -0.193649 c
0.245006 -0.142293 0.273861 -0.072629 0.273861 0 c
0.273861 0.072629 0.245006 0.142293 0.193649 0.193649 c
0.142293 0.245006 0.072629 0.273861 0 0.273861 c
-0.072629 0.273861 -0.142293 0.245006 -0.193649 0.193649 c
-0.245006 0.142293 -0.273861 0.072629 -0.273861 0 c
-0.273861 -0.072629 -0.245006 -0.142293 -0.193649 -0.193649 c
-0.142293 -0.245006 -0.072629 -0.273861 0 -0.273861 c
cl

gsave
0.839 0.153 0.157 setrgbcolor
fill
grestore
stroke
grestore
} bind def
285.972 187.103 o
264.675 161.076 o
246.78 214.695 o
193.884 152.685 o
243.437 199.335 o
266.599 184.259 o
281.895 219.957 o
169.848 136.186 o
179.983 149.556 o
252.553 180.988 o
307.571 204.739 o
214.749 161.36 o
306.001 182.125 o
309.542 185.254 o
218.519 158.658 o
220.458 197.77 o
220.048 195.921 o
236.943 200.615 o
224.051 194.499 o
271.297 202.037 o
270.496 216.26 o
263.71 212.704 o
273.528 214.268 o
201.745 161.36 o
272.315 215.122 o
242.312 166.907 o
275.713 183.69 o
258.539 194.783 o
333.234 196.064 o
172.83 143.724 o
192.355 166.196 o
226.262 183.548 o
110.081 46.1575 o
276.328 192.508 o
274.165 178.001 o
284.111 175.299 o
294.094 173.023 o
234.836 175.014 o
344.96 226.073 o
307.775 225.646 o
240.538 191.37 o
247.099 177.574 o
260.358 211.851 o
258.519 200.33 o
180.459 159.369 o
170.922 146.996 o
330.056 206.304 o
313.96 210.286 o
219.654 168.614 o
224.662 195.068 o
236.17 165.201 o
247.789 179.565 o
218.072 160.792 o
337.375 229.487 o
187.362 174.161 o
237.372 194.215 o
249.41 161.787 o
213.49 162.214 o
236.121 167.334 o
175.41 141.449 o
285.126 192.223 o
293.761 186.25 o
173.162 153.68 o
247.334 195.921 o
260.005 176.294 o
301.811 230.624 o
304.469 178.001 o
331.768 221.664 o
347.861 240.296 o
281.677 180.845 o
222.139 185.681 o
252.682 208.437 o
280.058 218.109 o
141.22 103.617 o
257.692 203.886 o
181.279 169.894 o
254.45 209.148 o
227.962 192.508 o
162.721 135.049 o
177.489 143.298 o
240.466 190.943 o
222.49 157.378 o
237.781 174.019 o
270.008 171.743 o
210.846 161.787 o
180.518 155.102 o
233.012 194.926 o
223.776 173.307 o
114.68 123.813 o
209.775 145.004 o
233.454 168.614 o
233.639 164.063 o
167.646 141.307 o
322.021 232.758 o
290.147 226.215 o
69.492 119.404 o
227.238 190.659 o
191.786 145.431 o
262.877 183.121 o
312.828 199.477 o
257.595 194.926 o
276.277 218.962 o
215.52 153.396 o
268.013 209.291 o
245.35 202.037 o
245.564 181.414 o
267.137 200.046 o
156.725 107.457 o
219.562 189.663 o
266.28 201.041 o
279.243 180.276 o
211.498 144.72 o
181.419 172.312 o
314.555 219.246 o
259.7 220.811 o
295.748 174.161 o
271.414 210.997 o
191.056 133.057 o
190.443 130.924 o
268.924 194.215 o
324.415 196.206 o
249.185 160.223 o
284.79 219.957 o
162.018 132.489 o
289.738 185.681 o
316.83 184.97 o
230.656 149.698 o
258.224 212.988 o
330.845 230.767 o
204.907 166.481 o
201.879 159.085 o
209.23 153.822 o
327.416 234.038 o
194.041 146 o
251.735 187.672 o
225.523 158.658 o
246.899 181.556 o
222.006 178.143 o
141.161 135.049 o
218.868 162.925 o
263.715 180.845 o
200.861 186.961 o
270.185 153.538 o
200.349 164.063 o
245.398 219.246 o
330.967 243.283 o
229.209 180.988 o
215.711 181.983 o
173.023 133.342 o
268.364 193.219 o
208.229 173.592 o
270.811 172.881 o
274.651 189.379 o
158.996 131.066 o
306.254 207.584 o
301.827 189.521 o
254.418 210.002 o
270.078 178.428 o
320.754 228.633 o
340.404 236.598 o
306.835 187.388 o
218.226 207.726 o
204.548 180.419 o
226.265 172.312 o
265.353 212.562 o
271.126 179.139 o
280.252 200.188 o
264.108 213.557 o
306.71 178.001 o
314.616 192.792 o
141.35 125.093 o
263.051 166.338 o
276.901 168.614 o
318.304 185.539 o
298.172 196.632 o
261.694 197.201 o
258.697 196.348 o
181.099 161.787 o
351.683 223.229 o
242.046 168.614 o
255.838 172.738 o
213.229 169.61 o
275.187 217.255 o
137.297 136.044 o
198.875 163.209 o
311.524 235.887 o
249.522 167.618 o
283.237 222.518 o
148.741 125.804 o
287.125 197.344 o
288.267 198.055 o
277.675 176.01 o
215.134 159.511 o
273.887 167.903 o
237.028 200.473 o
grestore
0.580 0.404 0.741 setrgbcolor
gsave
334.8 217.4 54 36 clipbox
/o {
gsave
newpath
translate
1.0 setlinewidth
1 setlinejoin
0 setlinecap
0 -0.273861 m
0.072629 -0.273861 0.142293 -0.245006 0.193649 -0.193649 c
0.245006 -0.142293 0.273861 -0.072629 0.273861 0 c
0.273861 0.072629 0.245006 0.142293 0.193649 0.193649 c
0.142293 0.245006 0.072629 0.273861 0 0.273861 c
-0.072629 0.273861 -0.142293 0.245006 -0.193649 0.193649 c
-0.245006 0.142293 -0.273861 0.072629 -0.273861 0 c
-0.273861 -0.072629 -0.245006 -0.142293 -0.193649 -0.193649 c
-0.142293 -0.245006 -0.072629 -0.273861 0 -0.273861 c
cl

gsave
0.580 0.404 0.741 setrgbcolor
fill
grestore
stroke
grestore
} bind def
268.952 187.103 o
280.879 161.076 o
265.376 214.695 o
195.141 152.685 o
230.397 199.335 o
279.637 184.259 o
269.657 219.957 o
159.661 136.186 o
176.92 149.556 o
263.949 180.988 o
324.359 204.739 o
191.298 161.36 o
298.622 182.125 o
289.174 185.254 o
216.935 158.658 o
227.945 197.77 o
247.221 195.921 o
224.704 200.615 o
268.58 194.499 o
271.526 202.037 o
258.258 216.26 o
251.472 212.704 o
228.341 214.268 o
192.678 161.36 o
260.077 215.122 o
239.388 166.907 o
290.784 183.69 o
284.811 194.783 o
338.637 196.064 o
167.466 143.724 o
187.605 166.196 o
223.485 183.548 o
118.55 46.1575 o
283.072 192.508 o
280.324 178.001 o
285.809 175.299 o
302.564 173.023 o
225.083 175.014 o
328.132 226.073 o
302.473 225.646 o
228.3 191.37 o
241.765 177.574 o
248.12 211.851 o
263.988 200.33 o
188.576 159.369 o
156.406 146.996 o
289.826 206.304 o
301.722 210.286 o
205.533 168.614 o
212.424 195.068 o
242.717 165.201 o
237.995 179.565 o
216.195 160.792 o
325.137 229.487 o
164.948 174.161 o
254.359 194.215 o
257.845 161.787 o
190.654 162.214 o
239.062 167.334 o
155.994 141.449 o
254.641 192.223 o
298.072 186.25 o
165.84 153.68 o
252.803 195.921 o
261.715 176.294 o
294.489 230.624 o
307.548 178.001 o
322.944 221.664 o
342.558 240.296 o
318.379 180.845 o
220 185.681 o
240.444 208.437 o
267.82 218.109 o
134.663 103.617 o
245.873 203.886 o
186.196 169.894 o
242.212 209.148 o
216.731 192.508 o
157.363 135.049 o
172.907 143.298 o
222.897 190.943 o
227.16 157.378 o
266.125 174.019 o
228.635 171.743 o
215.599 161.787 o
165.202 155.102 o
220.774 194.926 o
239.628 173.307 o
69.492 123.813 o
244.048 145.004 o
232.807 168.614 o
269.878 164.063 o
181.289 141.307 o
318.224 232.758 o
277.908 226.215 o
114.976 119.404 o
250.999 190.659 o
203.236 145.431 o
265.928 183.121 o
303.77 199.477 o
290.355 194.926 o
264.039 218.962 o
204.528 153.396 o
265.364 209.291 o
254.023 202.037 o
226.147 181.414 o
262.821 200.046 o
165.195 107.457 o
223.543 189.663 o
279.318 201.041 o
275.489 180.276 o
211.045 144.72 o
169.181 172.312 o
286.226 219.246 o
290.787 220.811 o
301.543 174.161 o
237.816 210.997 o
197.676 133.057 o
207.763 130.924 o
266.275 194.215 o
314.491 196.206 o
267.564 160.223 o
286.924 219.957 o
159.094 132.489 o
290.074 185.681 o
319.641 184.97 o
220.313 149.698 o
250.952 212.988 o
327.096 230.767 o
191.753 166.481 o
198.76 159.085 o
203.818 153.822 o
317.229 234.038 o
190.291 146 o
250.864 187.672 o
222.783 158.658 o
247.126 181.556 o
203.704 178.143 o
155.336 135.049 o
204.163 162.925 o
247.51 180.845 o
198.179 186.961 o
278.655 153.538 o
195.047 164.063 o
269.034 219.246 o
318.729 243.283 o
226.384 180.988 o
222.553 181.983 o
186.061 133.342 o
281.119 193.219 o
223.441 173.592 o
271.876 172.881 o
271.917 189.379 o
151.492 131.066 o
289.05 207.584 o
308.152 189.521 o
242.18 210.002 o
313.731 178.428 o
320.107 228.633 o
335.102 236.598 o
294.597 187.388 o
234.476 207.726 o
244.148 180.419 o
207.844 172.312 o
270.521 212.562 o
286.681 179.139 o
285.826 200.188 o
251.87 213.557 o
315.18 178.001 o
309.947 192.792 o
140.144 125.093 o
276.09 166.338 o
287.469 168.614 o
308.117 185.539 o
285.28 196.632 o
249.455 197.201 o
248.844 196.348 o
186.567 161.787 o
354.624 223.229 o
248.06 168.614 o
258.286 172.738 o
231.896 169.61 o
266.12 217.255 o
125.059 136.044 o
224.192 163.209 o
299.285 235.887 o
237.284 167.618 o
270.999 222.518 o
157.57 125.804 o
276.938 197.344 o
284.212 198.055 o
298.609 176.01 o
212.485 159.511 o
266.023 167.903 o
261.943 200.473 o
grestore
0.800 setlinewidth
0.000 setgray
gsave
/o {
gsave
newpath
translate
0.8 setlinewidth
1 setlinejoin
0 setlinecap
0 0 m
0 -3.5 l

gsave
0.000 setgray
fill
grestore
stroke
grestore
} bind def
69.492 36 o
grestore
/DejaVuSans findfont
10.000 scalefont
setfont
gsave
61.538918 21.406250 translate
0.000000 rotate
0.000000 0.000000 m /zero glyphshow
6.362305 0.000000 m /period glyphshow
9.541016 0.000000 m /zero glyphshow
grestore
gsave
/o {
gsave
newpath
translate
0.8 setlinewidth
1 setlinejoin
0 setlinecap
0 0 m
0 -3.5 l

gsave
0.000 setgray
fill
grestore
stroke
grestore
} bind def
114.7 36 o
grestore
gsave
106.746519 21.406250 translate
0.000000 rotate
0.000000 0.000000 m /two glyphshow
6.362305 0.000000 m /period glyphshow
9.541016 0.000000 m /five glyphshow
grestore
gsave
/o {
gsave
newpath
translate
0.8 setlinewidth
1 setlinejoin
0 setlinecap
0 0 m
0 -3.5 l

gsave
0.000 setgray
fill
grestore
stroke
grestore
} bind def
159.907 36 o
grestore
gsave
151.954120 21.406250 translate
0.000000 rotate
0.000000 0.000000 m /five glyphshow
6.362305 0.000000 m /period glyphshow
9.541016 0.000000 m /zero glyphshow
grestore
gsave
/o {
gsave
newpath
translate
0.8 setlinewidth
1 setlinejoin
0 setlinecap
0 0 m
0 -3.5 l

gsave
0.000 setgray
fill
grestore
stroke
grestore
} bind def
205.115 36 o
grestore
gsave
197.161721 21.406250 translate
0.000000 rotate
0.000000 0.000000 m /seven glyphshow
6.362305 0.000000 m /period glyphshow
9.541016 0.000000 m /five glyphshow
grestore
gsave
/o {
gsave
newpath
translate
0.8 setlinewidth
1 setlinejoin
0 setlinecap
0 0 m
0 -3.5 l

gsave
0.000 setgray
fill
grestore
stroke
grestore
} bind def
250.322 36 o
grestore
gsave
239.189635 21.406250 translate
0.000000 rotate
0.000000 0.000000 m /one glyphshow
6.362305 0.000000 m /zero glyphshow
12.724609 0.000000 m /period glyphshow
15.903320 0.000000 m /zero glyphshow
grestore
gsave
/o {
gsave
newpath
translate
0.8 setlinewidth
1 setlinejoin
0 setlinecap
0 0 m
0 -3.5 l

gsave
0.000 setgray
fill
grestore
stroke
grestore
} bind def
295.53 36 o
grestore
gsave
284.397236 21.406250 translate
0.000000 rotate
0.000000 0.000000 m /one glyphshow
6.362305 0.000000 m /two glyphshow
12.724609 0.000000 m /period glyphshow
15.903320 0.000000 m /five glyphshow
grestore
gsave
/o {
gsave
newpath
translate
0.8 setlinewidth
1 setlinejoin
0 setlinecap
0 0 m
0 -3.5 l

gsave
0.000 setgray
fill
grestore
stroke
grestore
} bind def
340.738 36 o
grestore
gsave
329.604837 21.406250 translate
0.000000 rotate
0.000000 0.000000 m /one glyphshow
6.362305 0.000000 m /five glyphshow
12.724609 0.000000 m /period glyphshow
15.903320 0.000000 m /zero glyphshow
grestore
gsave
/o {
gsave
newpath
translate
0.8 setlinewidth
1 setlinejoin
0 setlinecap
0 0 m
0 -3.5 l

gsave
0.000 setgray
fill
grestore
stroke
grestore
} bind def
385.945 36 o
grestore
gsave
374.812438 21.406250 translate
0.000000 rotate
0.000000 0.000000 m /one glyphshow
6.362305 0.000000 m /seven glyphshow
12.724609 0.000000 m /period glyphshow
15.903320 0.000000 m /five glyphshow
grestore
gsave
211.634375 7.734375 translate
0.000000 rotate
0.000000 0.000000 m /d glyphshow
6.347656 0.000000 m /e glyphshow
12.500000 0.000000 m /f glyphshow
16.020508 0.000000 m /f glyphshow
grestore
gsave
/o {
gsave
newpath
translate
0.8 setlinewidth
1 setlinejoin
0 setlinecap
0 0 m
-3.5 0 l

gsave
0.000 setgray
fill
grestore
stroke
grestore
} bind def
54 46.0153 o
grestore
gsave
40.640625 42.218397 translate
0.000000 rotate
0.000000 0.000000 m /zero glyphshow
grestore
gsave
/o {
gsave
newpath
translate
0.8 setlinewidth
1 setlinejoin
0 setlinecap
0 0 m
-3.5 0 l

gsave
0.000 setgray
fill
grestore
stroke
grestore
} bind def
54 74.4604 o
grestore
gsave
34.281250 70.663563 translate
0.000000 rotate
0.000000 0.000000 m /two glyphshow
6.362305 0.000000 m /zero glyphshow
grestore
gsave
/o {
gsave
newpath
translate
0.8 setlinewidth
1 setlinejoin
0 setlinecap
0 0 m
-3.5 0 l

gsave
0.000 setgray
fill
grestore
stroke
grestore
} bind def
54 102.906 o
grestore
gsave
34.281250 99.108730 translate
0.000000 rotate
0.000000 0.000000 m /four glyphshow
6.362305 0.000000 m /zero glyphshow
grestore
gsave
/o {
gsave
newpath
translate
0.8 setlinewidth
1 setlinejoin
0 setlinecap
0 0 m
-3.5 0 l

gsave
0.000 setgray
fill
grestore
stroke
grestore
} bind def
54 131.351 o
grestore
gsave
34.281250 127.553897 translate
0.000000 rotate
0.000000 0.000000 m /six glyphshow
6.362305 0.000000 m /zero glyphshow
grestore
gsave
/o {
gsave
newpath
translate
0.8 setlinewidth
1 setlinejoin
0 setlinecap
0 0 m
-3.5 0 l

gsave
0.000 setgray
fill
grestore
stroke
grestore
} bind def
54 159.796 o
grestore
gsave
34.281250 155.999063 translate
0.000000 rotate
0.000000 0.000000 m /eight glyphshow
6.362305 0.000000 m /zero glyphshow
grestore
gsave
/o {
gsave
newpath
translate
0.8 setlinewidth
1 setlinejoin
0 setlinecap
0 0 m
-3.5 0 l

gsave
0.000 setgray
fill
grestore
stroke
grestore
} bind def
54 188.241 o
grestore
gsave
27.921875 184.444230 translate
0.000000 rotate
0.000000 0.000000 m /one glyphshow
6.362305 0.000000 m /zero glyphshow
12.724609 0.000000 m /zero glyphshow
grestore
gsave
/o {
gsave
newpath
translate
0.8 setlinewidth
1 setlinejoin
0 setlinecap
0 0 m
-3.5 0 l

gsave
0.000 setgray
fill
grestore
stroke
grestore
} bind def
54 216.686 o
grestore
gsave
27.921875 212.889397 translate
0.000000 rotate
0.000000 0.000000 m /one glyphshow
6.362305 0.000000 m /two glyphshow
12.724609 0.000000 m /zero glyphshow
grestore
gsave
/o {
gsave
newpath
translate
0.8 setlinewidth
1 setlinejoin
0 setlinecap
0 0 m
-3.5 0 l

gsave
0.000 setgray
fill
grestore
stroke
grestore
} bind def
54 245.131 o
grestore
gsave
27.921875 241.334563 translate
0.000000 rotate
0.000000 0.000000 m /one glyphshow
6.362305 0.000000 m /four glyphshow
12.724609 0.000000 m /zero glyphshow
grestore
gsave
21.562500 136.102812 translate
90.000000 rotate
0.000000 0.000000 m /T glyphshow
6.108398 0.000000 m /underscore glyphshow
11.108398 0.000000 m /a glyphshow
grestore
0 setlinejoin
2 setlinecap
[] 0 setdash
gsave
54 36 m
54 253.44 l
stroke
grestore
gsave
388.8 36 m
388.8 253.44 l
stroke
grestore
gsave
54 36 m
388.8 36 l
stroke
grestore
gsave
54 253.44 m
388.8 253.44 l
stroke
grestore
1.000 setlinewidth
0 setlinecap
0.800 setgray
gsave
222.721875 41 m
381.8 41 l
383.133333 41 383.8 41.666667 383.8 43 c
383.8 115.359375 l
383.8 116.692708 383.133333 117.359375 381.8 117.359375 c
222.721875 117.359375 l
221.388542 117.359375 220.721875 116.692708 220.721875 115.359375 c
220.721875 43 l
220.721875 41.666667 221.388542 41 222.721875 41 c
cl
gsave
1.000 setgray
fill
grestore
stroke
grestore
1 setlinejoin
[] 0 setdash
0.122 0.467 0.706 setrgbcolor
gsave
/o {
gsave
newpath
translate
1.0 setlinewidth
1 setlinejoin
0 setlinecap
0 -0.273861 m
0.072629 -0.273861 0.142293 -0.245006 0.193649 -0.193649 c
0.245006 -0.142293 0.273861 -0.072629 0.273861 0 c
0.273861 0.072629 0.245006 0.142293 0.193649 0.193649 c
0.142293 0.245006 0.072629 0.273861 0 0.273861 c
-0.072629 0.273861 -0.142293 0.245006 -0.193649 0.193649 c
-0.245006 0.142293 -0.273861 0.072629 -0.273861 0 c
-0.273861 -0.072629 -0.245006 -0.142293 -0.193649 -0.193649 c
-0.142293 -0.245006 -0.072629 -0.273861 0 -0.273861 c
cl

gsave
0.122 0.467 0.706 setrgbcolor
fill
grestore
stroke
grestore
} bind def
234.722 108.391 o
grestore
0.000 setgray
gsave
252.721875 105.765625 translate
0.000000 rotate
0.000000 0.000000 m /C glyphshow
6.982422 0.000000 m /o glyphshow
13.100586 0.000000 m /u glyphshow
19.438477 0.000000 m /n glyphshow
25.776367 0.000000 m /t glyphshow
29.697266 0.000000 m /r glyphshow
33.808594 0.000000 m /y glyphshow
39.726562 0.000000 m /space glyphshow
42.905273 0.000000 m /one glyphshow
49.267578 0.000000 m /comma glyphshow
52.446289 0.000000 m /space glyphshow
55.625000 0.000000 m /R glyphshow
62.573242 0.000000 m /asciicircum glyphshow
70.952148 0.000000 m /two glyphshow
77.314453 0.000000 m /equal glyphshow
85.693359 0.000000 m /zero glyphshow
92.055664 0.000000 m /period glyphshow
95.234375 0.000000 m /eight glyphshow
101.596680 0.000000 m /nine glyphshow
107.958984 0.000000 m /two glyphshow
114.321289 0.000000 m /zero glyphshow
120.683594 0.000000 m /four glyphshow
grestore
1.000 0.498 0.055 setrgbcolor
gsave
/o {
gsave
newpath
translate
1.0 setlinewidth
1 setlinejoin
0 setlinecap
0 -0.273861 m
0.072629 -0.273861 0.142293 -0.245006 0.193649 -0.193649 c
0.245006 -0.142293 0.273861 -0.072629 0.273861 0 c
0.273861 0.072629 0.245006 0.142293 0.193649 0.193649 c
0.142293 0.245006 0.072629 0.273861 0 0.273861 c
-0.072629 0.273861 -0.142293 0.245006 -0.193649 0.193649 c
-0.245006 0.142293 -0.273861 0.072629 -0.273861 0 c
-0.273861 -0.072629 -0.245006 -0.142293 -0.193649 -0.193649 c
-0.142293 -0.245006 -0.072629 -0.273861 0 -0.273861 c
cl

gsave
1.000 0.498 0.055 setrgbcolor
fill
grestore
stroke
grestore
} bind def
234.722 93.7188 o
grestore
0.000 setgray
gsave
252.721875 91.093750 translate
0.000000 rotate
0.000000 0.000000 m /C glyphshow
6.982422 0.000000 m /o glyphshow
13.100586 0.000000 m /u glyphshow
19.438477 0.000000 m /n glyphshow
25.776367 0.000000 m /t glyphshow
29.697266 0.000000 m /r glyphshow
33.808594 0.000000 m /y glyphshow
39.726562 0.000000 m /space glyphshow
42.905273 0.000000 m /two glyphshow
49.267578 0.000000 m /comma glyphshow
52.446289 0.000000 m /space glyphshow
55.625000 0.000000 m /R glyphshow
62.573242 0.000000 m /asciicircum glyphshow
70.952148 0.000000 m /two glyphshow
77.314453 0.000000 m /equal glyphshow
85.693359 0.000000 m /zero glyphshow
92.055664 0.000000 m /period glyphshow
95.234375 0.000000 m /eight glyphshow
101.596680 0.000000 m /five glyphshow
107.958984 0.000000 m /eight glyphshow
114.321289 0.000000 m /five glyphshow
120.683594 0.000000 m /four glyphshow
grestore
0.173 0.627 0.173 setrgbcolor
gsave
/o {
gsave
newpath
translate
1.0 setlinewidth
1 setlinejoin
0 setlinecap
0 -0.273861 m
0.072629 -0.273861 0.142293 -0.245006 0.193649 -0.193649 c
0.245006 -0.142293 0.273861 -0.072629 0.273861 0 c
0.273861 0.072629 0.245006 0.142293 0.193649 0.193649 c
0.142293 0.245006 0.072629 0.273861 0 0.273861 c
-0.072629 0.273861 -0.142293 0.245006 -0.193649 0.193649 c
-0.245006 0.142293 -0.273861 0.072629 -0.273861 0 c
-0.273861 -0.072629 -0.245006 -0.142293 -0.193649 -0.193649 c
-0.142293 -0.245006 -0.072629 -0.273861 0 -0.273861 c
cl

gsave
0.173 0.627 0.173 setrgbcolor
fill
grestore
stroke
grestore
} bind def
234.722 79.0469 o
grestore
0.000 setgray
gsave
252.721875 76.421875 translate
0.000000 rotate
0.000000 0.000000 m /C glyphshow
6.982422 0.000000 m /o glyphshow
13.100586 0.000000 m /u glyphshow
19.438477 0.000000 m /n glyphshow
25.776367 0.000000 m /t glyphshow
29.697266 0.000000 m /r glyphshow
33.808594 0.000000 m /y glyphshow
39.726562 0.000000 m /space glyphshow
42.905273 0.000000 m /three glyphshow
49.267578 0.000000 m /comma glyphshow
52.446289 0.000000 m /space glyphshow
55.625000 0.000000 m /R glyphshow
62.573242 0.000000 m /asciicircum glyphshow
70.952148 0.000000 m /two glyphshow
77.314453 0.000000 m /equal glyphshow
85.693359 0.000000 m /zero glyphshow
92.055664 0.000000 m /period glyphshow
95.234375 0.000000 m /eight glyphshow
101.596680 0.000000 m /eight glyphshow
107.958984 0.000000 m /zero glyphshow
114.321289 0.000000 m /five glyphshow
120.683594 0.000000 m /zero glyphshow
grestore
0.839 0.153 0.157 setrgbcolor
gsave
/o {
gsave
newpath
translate
1.0 setlinewidth
1 setlinejoin
0 setlinecap
0 -0.273861 m
0.072629 -0.273861 0.142293 -0.245006 0.193649 -0.193649 c
0.245006 -0.142293 0.273861 -0.072629 0.273861 0 c
0.273861 0.072629 0.245006 0.142293 0.193649 0.193649 c
0.142293 0.245006 0.072629 0.273861 0 0.273861 c
-0.072629 0.273861 -0.142293 0.245006 -0.193649 0.193649 c
-0.245006 0.142293 -0.273861 0.072629 -0.273861 0 c
-0.273861 -0.072629 -0.245006 -0.142293 -0.193649 -0.193649 c
-0.142293 -0.245006 -0.072629 -0.273861 0 -0.273861 c
cl

gsave
0.839 0.153 0.157 setrgbcolor
fill
grestore
stroke
grestore
} bind def
234.722 64.375 o
grestore
0.000 setgray
gsave
252.721875 61.750000 translate
0.000000 rotate
0.000000 0.000000 m /C glyphshow
6.982422 0.000000 m /o glyphshow
13.100586 0.000000 m /u glyphshow
19.438477 0.000000 m /n glyphshow
25.776367 0.000000 m /t glyphshow
29.697266 0.000000 m /r glyphshow
33.808594 0.000000 m /y glyphshow
39.726562 0.000000 m /space glyphshow
42.905273 0.000000 m /four glyphshow
49.267578 0.000000 m /comma glyphshow
52.446289 0.000000 m /space glyphshow
55.625000 0.000000 m /R glyphshow
62.573242 0.000000 m /asciicircum glyphshow
70.952148 0.000000 m /two glyphshow
77.314453 0.000000 m /equal glyphshow
85.693359 0.000000 m /zero glyphshow
92.055664 0.000000 m /period glyphshow
95.234375 0.000000 m /six glyphshow
101.596680 0.000000 m /three glyphshow
107.958984 0.000000 m /six glyphshow
114.321289 0.000000 m /one glyphshow
120.683594 0.000000 m /two glyphshow
grestore
0.580 0.404 0.741 setrgbcolor
gsave
/o {
gsave
newpath
translate
1.0 setlinewidth
1 setlinejoin
0 setlinecap
0 -0.273861 m
0.072629 -0.273861 0.142293 -0.245006 0.193649 -0.193649 c
0.245006 -0.142293 0.273861 -0.072629 0.273861 0 c
0.273861 0.072629 0.245006 0.142293 0.193649 0.193649 c
0.142293 0.245006 0.072629 0.273861 0 0.273861 c
-0.072629 0.273861 -0.142293 0.245006 -0.193649 0.193649 c
-0.245006 0.142293 -0.273861 0.072629 -0.273861 0 c
-0.273861 -0.072629 -0.245006 -0.142293 -0.193649 -0.193649 c
-0.142293 -0.245006 -0.072629 -0.273861 0 -0.273861 c
cl

gsave
0.580 0.404 0.741 setrgbcolor
fill
grestore
stroke
grestore
} bind def
234.722 49.7031 o
grestore
0.000 setgray
gsave
252.721875 47.078125 translate
0.000000 rotate
0.000000 0.000000 m /C glyphshow
6.982422 0.000000 m /o glyphshow
13.100586 0.000000 m /u glyphshow
19.438477 0.000000 m /n glyphshow
25.776367 0.000000 m /t glyphshow
29.697266 0.000000 m /r glyphshow
33.808594 0.000000 m /y glyphshow
39.726562 0.000000 m /space glyphshow
42.905273 0.000000 m /five glyphshow
49.267578 0.000000 m /comma glyphshow
52.446289 0.000000 m /space glyphshow
55.625000 0.000000 m /R glyphshow
62.573242 0.000000 m /asciicircum glyphshow
70.952148 0.000000 m /two glyphshow
77.314453 0.000000 m /equal glyphshow
85.693359 0.000000 m /zero glyphshow
92.055664 0.000000 m /period glyphshow
95.234375 0.000000 m /five glyphshow
101.596680 0.000000 m /five glyphshow
107.958984 0.000000 m /nine glyphshow
114.321289 0.000000 m /one glyphshow
120.683594 0.000000 m /eight glyphshow
grestore

end
showpage
