\relax 
\@writefile{lof}{\contentsline {figure}{\numberline {1}{\ignorespaces The network G.}}{2}}
\newlabel{fig:network}{{1}{2}}
\@writefile{lof}{\contentsline {figure}{\numberline {2}{\ignorespaces Degree histogram of graph G}}{3}}
\newlabel{fig:G_degree_hist}{{2}{3}}
\@writefile{lof}{\contentsline {figure}{\numberline {3}{\ignorespaces The average total number of daily trip for each country with country code labelled below}}{3}}
\newlabel{fig:total_travel}{{3}{3}}
\@writefile{lof}{\contentsline {figure}{\numberline {4}{\ignorespaces Plot of effective distance versus arrival time.}}{4}}
\newlabel{fig:D_Ta}{{4}{4}}
\@writefile{lof}{\contentsline {figure}{\numberline {5}{\ignorespaces Plot of $T_a$ versus $d_{eff}$(pretending the outbreak location was the 5 countries that is closest to China).}}{5}}
\newlabel{fig:predict}{{5}{5}}
\@writefile{lof}{\contentsline {figure}{\numberline {6}{\ignorespaces Variation of $R^2$ with $\beta $}}{5}}
\newlabel{fig:b_R}{{6}{5}}
