\relax 
\newlabel{eq:Amn}{{1}{1}}
\newlabel{eq:Ij}{{2}{1}}
\@writefile{lof}{\contentsline {figure}{\numberline {1}{\ignorespaces Fixed image, where $\lambda =3$, niter=100, p=10}}{2}}
\newlabel{fig:1}{{1}{2}}
\newlabel{eq:1_2}{{3}{2}}
\@writefile{lof}{\contentsline {figure}{\numberline {2}{\ignorespaces $\theta =\frac  {\pi }{4}$}}{3}}
\newlabel{fig:1_2_1}{{2}{3}}
\@writefile{lof}{\contentsline {figure}{\numberline {3}{\ignorespaces $\theta =\frac  {3\pi }{4}$}}{3}}
\newlabel{fig:1_2_2}{{3}{3}}
\newlabel{eq:1_3}{{4}{3}}
\@writefile{lof}{\contentsline {figure}{\numberline {4}{\ignorespaces $\theta =\frac  {5\pi }{4}$}}{4}}
\newlabel{fig:1_2_3}{{4}{4}}
\@writefile{lof}{\contentsline {figure}{\numberline {5}{\ignorespaces Figure 2\hbox {} to 4\hbox {} reordered. }}{4}}
\newlabel{fig:reorder}{{5}{4}}
\@writefile{lof}{\contentsline {figure}{\numberline {6}{\ignorespaces The variation of time with the number of gridpoints}}{6}}
\newlabel{fig:efficiency}{{6}{6}}
\@writefile{lof}{\contentsline {figure}{\numberline {7}{\ignorespaces The k value is 50}}{6}}
\newlabel{fig:2_1_2}{{7}{6}}
\@writefile{lof}{\contentsline {figure}{\numberline {8}{\ignorespaces The number of grids $N_{x}=5000$}}{7}}
\newlabel{fig:2_1_1}{{8}{7}}
\@writefile{lof}{\contentsline {figure}{\numberline {9}{\ignorespaces The variation of absolute error with the compuation time, the k value is taken to be 200000, and grids takes the range of 500000 to 5000000.}}{8}}
\newlabel{fig:comparison}{{9}{8}}
\@writefile{lof}{\contentsline {figure}{\numberline {10}{\ignorespaces Variation of $f$ with time and space for $\kappa =1.5$. }}{9}}
\newlabel{fig:1p5}{{10}{9}}
\@writefile{lof}{\contentsline {figure}{\numberline {11}{\ignorespaces Variation of $f$ with time and space for $\kappa =1.7$. }}{9}}
\newlabel{fig:1p7}{{11}{9}}
\@writefile{lof}{\contentsline {figure}{\numberline {12}{\ignorespaces Variation of $f$ with time and space for $\kappa =2$}}{10}}
\newlabel{fig:2}{{12}{10}}
\@writefile{lof}{\contentsline {figure}{\numberline {13}{\ignorespaces Plot of $\qopname  \relax o{log}\left ( C\left ( \epsilon \right ) \right ) $ against $\epsilon $ for $\kappa =1.5,1.7,2$}}{10}}
\newlabel{fig:loglog}{{13}{10}}
