%!PS-Adobe-3.0 EPSF-3.0
%%Title: /home/hanwen/sc2020/project2/key1.eps
%%Creator: matplotlib version 3.1.1, http://matplotlib.org/
%%CreationDate: Sun Mar  1 22:28:37 2020
%%Orientation: portrait
%%BoundingBox: 75.6 223.20000000000002 536.4 568.8
%%EndComments
%%BeginProlog
/mpldict 8 dict def
mpldict begin
/m { moveto } bind def
/l { lineto } bind def
/r { rlineto } bind def
/c { curveto } bind def
/cl { closepath } bind def
/box {
m
1 index 0 r
0 exch r
neg 0 r
cl
} bind def
/clipbox {
box
clip
newpath
} bind def
%!PS-Adobe-3.0 Resource-Font
%%Title: DejaVu Sans
%%Copyright: Copyright (c) 2003 by Bitstream, Inc. All Rights Reserved. Copyright (c) 2006 by Tavmjong Bah. All Rights Reserved. DejaVu changes are in public domain 
%%Creator: Converted from TrueType to type 3 by PPR
25 dict begin
/_d{bind def}bind def
/_m{moveto}_d
/_l{lineto}_d
/_cl{closepath eofill}_d
/_c{curveto}_d
/_sc{7 -1 roll{setcachedevice}{pop pop pop pop pop pop}ifelse}_d
/_e{exec}_d
/FontName /DejaVuSans def
/PaintType 0 def
/FontMatrix[.001 0 0 .001 0 0]def
/FontBBox[-1021 -463 1793 1232]def
/FontType 3 def
/Encoding [ /space /period /zero /one /two /four /six /eight /A /B /L /a /d /e /f /g /h /i /l /m /n /o /r /s /t /u /v /x ] def
/FontInfo 10 dict dup begin
/FamilyName (DejaVu Sans) def
/FullName (DejaVu Sans) def
/Notice (Copyright (c) 2003 by Bitstream, Inc. All Rights Reserved. Copyright (c) 2006 by Tavmjong Bah. All Rights Reserved. DejaVu changes are in public domain ) def
/Weight (Book) def
/Version (Version 2.35) def
/ItalicAngle 0.0 def
/isFixedPitch false def
/UnderlinePosition -130 def
/UnderlineThickness 90 def
end readonly def
/CharStrings 29 dict dup begin
/.notdef 0 def
/space{318 0 0 0 0 0 _sc
}_d
/period{318 0 107 0 210 124 _sc
107 124 _m
210 124 _l
210 0 _l
107 0 _l
107 124 _l
_cl}_d
/zero{636 0 66 -13 570 742 _sc
318 664 _m
267 664 229 639 203 589 _c
177 539 165 464 165 364 _c
165 264 177 189 203 139 _c
229 89 267 64 318 64 _c
369 64 407 89 433 139 _c
458 189 471 264 471 364 _c
471 464 458 539 433 589 _c
407 639 369 664 318 664 _c
318 742 _m
399 742 461 709 505 645 _c
548 580 570 486 570 364 _c
570 241 548 147 505 83 _c
461 19 399 -13 318 -13 _c
236 -13 173 19 130 83 _c
87 147 66 241 66 364 _c
66 486 87 580 130 645 _c
173 709 236 742 318 742 _c
_cl}_d
/one{636 0 110 0 544 729 _sc
124 83 _m
285 83 _l
285 639 _l
110 604 _l
110 694 _l
284 729 _l
383 729 _l
383 83 _l
544 83 _l
544 0 _l
124 0 _l
124 83 _l
_cl}_d
/two{{636 0 73 0 536 742 _sc
192 83 _m
536 83 _l
536 0 _l
73 0 _l
73 83 _l
110 121 161 173 226 239 _c
290 304 331 346 348 365 _c
380 400 402 430 414 455 _c
426 479 433 504 433 528 _c
433 566 419 598 392 622 _c
365 646 330 659 286 659 _c
255 659 222 653 188 643 _c
154 632 117 616 78 594 _c
78 694 _l
118 710 155 722 189 730 _c
223 738 255 742 284 742 _c
}_e{359 742 419 723 464 685 _c
509 647 532 597 532 534 _c
532 504 526 475 515 449 _c
504 422 484 390 454 354 _c
446 344 420 317 376 272 _c
332 227 271 164 192 83 _c
_cl}_e}_d
/four{636 0 49 0 580 729 _sc
378 643 _m
129 254 _l
378 254 _l
378 643 _l
352 729 _m
476 729 _l
476 254 _l
580 254 _l
580 172 _l
476 172 _l
476 0 _l
378 0 _l
378 172 _l
49 172 _l
49 267 _l
352 729 _l
_cl}_d
/six{{636 0 70 -13 573 742 _sc
330 404 _m
286 404 251 388 225 358 _c
199 328 186 286 186 234 _c
186 181 199 139 225 109 _c
251 79 286 64 330 64 _c
374 64 409 79 435 109 _c
461 139 474 181 474 234 _c
474 286 461 328 435 358 _c
409 388 374 404 330 404 _c
526 713 _m
526 623 _l
501 635 476 644 451 650 _c
425 656 400 659 376 659 _c
310 659 260 637 226 593 _c
}_e{192 549 172 482 168 394 _c
187 422 211 444 240 459 _c
269 474 301 482 336 482 _c
409 482 467 459 509 415 _c
551 371 573 310 573 234 _c
573 159 550 99 506 54 _c
462 9 403 -13 330 -13 _c
246 -13 181 19 137 83 _c
92 147 70 241 70 364 _c
70 479 97 571 152 639 _c
206 707 280 742 372 742 _c
396 742 421 739 447 735 _c
472 730 498 723 526 713 _c
_cl}_e}_d
/eight{{636 0 68 -13 568 742 _sc
318 346 _m
271 346 234 333 207 308 _c
180 283 167 249 167 205 _c
167 161 180 126 207 101 _c
234 76 271 64 318 64 _c
364 64 401 76 428 102 _c
455 127 469 161 469 205 _c
469 249 455 283 429 308 _c
402 333 365 346 318 346 _c
219 388 _m
177 398 144 418 120 447 _c
96 476 85 511 85 553 _c
85 611 105 657 147 691 _c
188 725 245 742 318 742 _c
}_e{390 742 447 725 489 691 _c
530 657 551 611 551 553 _c
551 511 539 476 515 447 _c
491 418 459 398 417 388 _c
464 377 501 355 528 323 _c
554 291 568 251 568 205 _c
568 134 546 80 503 43 _c
459 5 398 -13 318 -13 _c
237 -13 175 5 132 43 _c
89 80 68 134 68 205 _c
68 251 81 291 108 323 _c
134 355 171 377 219 388 _c
183 544 _m
183 506 194 476 218 455 _c
}_e{242 434 275 424 318 424 _c
360 424 393 434 417 455 _c
441 476 453 506 453 544 _c
453 582 441 611 417 632 _c
393 653 360 664 318 664 _c
275 664 242 653 218 632 _c
194 611 183 582 183 544 _c
_cl}_e}_d
/A{684 0 8 0 676 729 _sc
342 632 _m
208 269 _l
476 269 _l
342 632 _l
286 729 _m
398 729 _l
676 0 _l
573 0 _l
507 187 _l
178 187 _l
112 0 _l
8 0 _l
286 729 _l
_cl}_d
/B{{686 0 98 0 615 729 _sc
197 348 _m
197 81 _l
355 81 _l
408 81 447 92 473 114 _c
498 136 511 169 511 215 _c
511 260 498 293 473 315 _c
447 337 408 348 355 348 _c
197 348 _l
197 648 _m
197 428 _l
343 428 _l
391 428 426 437 450 455 _c
474 473 486 500 486 538 _c
486 574 474 602 450 620 _c
426 638 391 648 343 648 _c
197 648 _l
98 729 _m
350 729 _l
}_e{425 729 483 713 524 682 _c
564 650 585 606 585 549 _c
585 504 574 468 553 442 _c
532 416 502 399 462 393 _c
510 382 548 360 575 327 _c
601 294 615 253 615 204 _c
615 138 592 88 548 53 _c
504 17 441 0 360 0 _c
98 0 _l
98 729 _l
_cl}_e}_d
/L{557 0 98 0 552 729 _sc
98 729 _m
197 729 _l
197 83 _l
552 83 _l
552 0 _l
98 0 _l
98 729 _l
_cl}_d
/a{{613 0 60 -13 522 560 _sc
343 275 _m
270 275 220 266 192 250 _c
164 233 150 205 150 165 _c
150 133 160 107 181 89 _c
202 70 231 61 267 61 _c
317 61 357 78 387 114 _c
417 149 432 196 432 255 _c
432 275 _l
343 275 _l
522 312 _m
522 0 _l
432 0 _l
432 83 _l
411 49 385 25 355 10 _c
325 -5 287 -13 243 -13 _c
187 -13 142 2 109 33 _c
76 64 60 106 60 159 _c
}_e{60 220 80 266 122 298 _c
163 329 224 345 306 345 _c
432 345 _l
432 354 _l
432 395 418 427 391 450 _c
364 472 326 484 277 484 _c
245 484 215 480 185 472 _c
155 464 127 453 100 439 _c
100 522 _l
132 534 164 544 195 550 _c
226 556 256 560 286 560 _c
365 560 424 539 463 498 _c
502 457 522 395 522 312 _c
_cl}_e}_d
/d{{635 0 55 -13 544 760 _sc
454 464 _m
454 760 _l
544 760 _l
544 0 _l
454 0 _l
454 82 _l
435 49 411 25 382 10 _c
353 -5 319 -13 279 -13 _c
213 -13 159 13 117 65 _c
75 117 55 187 55 273 _c
55 359 75 428 117 481 _c
159 533 213 560 279 560 _c
319 560 353 552 382 536 _c
411 520 435 496 454 464 _c
148 273 _m
148 207 161 155 188 117 _c
215 79 253 61 301 61 _c
}_e{348 61 385 79 413 117 _c
440 155 454 207 454 273 _c
454 339 440 390 413 428 _c
385 466 348 485 301 485 _c
253 485 215 466 188 428 _c
161 390 148 339 148 273 _c
_cl}_e}_d
/e{{615 0 55 -13 562 560 _sc
562 296 _m
562 252 _l
149 252 _l
153 190 171 142 205 110 _c
238 78 284 62 344 62 _c
378 62 412 66 444 74 _c
476 82 509 95 541 113 _c
541 28 _l
509 14 476 3 442 -3 _c
408 -9 373 -13 339 -13 _c
251 -13 182 12 131 62 _c
80 112 55 181 55 268 _c
55 357 79 428 127 481 _c
175 533 241 560 323 560 _c
397 560 455 536 498 489 _c
}_e{540 441 562 377 562 296 _c
472 322 _m
471 371 457 410 431 440 _c
404 469 368 484 324 484 _c
274 484 234 469 204 441 _c
174 413 156 373 152 322 _c
472 322 _l
_cl}_e}_d
/f{352 0 23 0 371 760 _sc
371 760 _m
371 685 _l
285 685 _l
253 685 230 678 218 665 _c
205 652 199 629 199 595 _c
199 547 _l
347 547 _l
347 477 _l
199 477 _l
199 0 _l
109 0 _l
109 477 _l
23 477 _l
23 547 _l
109 547 _l
109 585 _l
109 645 123 690 151 718 _c
179 746 224 760 286 760 _c
371 760 _l
_cl}_d
/g{{635 0 55 -207 544 560 _sc
454 280 _m
454 344 440 395 414 431 _c
387 467 349 485 301 485 _c
253 485 215 467 188 431 _c
161 395 148 344 148 280 _c
148 215 161 165 188 129 _c
215 93 253 75 301 75 _c
349 75 387 93 414 129 _c
440 165 454 215 454 280 _c
544 68 _m
544 -24 523 -93 482 -139 _c
440 -184 377 -207 292 -207 _c
260 -207 231 -204 203 -200 _c
175 -195 147 -188 121 -178 _c
}_e{121 -91 _l
147 -105 173 -115 199 -122 _c
225 -129 251 -133 278 -133 _c
336 -133 380 -117 410 -87 _c
439 -56 454 -10 454 52 _c
454 96 _l
435 64 411 40 382 24 _c
353 8 319 0 279 0 _c
211 0 157 25 116 76 _c
75 127 55 195 55 280 _c
55 364 75 432 116 483 _c
157 534 211 560 279 560 _c
319 560 353 552 382 536 _c
411 520 435 496 454 464 _c
454 547 _l
544 547 _l
}_e{544 68 _l
_cl}_e}_d
/h{634 0 91 0 549 760 _sc
549 330 _m
549 0 _l
459 0 _l
459 327 _l
459 379 448 417 428 443 _c
408 469 378 482 338 482 _c
289 482 251 466 223 435 _c
195 404 181 362 181 309 _c
181 0 _l
91 0 _l
91 760 _l
181 760 _l
181 462 _l
202 494 227 519 257 535 _c
286 551 320 560 358 560 _c
420 560 468 540 500 501 _c
532 462 549 405 549 330 _c
_cl}_d
/i{278 0 94 0 184 760 _sc
94 547 _m
184 547 _l
184 0 _l
94 0 _l
94 547 _l
94 760 _m
184 760 _l
184 646 _l
94 646 _l
94 760 _l
_cl}_d
/l{278 0 94 0 184 760 _sc
94 760 _m
184 760 _l
184 0 _l
94 0 _l
94 760 _l
_cl}_d
/m{{974 0 91 0 889 560 _sc
520 442 _m
542 482 569 511 600 531 _c
631 550 668 560 711 560 _c
767 560 811 540 842 500 _c
873 460 889 403 889 330 _c
889 0 _l
799 0 _l
799 327 _l
799 379 789 418 771 444 _c
752 469 724 482 686 482 _c
639 482 602 466 575 435 _c
548 404 535 362 535 309 _c
535 0 _l
445 0 _l
445 327 _l
445 379 435 418 417 444 _c
398 469 369 482 331 482 _c
}_e{285 482 248 466 221 435 _c
194 404 181 362 181 309 _c
181 0 _l
91 0 _l
91 547 _l
181 547 _l
181 462 _l
201 495 226 520 255 536 _c
283 552 317 560 357 560 _c
397 560 430 550 458 530 _c
486 510 506 480 520 442 _c
_cl}_e}_d
/n{634 0 91 0 549 560 _sc
549 330 _m
549 0 _l
459 0 _l
459 327 _l
459 379 448 417 428 443 _c
408 469 378 482 338 482 _c
289 482 251 466 223 435 _c
195 404 181 362 181 309 _c
181 0 _l
91 0 _l
91 547 _l
181 547 _l
181 462 _l
202 494 227 519 257 535 _c
286 551 320 560 358 560 _c
420 560 468 540 500 501 _c
532 462 549 405 549 330 _c
_cl}_d
/o{612 0 55 -13 557 560 _sc
306 484 _m
258 484 220 465 192 427 _c
164 389 150 338 150 273 _c
150 207 163 156 191 118 _c
219 80 257 62 306 62 _c
354 62 392 80 420 118 _c
448 156 462 207 462 273 _c
462 337 448 389 420 427 _c
392 465 354 484 306 484 _c
306 560 _m
384 560 445 534 490 484 _c
534 433 557 363 557 273 _c
557 183 534 113 490 63 _c
445 12 384 -13 306 -13 _c
227 -13 165 12 121 63 _c
77 113 55 183 55 273 _c
55 363 77 433 121 484 _c
165 534 227 560 306 560 _c
_cl}_d
/r{411 0 91 0 411 560 _sc
411 463 _m
401 469 390 473 378 476 _c
366 478 353 480 339 480 _c
288 480 249 463 222 430 _c
194 397 181 350 181 288 _c
181 0 _l
91 0 _l
91 547 _l
181 547 _l
181 462 _l
199 495 224 520 254 536 _c
284 552 321 560 365 560 _c
371 560 378 559 386 559 _c
393 558 401 557 411 555 _c
411 463 _l
_cl}_d
/s{{521 0 54 -13 472 560 _sc
443 531 _m
443 446 _l
417 458 391 468 364 475 _c
336 481 308 485 279 485 _c
234 485 200 478 178 464 _c
156 450 145 430 145 403 _c
145 382 153 366 169 354 _c
185 342 217 330 265 320 _c
296 313 _l
360 299 405 279 432 255 _c
458 230 472 195 472 151 _c
472 100 452 60 412 31 _c
372 1 316 -13 246 -13 _c
216 -13 186 -10 154 -5 _c
}_e{122 0 89 8 54 20 _c
54 113 _l
87 95 120 82 152 74 _c
184 65 216 61 248 61 _c
290 61 323 68 346 82 _c
368 96 380 117 380 144 _c
380 168 371 187 355 200 _c
339 213 303 226 247 238 _c
216 245 _l
160 257 119 275 95 299 _c
70 323 58 356 58 399 _c
58 450 76 490 112 518 _c
148 546 200 560 268 560 _c
301 560 332 557 362 552 _c
391 547 418 540 443 531 _c
}_e{_cl}_e}_d
/t{392 0 27 0 368 702 _sc
183 702 _m
183 547 _l
368 547 _l
368 477 _l
183 477 _l
183 180 _l
183 135 189 106 201 94 _c
213 81 238 75 276 75 _c
368 75 _l
368 0 _l
276 0 _l
206 0 158 13 132 39 _c
106 65 93 112 93 180 _c
93 477 _l
27 477 _l
27 547 _l
93 547 _l
93 702 _l
183 702 _l
_cl}_d
/u{634 0 85 -13 543 560 _sc
85 216 _m
85 547 _l
175 547 _l
175 219 _l
175 167 185 129 205 103 _c
225 77 255 64 296 64 _c
344 64 383 79 411 110 _c
439 141 453 183 453 237 _c
453 547 _l
543 547 _l
543 0 _l
453 0 _l
453 84 _l
431 50 405 26 377 10 _c
348 -5 315 -13 277 -13 _c
214 -13 166 6 134 45 _c
101 83 85 140 85 216 _c
311 560 _m
311 560 _l
_cl}_d
/v{592 0 30 0 562 547 _sc
30 547 _m
125 547 _l
296 88 _l
467 547 _l
562 547 _l
357 0 _l
235 0 _l
30 547 _l
_cl}_d
/x{592 0 29 0 559 547 _sc
549 547 _m
351 281 _l
559 0 _l
453 0 _l
294 215 _l
135 0 _l
29 0 _l
241 286 _l
47 547 _l
153 547 _l
298 352 _l
443 547 _l
549 547 _l
_cl}_d
end readonly def

/BuildGlyph
 {exch begin
 CharStrings exch
 2 copy known not{pop /.notdef}if
 true 3 1 roll get exec
 end}_d

/BuildChar {
 1 index /Encoding get exch get
 1 index /BuildGlyph get exec
}_d

FontName currentdict end definefont pop
end
%%EndProlog
mpldict begin
75.6 223.2 translate
460.8 345.6 0 0 clipbox
gsave
0 0 m
460.8 0 l
460.8 345.6 l
0 345.6 l
cl
1.000 setgray
fill
grestore
gsave
57.6 38.016 m
414.72 38.016 l
414.72 304.128 l
57.6 304.128 l
cl
1.000 setgray
fill
grestore
0.800 setlinewidth
1 setlinejoin
0 setlinecap
[] 0 setdash
0.000 setgray
gsave
/o {
gsave
newpath
translate
0.8 setlinewidth
1 setlinejoin
0 setlinecap
0 0 m
0 -3.5 l

gsave
0.000 setgray
fill
grestore
stroke
grestore
} bind def
73.8327 38.016 o
grestore
/DejaVuSans findfont
10.000 scalefont
setfont
gsave
70.653040 23.422250 translate
0.000000 rotate
0.000000 0.000000 m /zero glyphshow
grestore
gsave
/o {
gsave
newpath
translate
0.8 setlinewidth
1 setlinejoin
0 setlinecap
0 0 m
0 -3.5 l

gsave
0.000 setgray
fill
grestore
stroke
grestore
} bind def
138.764 38.016 o
grestore
gsave
132.404261 23.422250 translate
0.000000 rotate
0.000000 0.000000 m /two glyphshow
6.362305 0.000000 m /zero glyphshow
grestore
gsave
/o {
gsave
newpath
translate
0.8 setlinewidth
1 setlinejoin
0 setlinecap
0 0 m
0 -3.5 l

gsave
0.000 setgray
fill
grestore
stroke
grestore
} bind def
203.695 38.016 o
grestore
gsave
197.335170 23.422250 translate
0.000000 rotate
0.000000 0.000000 m /four glyphshow
6.362305 0.000000 m /zero glyphshow
grestore
gsave
/o {
gsave
newpath
translate
0.8 setlinewidth
1 setlinejoin
0 setlinecap
0 0 m
0 -3.5 l

gsave
0.000 setgray
fill
grestore
stroke
grestore
} bind def
268.625 38.016 o
grestore
gsave
262.266080 23.422250 translate
0.000000 rotate
0.000000 0.000000 m /six glyphshow
6.362305 0.000000 m /zero glyphshow
grestore
gsave
/o {
gsave
newpath
translate
0.8 setlinewidth
1 setlinejoin
0 setlinecap
0 0 m
0 -3.5 l

gsave
0.000 setgray
fill
grestore
stroke
grestore
} bind def
333.556 38.016 o
grestore
gsave
327.196989 23.422250 translate
0.000000 rotate
0.000000 0.000000 m /eight glyphshow
6.362305 0.000000 m /zero glyphshow
grestore
gsave
/o {
gsave
newpath
translate
0.8 setlinewidth
1 setlinejoin
0 setlinecap
0 0 m
0 -3.5 l

gsave
0.000 setgray
fill
grestore
stroke
grestore
} bind def
398.487 38.016 o
grestore
gsave
388.948210 23.422250 translate
0.000000 rotate
0.000000 0.000000 m /one glyphshow
6.362305 0.000000 m /zero glyphshow
12.724609 0.000000 m /zero glyphshow
grestore
gsave
234.199062 9.750375 translate
0.000000 rotate
0.000000 0.000000 m /t glyphshow
grestore
gsave
/o {
gsave
newpath
translate
0.8 setlinewidth
1 setlinejoin
0 setlinecap
0 0 m
-3.5 0 l

gsave
0.000 setgray
fill
grestore
stroke
grestore
} bind def
57.6 71.1967 o
grestore
gsave
34.693750 67.399829 translate
0.000000 rotate
0.000000 0.000000 m /zero glyphshow
6.362305 0.000000 m /period glyphshow
9.541016 0.000000 m /zero glyphshow
grestore
gsave
/o {
gsave
newpath
translate
0.8 setlinewidth
1 setlinejoin
0 setlinecap
0 0 m
-3.5 0 l

gsave
0.000 setgray
fill
grestore
stroke
grestore
} bind def
57.6 115.364 o
grestore
gsave
34.693750 111.566888 translate
0.000000 rotate
0.000000 0.000000 m /zero glyphshow
6.362305 0.000000 m /period glyphshow
9.541016 0.000000 m /two glyphshow
grestore
gsave
/o {
gsave
newpath
translate
0.8 setlinewidth
1 setlinejoin
0 setlinecap
0 0 m
-3.5 0 l

gsave
0.000 setgray
fill
grestore
stroke
grestore
} bind def
57.6 159.531 o
grestore
gsave
34.693750 155.733947 translate
0.000000 rotate
0.000000 0.000000 m /zero glyphshow
6.362305 0.000000 m /period glyphshow
9.541016 0.000000 m /four glyphshow
grestore
gsave
/o {
gsave
newpath
translate
0.8 setlinewidth
1 setlinejoin
0 setlinecap
0 0 m
-3.5 0 l

gsave
0.000 setgray
fill
grestore
stroke
grestore
} bind def
57.6 203.698 o
grestore
gsave
34.693750 199.901007 translate
0.000000 rotate
0.000000 0.000000 m /zero glyphshow
6.362305 0.000000 m /period glyphshow
9.541016 0.000000 m /six glyphshow
grestore
gsave
/o {
gsave
newpath
translate
0.8 setlinewidth
1 setlinejoin
0 setlinecap
0 0 m
-3.5 0 l

gsave
0.000 setgray
fill
grestore
stroke
grestore
} bind def
57.6 247.865 o
grestore
gsave
34.693750 244.068066 translate
0.000000 rotate
0.000000 0.000000 m /zero glyphshow
6.362305 0.000000 m /period glyphshow
9.541016 0.000000 m /eight glyphshow
grestore
gsave
/o {
gsave
newpath
translate
0.8 setlinewidth
1 setlinejoin
0 setlinecap
0 0 m
-3.5 0 l

gsave
0.000 setgray
fill
grestore
stroke
grestore
} bind def
57.6 292.032 o
grestore
gsave
34.693750 288.235125 translate
0.000000 rotate
0.000000 0.000000 m /one glyphshow
6.362305 0.000000 m /period glyphshow
9.541016 0.000000 m /zero glyphshow
grestore
gsave
28.615625 71.939187 translate
90.000000 rotate
0.000000 0.000000 m /v glyphshow
5.917969 0.000000 m /a glyphshow
12.045898 0.000000 m /l glyphshow
14.824219 0.000000 m /u glyphshow
21.162109 0.000000 m /e glyphshow
27.314453 0.000000 m /space glyphshow
30.493164 0.000000 m /o glyphshow
36.611328 0.000000 m /f glyphshow
40.131836 0.000000 m /space glyphshow
43.310547 0.000000 m /i glyphshow
46.088867 0.000000 m /space glyphshow
49.267578 0.000000 m /i glyphshow
52.045898 0.000000 m /n glyphshow
58.383789 0.000000 m /space glyphshow
61.562500 0.000000 m /t glyphshow
65.483398 0.000000 m /h glyphshow
71.821289 0.000000 m /e glyphshow
77.973633 0.000000 m /space glyphshow
81.152344 0.000000 m /m glyphshow
90.893555 0.000000 m /a glyphshow
97.021484 0.000000 m /x glyphshow
102.939453 0.000000 m /i glyphshow
105.717773 0.000000 m /m glyphshow
115.458984 0.000000 m /u glyphshow
121.796875 0.000000 m /m glyphshow
131.538086 0.000000 m /space glyphshow
134.716797 0.000000 m /d glyphshow
141.064453 0.000000 m /e glyphshow
147.216797 0.000000 m /g glyphshow
153.564453 0.000000 m /r glyphshow
157.675781 0.000000 m /e glyphshow
163.828125 0.000000 m /e glyphshow
169.980469 0.000000 m /space glyphshow
173.159180 0.000000 m /n glyphshow
179.497070 0.000000 m /o glyphshow
185.615234 0.000000 m /d glyphshow
191.962891 0.000000 m /e glyphshow
grestore
1.500 setlinewidth
2 setlinecap
0.122 0.467 0.706 setrgbcolor
gsave
357.1 266.1 57.6 38.02 clipbox
73.832727 93.280234 m
74.354447 93.169122 l
74.900841 92.815796 l
75.510217 92.14074 l
76.210173 91.011914 l
77.02538 89.248247 l
77.98863 86.600798 l
79.161607 82.683355 l
80.725143 76.616956 l
85.172911 58.90906 l
86.382898 55.218579 l
87.370497 52.872964 l
88.200639 51.43431 l
88.905464 50.625232 l
89.511919 50.244689 l
90.053442 50.156176 l
90.577435 50.29707 l
91.131945 50.686936 l
91.753983 51.41293 l
92.470495 52.613248 l
93.306806 54.47587 l
94.29895 57.262885 l
95.519651 61.400472 l
97.209802 67.995546 l
100.893008 82.554984 l
102.176043 86.618777 l
103.207795 89.196298 l
104.070402 90.794311 l
104.801524 91.71453 l
105.427783 92.170345 l
105.980994 92.31179 l
106.505961 92.217747 l
107.05203 91.885141 l
107.658484 91.239851 l
108.353894 90.154202 l
109.162934 88.452549 l
110.118067 85.893074 l
111.279681 82.101935 l
112.819518 76.250554 l
117.38481 58.413705 l
118.575318 54.889629 l
119.549282 52.655267 l
120.368061 51.294344 l
121.063471 50.538345 l
121.662783 50.193369 l
122.201709 50.129919 l
122.72765 50.294148 l
123.288328 50.713315 l
123.919132 51.479818 l
124.646358 52.736119 l
125.495654 54.675526 l
126.504356 57.5686 l
127.749731 61.862697 l
129.505463 68.801978 l
132.929919 82.433292 l
134.239251 86.664932 l
135.286586 89.346417 l
136.160881 91.015796 l
136.901418 91.985122 l
137.534819 92.473827 l
138.091926 92.637699 l
138.616568 92.562493 l
139.158416 92.251957 l
139.758053 91.636757 l
140.444373 90.59331 l
141.242049 88.949877 l
142.182249 86.471268 l
143.320812 82.801431 l
144.809353 77.190123 l
149.76975 57.864106 l
150.918053 54.578564 l
151.863772 52.501426 l
152.660799 51.249453 l
153.338678 50.568493 l
153.925328 50.274199 l
154.458086 50.247769 l
154.985975 50.448079 l
155.555094 50.914137 l
156.198884 51.746937 l
156.942992 53.096733 l
157.813716 55.16615 l
158.851961 58.243669 l
160.147657 62.829764 l
162.072859 70.568368 l
164.955466 82.060441 l
166.299861 86.498166 l
167.366676 89.302423 l
168.255255 91.055767 l
169.007155 92.083017 l
169.649322 92.610779 l
170.211624 92.801202 l
170.73659 92.747722 l
171.274218 92.46205 l
171.866063 91.881192 l
172.541994 90.886218 l
173.326684 89.310121 l
174.250001 86.925122 l
175.363242 83.393578 l
176.798864 78.040587 l
182.222218 57.028326 l
183.321174 54.029268 l
184.233129 52.143032 l
185.003534 51.023808 l
185.66031 50.433416 l
186.232351 50.200294 l
186.759915 50.220047 l
187.292673 50.468378 l
187.874454 50.998447 l
188.536749 51.922085 l
189.304233 53.39877 l
190.205149 55.644981 l
191.286249 58.976305 l
192.659862 63.984125 l
194.986012 73.468728 l
197.200805 82.140182 l
198.530266 86.486441 l
199.588964 89.236824 l
200.4717 90.953704 l
201.219055 91.956044 l
201.85765 92.467038 l
202.418004 92.64624 l
202.94297 92.583714 l
203.482546 92.287848 l
204.077962 91.6929 l
204.758438 90.678345 l
205.548972 89.074836 l
206.479757 86.65209 l
207.604035 83.065191 l
209.062384 77.608475 l
214.280232 57.368541 l
215.401588 54.244666 l
216.329126 52.274428 l
217.112193 51.095925 l
217.779358 50.464622 l
218.358542 50.203776 l
218.889027 50.202181 l
219.420162 50.427923 l
219.996749 50.927541 l
220.651252 51.807691 l
221.408671 53.222923 l
222.296926 55.383866 l
223.359845 58.592101 l
224.700344 63.397487 l
226.828779 71.987921 l
229.297777 81.703021 l
230.64347 86.12067 l
231.711259 88.912227 l
232.600488 90.65712 l
233.353037 91.67925 l
233.995853 92.204048 l
234.559453 92.392933 l
235.086043 92.33814 l
235.625294 92.051085 l
236.219087 91.468544 l
236.89729 90.471579 l
237.684578 88.893538 l
238.611142 86.506753 l
239.729577 82.971153 l
241.176562 77.600047 l
246.472327 57.200527 l
247.581996 54.157646 l
248.501093 52.242554 l
249.276693 51.103532 l
249.93769 50.499254 l
250.512653 50.256673 l
251.041515 50.26911 l
251.573949 50.509669 l
252.154106 51.029288 l
252.81348 51.937598 l
253.576742 53.391895 l
254.47214 55.606812 l
255.544474 58.890772 l
256.900556 63.813571 l
259.103986 72.793934 l
261.471692 82.149293 l
262.814463 86.580257 l
263.880628 89.381343 l
264.768883 91.132649 l
265.520134 92.157862 l
266.161976 92.684486 l
266.724278 92.874138 l
267.249244 92.819877 l
267.786872 92.533348 l
268.379042 91.951087 l
269.055297 90.95415 l
269.840312 89.375397 l
270.763954 86.986881 l
271.877519 83.450709 l
273.313466 78.091383 l
278.742989 57.034774 l
279.842594 54.031134 l
280.754873 52.142047 l
281.525928 51.020098 l
282.183353 50.427706 l
282.756044 50.19316 l
283.283932 50.211841 l
283.817015 50.459112 l
284.39912 50.987967 l
285.061416 51.909485 l
285.828899 53.382994 l
286.73014 55.62531 l
287.811889 58.951644 l
289.186801 63.953132 l
291.526911 73.469955 l
293.725471 82.045956 l
295.053309 86.370115 l
296.111033 89.10636 l
296.993119 90.813976 l
297.74015 91.810493 l
298.378745 92.31792 l
298.939423 92.494832 l
299.465364 92.430415 l
300.006238 92.132326 l
300.602953 91.534826 l
301.285377 90.516521 l
302.078184 88.908333 l
303.01189 86.479595 l
304.141039 82.882122 l
305.6101 77.397972 l
310.719838 57.646239 l
311.850935 54.478342 l
312.78529 52.478378 l
313.573227 51.279758 l
314.244288 50.634386 l
314.826394 50.363814 l
315.358178 50.354839 l
315.888988 50.572879 l
316.463951 51.062167 l
317.115857 51.927543 l
317.869705 53.321658 l
318.75309 55.452524 l
319.809192 58.61799 l
321.136379 63.350016 l
323.197611 71.646167 l
325.781537 81.841193 l
327.129502 86.271791 l
328.198265 89.07005 l
329.088143 90.819247 l
329.840692 91.843548 l
330.483833 92.370077 l
331.047109 92.559809 l
331.573049 92.505832 l
332.111651 92.219745 l
332.70447 91.63864 l
333.381375 90.643831 l
334.167363 89.067998 l
335.09198 86.684415 l
336.206843 83.155555 l
337.645388 77.805062 l
343.036601 56.976294 l
344.138154 53.970777 l
345.051732 52.080571 l
345.823436 50.958411 l
346.481186 50.366051 l
347.053876 50.131625 l
347.581765 50.150344 l
348.114847 50.397698 l
348.696628 50.926454 l
349.358274 51.847451 l
350.125108 53.320603 l
351.025051 55.561678 l
352.104202 58.884089 l
353.473595 63.874218 l
355.765656 73.224832 l
358.020707 82.08238 l
359.354712 86.458531 l
360.416008 89.226923 l
361.300692 90.956039 l
362.049345 91.966407 l
362.689239 92.48307 l
363.250242 92.665965 l
363.775209 92.606413 l
364.314135 92.313917 l
364.908253 91.723798 l
365.58743 90.715505 l
366.376016 89.121246 l
367.304528 86.710805 l
368.42556 83.141563 l
369.877416 77.71675 l
375.145585 57.297617 l
376.260449 54.210193 l
377.183117 52.265419 l
377.961963 51.105357 l
378.625557 50.486917 l
379.202143 50.234866 l
379.73133 50.240072 l
380.262465 50.472958 l
380.84035 50.982445 l
381.496477 51.87626 l
382.256169 53.311091 l
383.147021 55.498887 l
384.213836 58.746383 l
385.560178 63.610154 l
387.71491 72.36498 l
390.148521 81.986544 l
391.493889 86.426478 l
392.561353 89.232213 l
393.450582 90.986919 l
394.202807 92.01486 l
394.845298 92.54326 l
395.407924 92.734219 l
395.933215 92.681176 l
396.470843 92.396131 l
397.062689 91.816221 l
397.738619 90.822664 l
398.487273 89.330389 l
398.487273 89.330389 l
stroke
grestore
1.000 0.498 0.055 setrgbcolor
gsave
357.1 266.1 57.6 38.02 clipbox
73.832727 93.280234 m
74.646636 90.905886 l
75.409574 89.324007 l
76.110828 88.348539 l
76.745528 87.821885 l
77.323738 87.616575 l
77.873702 87.653845 l
78.434705 87.920628 l
79.039537 88.466711 l
79.706053 89.384899 l
80.439772 90.795042 l
81.239071 92.838093 l
82.099081 95.676351 l
83.016555 99.506621 l
83.991817 104.575534 l
85.032984 111.216634 l
86.16051 119.910868 l
87.422767 131.462642 l
88.96098 147.735133 l
94.028837 203.149273 l
95.293042 213.557307 l
96.441345 221.248451 l
97.529263 227.091461 l
98.586338 231.601064 l
99.632375 235.12435 l
100.682957 237.907384 l
101.752369 240.12907 l
102.856194 241.921991 l
104.012614 243.383934 l
105.245652 244.588165 l
106.587124 245.588172 l
108.08086 246.422422 l
109.788543 247.117337 l
111.800752 247.689977 l
114.260984 248.150682 l
117.420847 248.505206 l
121.792969 248.756782 l
128.716552 248.90858 l
143.948694 248.968548 l
288.942011 248.973178 l
398.487273 248.973178 l
398.487273 248.973178 l
stroke
grestore
0.173 0.627 0.173 setrgbcolor
gsave
357.1 266.1 57.6 38.02 clipbox
73.832727 292.032 m
74.157382 79.598151 l
74.482036 74.666216 l
75.131345 73.815061 l
75.780655 73.570389 l
76.429964 73.476224 l
77.079273 73.436777 l
112.791273 73.405057 l
119.284364 73.405057 l
125.777455 73.405057 l
132.270545 73.405057 l
138.763636 73.405057 l
171.229091 73.405057 l
203.694545 73.405057 l
236.16 73.405057 l
268.625455 73.405057 l
301.090909 73.405057 l
333.556364 73.405057 l
366.021818 73.405057 l
398.487273 73.405057 l
stroke
grestore
0.800 setlinewidth
0 setlinejoin
[] 0 setdash
0.000 setgray
gsave
57.6 38.016 m
57.6 304.128 l
stroke
grestore
gsave
414.72 38.016 m
414.72 304.128 l
stroke
grestore
gsave
57.6 38.016 m
414.72 38.016 l
stroke
grestore
gsave
57.6 304.128 m
414.72 304.128 l
stroke
grestore
1.000 setlinewidth
0 setlinecap
0.800 setgray
gsave
298.47 252.112375 m
407.72 252.112375 l
409.053333 252.112375 409.72 252.779042 409.72 254.112375 c
409.72 297.128 l
409.72 298.461333 409.053333 299.128 407.72 299.128 c
298.47 299.128 l
297.136667 299.128 296.47 298.461333 296.47 297.128 c
296.47 254.112375 l
296.47 252.779042 297.136667 252.112375 298.47 252.112375 c
cl
gsave
1.000 setgray
fill
grestore
stroke
grestore
1.500 setlinewidth
1 setlinejoin
2 setlinecap
[] 0 setdash
0.122 0.467 0.706 setrgbcolor
gsave
300.47 291.03425 m
320.47 291.03425 l
stroke
grestore
0.000 setgray
gsave
328.470000 287.534250 translate
0.000000 rotate
0.000000 0.000000 m /m glyphshow
9.741211 0.000000 m /o glyphshow
15.859375 0.000000 m /d glyphshow
22.207031 0.000000 m /e glyphshow
28.359375 0.000000 m /l glyphshow
31.137695 0.000000 m /B glyphshow
grestore
1.000 0.498 0.055 setrgbcolor
gsave
300.47 276.362375 m
320.47 276.362375 l
stroke
grestore
0.000 setgray
gsave
328.470000 272.862375 translate
0.000000 rotate
0.000000 0.000000 m /m glyphshow
9.741211 0.000000 m /o glyphshow
15.859375 0.000000 m /d glyphshow
22.207031 0.000000 m /e glyphshow
28.359375 0.000000 m /l glyphshow
31.137695 0.000000 m /A glyphshow
grestore
0.173 0.627 0.173 setrgbcolor
gsave
300.47 261.6905 m
320.47 261.6905 l
stroke
grestore
0.000 setgray
gsave
328.470000 258.190500 translate
0.000000 rotate
0.000000 0.000000 m /L glyphshow
5.571289 0.000000 m /i glyphshow
8.349609 0.000000 m /n glyphshow
14.687500 0.000000 m /e glyphshow
20.839844 0.000000 m /a glyphshow
26.967773 0.000000 m /r glyphshow
31.079102 0.000000 m /space glyphshow
34.257812 0.000000 m /d glyphshow
40.605469 0.000000 m /i glyphshow
43.383789 0.000000 m /f glyphshow
46.904297 0.000000 m /f glyphshow
50.424805 0.000000 m /u glyphshow
56.762695 0.000000 m /s glyphshow
61.972656 0.000000 m /i glyphshow
64.750977 0.000000 m /o glyphshow
70.869141 0.000000 m /n glyphshow
grestore

end
showpage
