%!PS-Adobe-3.0 EPSF-3.0
%%Title: /home/hanwen/sc2020/project2/key2.eps
%%Creator: matplotlib version 3.1.1, http://matplotlib.org/
%%CreationDate: Sun Mar  1 22:28:57 2020
%%Orientation: portrait
%%BoundingBox: 75.6 223.20000000000002 536.4 568.8
%%EndComments
%%BeginProlog
/mpldict 8 dict def
mpldict begin
/m { moveto } bind def
/l { lineto } bind def
/r { rlineto } bind def
/c { curveto } bind def
/cl { closepath } bind def
/box {
m
1 index 0 r
0 exch r
neg 0 r
cl
} bind def
/clipbox {
box
clip
newpath
} bind def
%!PS-Adobe-3.0 Resource-Font
%%Title: DejaVu Sans
%%Copyright: Copyright (c) 2003 by Bitstream, Inc. All Rights Reserved. Copyright (c) 2006 by Tavmjong Bah. All Rights Reserved. DejaVu changes are in public domain 
%%Creator: Converted from TrueType to type 3 by PPR
25 dict begin
/_d{bind def}bind def
/_m{moveto}_d
/_l{lineto}_d
/_cl{closepath eofill}_d
/_c{curveto}_d
/_sc{7 -1 roll{setcachedevice}{pop pop pop pop pop pop}ifelse}_d
/_e{exec}_d
/FontName /DejaVuSans def
/PaintType 0 def
/FontMatrix[.001 0 0 .001 0 0]def
/FontBBox[-1021 -463 1793 1232]def
/FontType 3 def
/Encoding [ /space /period /zero /one /two /four /five /six /eight /A /B /L /a /c /d /e /f /i /l /m /n /o /r /s /t /u /v /x /minus ] def
/FontInfo 10 dict dup begin
/FamilyName (DejaVu Sans) def
/FullName (DejaVu Sans) def
/Notice (Copyright (c) 2003 by Bitstream, Inc. All Rights Reserved. Copyright (c) 2006 by Tavmjong Bah. All Rights Reserved. DejaVu changes are in public domain ) def
/Weight (Book) def
/Version (Version 2.35) def
/ItalicAngle 0.0 def
/isFixedPitch false def
/UnderlinePosition -130 def
/UnderlineThickness 90 def
end readonly def
/CharStrings 30 dict dup begin
/.notdef 0 def
/space{318 0 0 0 0 0 _sc
}_d
/period{318 0 107 0 210 124 _sc
107 124 _m
210 124 _l
210 0 _l
107 0 _l
107 124 _l
_cl}_d
/zero{636 0 66 -13 570 742 _sc
318 664 _m
267 664 229 639 203 589 _c
177 539 165 464 165 364 _c
165 264 177 189 203 139 _c
229 89 267 64 318 64 _c
369 64 407 89 433 139 _c
458 189 471 264 471 364 _c
471 464 458 539 433 589 _c
407 639 369 664 318 664 _c
318 742 _m
399 742 461 709 505 645 _c
548 580 570 486 570 364 _c
570 241 548 147 505 83 _c
461 19 399 -13 318 -13 _c
236 -13 173 19 130 83 _c
87 147 66 241 66 364 _c
66 486 87 580 130 645 _c
173 709 236 742 318 742 _c
_cl}_d
/one{636 0 110 0 544 729 _sc
124 83 _m
285 83 _l
285 639 _l
110 604 _l
110 694 _l
284 729 _l
383 729 _l
383 83 _l
544 83 _l
544 0 _l
124 0 _l
124 83 _l
_cl}_d
/two{{636 0 73 0 536 742 _sc
192 83 _m
536 83 _l
536 0 _l
73 0 _l
73 83 _l
110 121 161 173 226 239 _c
290 304 331 346 348 365 _c
380 400 402 430 414 455 _c
426 479 433 504 433 528 _c
433 566 419 598 392 622 _c
365 646 330 659 286 659 _c
255 659 222 653 188 643 _c
154 632 117 616 78 594 _c
78 694 _l
118 710 155 722 189 730 _c
223 738 255 742 284 742 _c
}_e{359 742 419 723 464 685 _c
509 647 532 597 532 534 _c
532 504 526 475 515 449 _c
504 422 484 390 454 354 _c
446 344 420 317 376 272 _c
332 227 271 164 192 83 _c
_cl}_e}_d
/four{636 0 49 0 580 729 _sc
378 643 _m
129 254 _l
378 254 _l
378 643 _l
352 729 _m
476 729 _l
476 254 _l
580 254 _l
580 172 _l
476 172 _l
476 0 _l
378 0 _l
378 172 _l
49 172 _l
49 267 _l
352 729 _l
_cl}_d
/five{{636 0 77 -13 549 729 _sc
108 729 _m
495 729 _l
495 646 _l
198 646 _l
198 467 _l
212 472 227 476 241 478 _c
255 480 270 482 284 482 _c
365 482 429 459 477 415 _c
525 370 549 310 549 234 _c
549 155 524 94 475 51 _c
426 8 357 -13 269 -13 _c
238 -13 207 -10 175 -6 _c
143 -1 111 6 77 17 _c
77 116 _l
106 100 136 88 168 80 _c
199 72 232 69 267 69 _c
}_e{323 69 368 83 401 113 _c
433 143 450 183 450 234 _c
450 284 433 324 401 354 _c
368 384 323 399 267 399 _c
241 399 214 396 188 390 _c
162 384 135 375 108 363 _c
108 729 _l
_cl}_e}_d
/six{{636 0 70 -13 573 742 _sc
330 404 _m
286 404 251 388 225 358 _c
199 328 186 286 186 234 _c
186 181 199 139 225 109 _c
251 79 286 64 330 64 _c
374 64 409 79 435 109 _c
461 139 474 181 474 234 _c
474 286 461 328 435 358 _c
409 388 374 404 330 404 _c
526 713 _m
526 623 _l
501 635 476 644 451 650 _c
425 656 400 659 376 659 _c
310 659 260 637 226 593 _c
}_e{192 549 172 482 168 394 _c
187 422 211 444 240 459 _c
269 474 301 482 336 482 _c
409 482 467 459 509 415 _c
551 371 573 310 573 234 _c
573 159 550 99 506 54 _c
462 9 403 -13 330 -13 _c
246 -13 181 19 137 83 _c
92 147 70 241 70 364 _c
70 479 97 571 152 639 _c
206 707 280 742 372 742 _c
396 742 421 739 447 735 _c
472 730 498 723 526 713 _c
_cl}_e}_d
/eight{{636 0 68 -13 568 742 _sc
318 346 _m
271 346 234 333 207 308 _c
180 283 167 249 167 205 _c
167 161 180 126 207 101 _c
234 76 271 64 318 64 _c
364 64 401 76 428 102 _c
455 127 469 161 469 205 _c
469 249 455 283 429 308 _c
402 333 365 346 318 346 _c
219 388 _m
177 398 144 418 120 447 _c
96 476 85 511 85 553 _c
85 611 105 657 147 691 _c
188 725 245 742 318 742 _c
}_e{390 742 447 725 489 691 _c
530 657 551 611 551 553 _c
551 511 539 476 515 447 _c
491 418 459 398 417 388 _c
464 377 501 355 528 323 _c
554 291 568 251 568 205 _c
568 134 546 80 503 43 _c
459 5 398 -13 318 -13 _c
237 -13 175 5 132 43 _c
89 80 68 134 68 205 _c
68 251 81 291 108 323 _c
134 355 171 377 219 388 _c
183 544 _m
183 506 194 476 218 455 _c
}_e{242 434 275 424 318 424 _c
360 424 393 434 417 455 _c
441 476 453 506 453 544 _c
453 582 441 611 417 632 _c
393 653 360 664 318 664 _c
275 664 242 653 218 632 _c
194 611 183 582 183 544 _c
_cl}_e}_d
/A{684 0 8 0 676 729 _sc
342 632 _m
208 269 _l
476 269 _l
342 632 _l
286 729 _m
398 729 _l
676 0 _l
573 0 _l
507 187 _l
178 187 _l
112 0 _l
8 0 _l
286 729 _l
_cl}_d
/B{{686 0 98 0 615 729 _sc
197 348 _m
197 81 _l
355 81 _l
408 81 447 92 473 114 _c
498 136 511 169 511 215 _c
511 260 498 293 473 315 _c
447 337 408 348 355 348 _c
197 348 _l
197 648 _m
197 428 _l
343 428 _l
391 428 426 437 450 455 _c
474 473 486 500 486 538 _c
486 574 474 602 450 620 _c
426 638 391 648 343 648 _c
197 648 _l
98 729 _m
350 729 _l
}_e{425 729 483 713 524 682 _c
564 650 585 606 585 549 _c
585 504 574 468 553 442 _c
532 416 502 399 462 393 _c
510 382 548 360 575 327 _c
601 294 615 253 615 204 _c
615 138 592 88 548 53 _c
504 17 441 0 360 0 _c
98 0 _l
98 729 _l
_cl}_e}_d
/L{557 0 98 0 552 729 _sc
98 729 _m
197 729 _l
197 83 _l
552 83 _l
552 0 _l
98 0 _l
98 729 _l
_cl}_d
/a{{613 0 60 -13 522 560 _sc
343 275 _m
270 275 220 266 192 250 _c
164 233 150 205 150 165 _c
150 133 160 107 181 89 _c
202 70 231 61 267 61 _c
317 61 357 78 387 114 _c
417 149 432 196 432 255 _c
432 275 _l
343 275 _l
522 312 _m
522 0 _l
432 0 _l
432 83 _l
411 49 385 25 355 10 _c
325 -5 287 -13 243 -13 _c
187 -13 142 2 109 33 _c
76 64 60 106 60 159 _c
}_e{60 220 80 266 122 298 _c
163 329 224 345 306 345 _c
432 345 _l
432 354 _l
432 395 418 427 391 450 _c
364 472 326 484 277 484 _c
245 484 215 480 185 472 _c
155 464 127 453 100 439 _c
100 522 _l
132 534 164 544 195 550 _c
226 556 256 560 286 560 _c
365 560 424 539 463 498 _c
502 457 522 395 522 312 _c
_cl}_e}_d
/c{{550 0 55 -13 488 560 _sc
488 526 _m
488 442 _l
462 456 437 466 411 473 _c
385 480 360 484 334 484 _c
276 484 230 465 198 428 _c
166 391 150 339 150 273 _c
150 206 166 154 198 117 _c
230 80 276 62 334 62 _c
360 62 385 65 411 72 _c
437 79 462 90 488 104 _c
488 21 _l
462 9 436 0 410 -5 _c
383 -10 354 -13 324 -13 _c
242 -13 176 12 128 64 _c
}_e{79 115 55 185 55 273 _c
55 362 79 432 128 483 _c
177 534 244 560 330 560 _c
358 560 385 557 411 551 _c
437 545 463 537 488 526 _c
_cl}_e}_d
/d{{635 0 55 -13 544 760 _sc
454 464 _m
454 760 _l
544 760 _l
544 0 _l
454 0 _l
454 82 _l
435 49 411 25 382 10 _c
353 -5 319 -13 279 -13 _c
213 -13 159 13 117 65 _c
75 117 55 187 55 273 _c
55 359 75 428 117 481 _c
159 533 213 560 279 560 _c
319 560 353 552 382 536 _c
411 520 435 496 454 464 _c
148 273 _m
148 207 161 155 188 117 _c
215 79 253 61 301 61 _c
}_e{348 61 385 79 413 117 _c
440 155 454 207 454 273 _c
454 339 440 390 413 428 _c
385 466 348 485 301 485 _c
253 485 215 466 188 428 _c
161 390 148 339 148 273 _c
_cl}_e}_d
/e{{615 0 55 -13 562 560 _sc
562 296 _m
562 252 _l
149 252 _l
153 190 171 142 205 110 _c
238 78 284 62 344 62 _c
378 62 412 66 444 74 _c
476 82 509 95 541 113 _c
541 28 _l
509 14 476 3 442 -3 _c
408 -9 373 -13 339 -13 _c
251 -13 182 12 131 62 _c
80 112 55 181 55 268 _c
55 357 79 428 127 481 _c
175 533 241 560 323 560 _c
397 560 455 536 498 489 _c
}_e{540 441 562 377 562 296 _c
472 322 _m
471 371 457 410 431 440 _c
404 469 368 484 324 484 _c
274 484 234 469 204 441 _c
174 413 156 373 152 322 _c
472 322 _l
_cl}_e}_d
/f{352 0 23 0 371 760 _sc
371 760 _m
371 685 _l
285 685 _l
253 685 230 678 218 665 _c
205 652 199 629 199 595 _c
199 547 _l
347 547 _l
347 477 _l
199 477 _l
199 0 _l
109 0 _l
109 477 _l
23 477 _l
23 547 _l
109 547 _l
109 585 _l
109 645 123 690 151 718 _c
179 746 224 760 286 760 _c
371 760 _l
_cl}_d
/i{278 0 94 0 184 760 _sc
94 547 _m
184 547 _l
184 0 _l
94 0 _l
94 547 _l
94 760 _m
184 760 _l
184 646 _l
94 646 _l
94 760 _l
_cl}_d
/l{278 0 94 0 184 760 _sc
94 760 _m
184 760 _l
184 0 _l
94 0 _l
94 760 _l
_cl}_d
/m{{974 0 91 0 889 560 _sc
520 442 _m
542 482 569 511 600 531 _c
631 550 668 560 711 560 _c
767 560 811 540 842 500 _c
873 460 889 403 889 330 _c
889 0 _l
799 0 _l
799 327 _l
799 379 789 418 771 444 _c
752 469 724 482 686 482 _c
639 482 602 466 575 435 _c
548 404 535 362 535 309 _c
535 0 _l
445 0 _l
445 327 _l
445 379 435 418 417 444 _c
398 469 369 482 331 482 _c
}_e{285 482 248 466 221 435 _c
194 404 181 362 181 309 _c
181 0 _l
91 0 _l
91 547 _l
181 547 _l
181 462 _l
201 495 226 520 255 536 _c
283 552 317 560 357 560 _c
397 560 430 550 458 530 _c
486 510 506 480 520 442 _c
_cl}_e}_d
/n{634 0 91 0 549 560 _sc
549 330 _m
549 0 _l
459 0 _l
459 327 _l
459 379 448 417 428 443 _c
408 469 378 482 338 482 _c
289 482 251 466 223 435 _c
195 404 181 362 181 309 _c
181 0 _l
91 0 _l
91 547 _l
181 547 _l
181 462 _l
202 494 227 519 257 535 _c
286 551 320 560 358 560 _c
420 560 468 540 500 501 _c
532 462 549 405 549 330 _c
_cl}_d
/o{612 0 55 -13 557 560 _sc
306 484 _m
258 484 220 465 192 427 _c
164 389 150 338 150 273 _c
150 207 163 156 191 118 _c
219 80 257 62 306 62 _c
354 62 392 80 420 118 _c
448 156 462 207 462 273 _c
462 337 448 389 420 427 _c
392 465 354 484 306 484 _c
306 560 _m
384 560 445 534 490 484 _c
534 433 557 363 557 273 _c
557 183 534 113 490 63 _c
445 12 384 -13 306 -13 _c
227 -13 165 12 121 63 _c
77 113 55 183 55 273 _c
55 363 77 433 121 484 _c
165 534 227 560 306 560 _c
_cl}_d
/r{411 0 91 0 411 560 _sc
411 463 _m
401 469 390 473 378 476 _c
366 478 353 480 339 480 _c
288 480 249 463 222 430 _c
194 397 181 350 181 288 _c
181 0 _l
91 0 _l
91 547 _l
181 547 _l
181 462 _l
199 495 224 520 254 536 _c
284 552 321 560 365 560 _c
371 560 378 559 386 559 _c
393 558 401 557 411 555 _c
411 463 _l
_cl}_d
/s{{521 0 54 -13 472 560 _sc
443 531 _m
443 446 _l
417 458 391 468 364 475 _c
336 481 308 485 279 485 _c
234 485 200 478 178 464 _c
156 450 145 430 145 403 _c
145 382 153 366 169 354 _c
185 342 217 330 265 320 _c
296 313 _l
360 299 405 279 432 255 _c
458 230 472 195 472 151 _c
472 100 452 60 412 31 _c
372 1 316 -13 246 -13 _c
216 -13 186 -10 154 -5 _c
}_e{122 0 89 8 54 20 _c
54 113 _l
87 95 120 82 152 74 _c
184 65 216 61 248 61 _c
290 61 323 68 346 82 _c
368 96 380 117 380 144 _c
380 168 371 187 355 200 _c
339 213 303 226 247 238 _c
216 245 _l
160 257 119 275 95 299 _c
70 323 58 356 58 399 _c
58 450 76 490 112 518 _c
148 546 200 560 268 560 _c
301 560 332 557 362 552 _c
391 547 418 540 443 531 _c
}_e{_cl}_e}_d
/t{392 0 27 0 368 702 _sc
183 702 _m
183 547 _l
368 547 _l
368 477 _l
183 477 _l
183 180 _l
183 135 189 106 201 94 _c
213 81 238 75 276 75 _c
368 75 _l
368 0 _l
276 0 _l
206 0 158 13 132 39 _c
106 65 93 112 93 180 _c
93 477 _l
27 477 _l
27 547 _l
93 547 _l
93 702 _l
183 702 _l
_cl}_d
/u{634 0 85 -13 543 560 _sc
85 216 _m
85 547 _l
175 547 _l
175 219 _l
175 167 185 129 205 103 _c
225 77 255 64 296 64 _c
344 64 383 79 411 110 _c
439 141 453 183 453 237 _c
453 547 _l
543 547 _l
543 0 _l
453 0 _l
453 84 _l
431 50 405 26 377 10 _c
348 -5 315 -13 277 -13 _c
214 -13 166 6 134 45 _c
101 83 85 140 85 216 _c
311 560 _m
311 560 _l
_cl}_d
/v{592 0 30 0 562 547 _sc
30 547 _m
125 547 _l
296 88 _l
467 547 _l
562 547 _l
357 0 _l
235 0 _l
30 547 _l
_cl}_d
/x{592 0 29 0 559 547 _sc
549 547 _m
351 281 _l
559 0 _l
453 0 _l
294 215 _l
135 0 _l
29 0 _l
241 286 _l
47 547 _l
153 547 _l
298 352 _l
443 547 _l
549 547 _l
_cl}_d
/minus{838 0 106 272 732 355 _sc
106 355 _m
732 355 _l
732 272 _l
106 272 _l
106 355 _l
_cl}_d
end readonly def

/BuildGlyph
 {exch begin
 CharStrings exch
 2 copy known not{pop /.notdef}if
 true 3 1 roll get exec
 end}_d

/BuildChar {
 1 index /Encoding get exch get
 1 index /BuildGlyph get exec
}_d

FontName currentdict end definefont pop
end
%%EndProlog
mpldict begin
75.6 223.2 translate
460.8 345.6 0 0 clipbox
gsave
0 0 m
460.8 0 l
460.8 345.6 l
0 345.6 l
cl
1.000 setgray
fill
grestore
gsave
57.6 38.016 m
414.72 38.016 l
414.72 304.128 l
57.6 304.128 l
cl
1.000 setgray
fill
grestore
0.800 setlinewidth
1 setlinejoin
0 setlinecap
[] 0 setdash
0.000 setgray
gsave
/o {
gsave
newpath
translate
0.8 setlinewidth
1 setlinejoin
0 setlinecap
0 0 m
0 -3.5 l

gsave
0.000 setgray
fill
grestore
stroke
grestore
} bind def
73.8327 38.016 o
grestore
/DejaVuSans findfont
10.000 scalefont
setfont
gsave
70.653040 23.422250 translate
0.000000 rotate
0.000000 0.000000 m /zero glyphshow
grestore
gsave
/o {
gsave
newpath
translate
0.8 setlinewidth
1 setlinejoin
0 setlinecap
0 0 m
0 -3.5 l

gsave
0.000 setgray
fill
grestore
stroke
grestore
} bind def
138.764 38.016 o
grestore
gsave
132.404261 23.422250 translate
0.000000 rotate
0.000000 0.000000 m /two glyphshow
6.362305 0.000000 m /zero glyphshow
grestore
gsave
/o {
gsave
newpath
translate
0.8 setlinewidth
1 setlinejoin
0 setlinecap
0 0 m
0 -3.5 l

gsave
0.000 setgray
fill
grestore
stroke
grestore
} bind def
203.695 38.016 o
grestore
gsave
197.335170 23.422250 translate
0.000000 rotate
0.000000 0.000000 m /four glyphshow
6.362305 0.000000 m /zero glyphshow
grestore
gsave
/o {
gsave
newpath
translate
0.8 setlinewidth
1 setlinejoin
0 setlinecap
0 0 m
0 -3.5 l

gsave
0.000 setgray
fill
grestore
stroke
grestore
} bind def
268.625 38.016 o
grestore
gsave
262.266080 23.422250 translate
0.000000 rotate
0.000000 0.000000 m /six glyphshow
6.362305 0.000000 m /zero glyphshow
grestore
gsave
/o {
gsave
newpath
translate
0.8 setlinewidth
1 setlinejoin
0 setlinecap
0 0 m
0 -3.5 l

gsave
0.000 setgray
fill
grestore
stroke
grestore
} bind def
333.556 38.016 o
grestore
gsave
327.196989 23.422250 translate
0.000000 rotate
0.000000 0.000000 m /eight glyphshow
6.362305 0.000000 m /zero glyphshow
grestore
gsave
/o {
gsave
newpath
translate
0.8 setlinewidth
1 setlinejoin
0 setlinecap
0 0 m
0 -3.5 l

gsave
0.000 setgray
fill
grestore
stroke
grestore
} bind def
398.487 38.016 o
grestore
gsave
388.948210 23.422250 translate
0.000000 rotate
0.000000 0.000000 m /one glyphshow
6.362305 0.000000 m /zero glyphshow
12.724609 0.000000 m /zero glyphshow
grestore
gsave
234.199062 9.750375 translate
0.000000 rotate
0.000000 0.000000 m /t glyphshow
grestore
gsave
/o {
gsave
newpath
translate
0.8 setlinewidth
1 setlinejoin
0 setlinecap
0 0 m
-3.5 0 l

gsave
0.000 setgray
fill
grestore
stroke
grestore
} bind def
57.6 51.6216 o
grestore
gsave
19.959375 47.824719 translate
0.000000 rotate
0.000000 0.000000 m /minus glyphshow
8.378906 0.000000 m /zero glyphshow
14.741211 0.000000 m /period glyphshow
17.919922 0.000000 m /one glyphshow
24.282227 0.000000 m /zero glyphshow
grestore
gsave
/o {
gsave
newpath
translate
0.8 setlinewidth
1 setlinejoin
0 setlinecap
0 0 m
-3.5 0 l

gsave
0.000 setgray
fill
grestore
stroke
grestore
} bind def
57.6 101.552 o
grestore
gsave
19.959375 97.755387 translate
0.000000 rotate
0.000000 0.000000 m /minus glyphshow
8.378906 0.000000 m /zero glyphshow
14.741211 0.000000 m /period glyphshow
17.919922 0.000000 m /zero glyphshow
24.282227 0.000000 m /five glyphshow
grestore
gsave
/o {
gsave
newpath
translate
0.8 setlinewidth
1 setlinejoin
0 setlinecap
0 0 m
-3.5 0 l

gsave
0.000 setgray
fill
grestore
stroke
grestore
} bind def
57.6 151.483 o
grestore
gsave
28.334375 147.686055 translate
0.000000 rotate
0.000000 0.000000 m /zero glyphshow
6.362305 0.000000 m /period glyphshow
9.541016 0.000000 m /zero glyphshow
15.903320 0.000000 m /zero glyphshow
grestore
gsave
/o {
gsave
newpath
translate
0.8 setlinewidth
1 setlinejoin
0 setlinecap
0 0 m
-3.5 0 l

gsave
0.000 setgray
fill
grestore
stroke
grestore
} bind def
57.6 201.414 o
grestore
gsave
28.334375 197.616722 translate
0.000000 rotate
0.000000 0.000000 m /zero glyphshow
6.362305 0.000000 m /period glyphshow
9.541016 0.000000 m /zero glyphshow
15.903320 0.000000 m /five glyphshow
grestore
gsave
/o {
gsave
newpath
translate
0.8 setlinewidth
1 setlinejoin
0 setlinecap
0 0 m
-3.5 0 l

gsave
0.000 setgray
fill
grestore
stroke
grestore
} bind def
57.6 251.344 o
grestore
gsave
28.334375 247.547390 translate
0.000000 rotate
0.000000 0.000000 m /zero glyphshow
6.362305 0.000000 m /period glyphshow
9.541016 0.000000 m /one glyphshow
15.903320 0.000000 m /zero glyphshow
grestore
gsave
/o {
gsave
newpath
translate
0.8 setlinewidth
1 setlinejoin
0 setlinecap
0 0 m
-3.5 0 l

gsave
0.000 setgray
fill
grestore
stroke
grestore
} bind def
57.6 301.275 o
grestore
gsave
28.334375 297.478058 translate
0.000000 rotate
0.000000 0.000000 m /zero glyphshow
6.362305 0.000000 m /period glyphshow
9.541016 0.000000 m /one glyphshow
15.903320 0.000000 m /five glyphshow
grestore
gsave
13.881250 74.345437 translate
90.000000 rotate
0.000000 0.000000 m /d glyphshow
6.347656 0.000000 m /i glyphshow
9.125977 0.000000 m /f glyphshow
12.646484 0.000000 m /f glyphshow
16.166992 0.000000 m /e glyphshow
22.319336 0.000000 m /r glyphshow
26.430664 0.000000 m /e glyphshow
32.583008 0.000000 m /n glyphshow
38.920898 0.000000 m /c glyphshow
44.418945 0.000000 m /e glyphshow
50.571289 0.000000 m /space glyphshow
53.750000 0.000000 m /i glyphshow
56.528320 0.000000 m /n glyphshow
62.866211 0.000000 m /space glyphshow
66.044922 0.000000 m /i glyphshow
68.823242 0.000000 m /space glyphshow
72.001953 0.000000 m /v glyphshow
77.919922 0.000000 m /a glyphshow
84.047852 0.000000 m /l glyphshow
86.826172 0.000000 m /u glyphshow
93.164062 0.000000 m /e glyphshow
99.316406 0.000000 m /space glyphshow
102.495117 0.000000 m /i glyphshow
105.273438 0.000000 m /n glyphshow
111.611328 0.000000 m /space glyphshow
114.790039 0.000000 m /m glyphshow
124.531250 0.000000 m /a glyphshow
130.659180 0.000000 m /x glyphshow
136.577148 0.000000 m /i glyphshow
139.355469 0.000000 m /m glyphshow
149.096680 0.000000 m /u glyphshow
155.434570 0.000000 m /m glyphshow
165.175781 0.000000 m /space glyphshow
168.354492 0.000000 m /n glyphshow
174.692383 0.000000 m /o glyphshow
180.810547 0.000000 m /d glyphshow
187.158203 0.000000 m /e glyphshow
grestore
1.500 setlinewidth
2 setlinecap
0.122 0.467 0.706 setrgbcolor
gsave
357.1 266.1 57.6 38.02 clipbox
73.832727 251.344265 m
74.692737 237.526052 l
75.525801 227.527668 l
76.319906 220.515889 l
77.059469 215.828529 l
77.727608 212.908511 l
78.309064 211.27125 l
78.794098 210.49682 l
79.185631 210.241796 l
79.519701 210.275486 l
79.86838 210.550487 l
80.282964 211.188883 l
80.786503 212.40979 l
81.388737 214.499891 l
82.09551 217.813014 l
82.91299 222.7794 l
83.85741 229.969713 l
84.980066 240.33707 l
86.541654 257.069182 l
88.638598 279.217071 l
89.525879 286.298516 l
90.175188 289.879372 l
90.661196 291.47354 l
91.010524 291.983765 l
91.250444 292.010562 l
91.477702 291.786877 l
91.769242 291.140653 l
92.148763 289.693381 l
92.629576 286.893175 l
93.230512 281.958947 l
93.990853 273.716175 l
95.026176 259.826423 l
99.114551 202.329696 l
100.242725 190.871853 l
101.294931 182.355057 l
102.311099 175.868419 l
103.312334 170.857287 l
104.313569 166.939347 l
105.325841 163.845621 l
106.360191 161.377555 l
107.42798 159.389863 l
108.543168 157.773874 l
109.724586 156.447658 l
110.998206 155.349941 l
112.400064 154.435809 l
113.981132 153.67326 l
115.815105 153.040739 l
118.01399 152.524745 l
120.764139 152.117318 l
124.413905 151.814187 l
129.753174 151.612411 l
139.28211 151.507586 l
171.170328 151.482991 l
398.487273 151.48293 l
398.487273 151.48293 l
stroke
grestore
1.000 0.498 0.055 setrgbcolor
gsave
357.1 266.1 57.6 38.02 clipbox
73.832727 251.344265 m
74.07492 251.233137 l
74.357369 250.823155 l
74.720008 249.85621 l
75.177446 247.937449 l
75.739099 244.536978 l
76.415354 238.971248 l
77.22277 230.351811 l
78.191864 217.461468 l
79.390488 198.34212 l
81.047201 168.000173 l
84.786896 98.524938 l
86.046556 79.760403 l
87.053959 67.841856 l
87.886049 60.432384 l
88.573018 56.128687 l
89.128177 53.908252 l
89.558344 52.97974 l
89.872285 52.7432 l
90.116101 52.817063 l
90.388161 53.165105 l
90.736515 54.018137 l
91.177721 55.749029 l
91.721842 58.866099 l
92.378618 64.024952 l
93.163308 72.075942 l
94.103183 84.166446 l
95.257005 102.077037 l
96.80366 129.861031 l
101.160524 210.085767 l
102.352006 227.016181 l
103.315905 237.770882 l
104.113257 244.375351 l
104.769059 248.125829 l
105.294999 249.989648 l
105.696922 250.713017 l
105.987163 250.854488 l
106.229355 250.727482 l
106.516025 250.28937 l
106.884183 249.271235 l
107.34779 247.268341 l
107.915935 243.741068 l
108.599333 237.991765 l
109.414865 229.11443 l
110.394024 215.861671 l
111.607258 196.208837 l
113.300656 164.789135 l
116.887114 97.50379 l
118.163656 78.138375 l
119.181773 65.838932 l
120.022303 58.172306 l
120.716739 53.69731 l
121.278717 51.370199 l
121.715377 50.381924 l
122.034512 50.118208 l
122.278653 50.178807 l
122.546493 50.50676 l
122.889003 51.323282 l
123.323715 52.995818 l
123.860694 56.026924 l
124.509679 61.067931 l
125.284954 68.957322 l
126.212492 80.823462 l
127.347159 98.388989 l
128.847713 125.369961 l
133.56754 212.777857 l
134.724285 228.906007 l
135.666107 239.153036 l
136.446577 245.411488 l
137.08777 248.927156 l
137.600074 250.641314 l
137.989335 251.281642 l
138.270161 251.386075 l
138.513328 251.234119 l
138.807465 250.750281 l
139.185363 249.649296 l
139.659683 247.513758 l
140.240165 243.785342 l
140.937848 237.747001 l
141.770911 228.463199 l
142.773769 214.631982 l
144.027585 194.042026 l
145.851494 159.98926 l
148.930193 102.575863 l
150.246018 82.317449 l
151.287185 69.482861 l
152.145247 61.446663 l
152.854942 56.711935 l
153.431204 54.210286 l
153.8815 53.116305 l
154.213297 52.799325 l
154.461658 52.834683 l
154.724303 53.125936 l
155.058373 53.872123 l
155.48367 55.425705 l
156.01026 58.2703 l
156.647881 63.036352 l
157.41017 70.533399 l
158.322125 81.850266 l
159.434716 98.614975 l
160.891116 124.20199 l
165.914171 215.457691 l
167.032282 230.346932 l
167.946509 239.768456 l
168.703603 245.458964 l
169.323369 248.596823 l
169.81522 250.078509 l
170.185327 250.595268 l
170.453167 250.646897 l
170.701527 250.452704 l
171.008975 249.890409 l
171.402781 248.653266 l
171.894633 246.303748 l
172.493945 242.264147 l
173.21273 235.790233 l
174.071117 225.904163 l
175.108063 211.217479 l
176.419668 189.245816 l
178.470511 150.589699 l
181.011906 103.656298 l
182.343639 83.080566 l
183.393247 70.070734 l
184.257478 61.914207 l
184.972367 57.094411 l
185.553499 54.534506 l
186.00834 53.404946 l
186.344357 53.069687 l
186.594666 53.096801 l
186.855688 53.376828 l
187.18716 54.101666 l
187.609211 55.61767 l
188.13223 58.40302 l
188.765631 63.07919 l
189.523375 70.451101 l
190.429485 81.589915 l
191.533311 98.089159 l
192.97153 123.194757 l
198.141654 216.684028 l
199.241584 231.067163 l
200.142825 240.15057 l
200.888556 245.603761 l
201.497933 248.582616 l
201.980045 249.966082 l
202.340411 250.42978 l
202.602408 250.45876 l
202.853366 250.243045 l
203.166982 249.639371 l
203.56793 248.33049 l
204.067898 245.865668 l
204.675976 241.654905 l
205.404501 234.937277 l
206.273926 224.716071 l
207.325482 209.553686 l
208.662085 186.821568 l
210.834024 145.443786 l
213.192963 101.820192 l
214.519827 81.249952 l
215.567162 68.230906 l
216.429769 60.070832 l
217.14336 55.252041 l
217.723193 52.696361 l
218.176735 51.571336 l
218.511454 51.239329 l
218.760789 51.268176 l
219.021811 51.55098 l
219.353608 52.282238 l
219.775984 53.810403 l
220.299327 56.616717 l
220.933053 61.326666 l
221.691121 68.750541 l
222.597232 79.962704 l
223.700408 96.561283 l
225.13603 121.791914 l
230.359722 216.933031 l
231.457704 231.347978 l
232.357971 240.454524 l
233.103377 245.924073 l
233.712754 248.912916 l
234.194866 250.301296 l
234.555557 250.767439 l
234.817553 250.797088 l
235.068187 250.582021 l
235.381478 249.979331 l
235.782427 248.67056 l
236.28207 246.207217 l
236.890148 241.996503 l
237.618673 235.279863 l
238.488747 225.054573 l
239.541926 209.877851 l
240.88275 187.096716 l
243.086505 145.197223 l
245.398694 102.635686 l
246.721986 82.213864 l
247.767374 69.28392 l
248.628682 61.181432 l
249.340975 56.401617 l
249.919834 53.868951 l
250.372402 52.756861 l
250.706147 52.430835 l
250.955482 52.462084 l
251.217153 52.747592 l
251.549924 53.483274 l
251.973598 55.018652 l
252.49824 57.833955 l
253.133589 62.555991 l
253.893605 69.994537 l
254.802313 81.225659 l
255.90971 97.857905 l
257.354747 123.18799 l
262.485263 216.296285 l
263.592335 230.893226 l
264.499095 240.124835 l
265.250021 245.685329 l
265.864592 248.738591 l
266.351574 250.168103 l
266.71681 250.656813 l
266.981729 250.696603 l
267.231713 250.491357 l
267.542407 249.908515 l
267.940109 248.635924 l
268.436506 246.229667 l
269.040688 242.107774 l
269.764992 235.518645 l
270.630196 225.471973 l
271.676558 210.555144 l
273.005369 188.191367 l
275.143544 147.831901 l
277.54404 103.744799 l
278.871877 83.310598 l
279.919537 70.382375 l
280.782469 62.278414 l
281.496059 57.494111 l
282.076217 54.954819 l
282.530409 53.836056 l
282.865452 53.506149 l
283.115761 53.535272 l
283.377757 53.818164 l
283.710528 54.548408 l
284.133878 56.072409 l
284.658195 58.868025 l
285.293219 63.558304 l
286.052911 70.948055 l
286.961294 82.106393 l
288.069015 98.641134 l
289.515676 123.840211 l
294.604961 215.588782 l
295.713331 230.138555 l
296.620416 239.333694 l
297.371342 244.869491 l
297.985264 247.904925 l
298.471596 249.324718 l
298.836183 249.808836 l
299.100777 249.846915 l
299.351085 249.640188 l
299.662429 249.054442 l
300.06078 247.77712 l
300.557826 245.363649 l
301.162658 241.231072 l
301.887287 234.629538 l
302.752491 224.568623 l
303.798203 209.638765 l
305.124742 187.275297 l
307.245061 147.161215 l
309.675425 102.354894 l
311.00456 81.82602 l
312.05287 68.840051 l
312.916126 60.700514 l
313.630042 55.894308 l
314.210199 53.344381 l
314.664066 52.221376 l
314.99911 51.889708 l
315.248769 51.918402 l
315.510116 52.200792 l
315.841913 52.929997 l
316.264613 54.454947 l
316.787956 57.253104 l
317.422007 61.951663 l
318.180075 69.353709 l
319.086186 80.532363 l
320.189687 97.086066 l
321.625634 122.246136 l
326.839261 216.909861 l
327.937243 231.286622 l
328.837185 240.365333 l
329.582267 245.817005 l
330.191319 248.79477 l
330.672782 250.176069 l
331.033149 250.639289 l
331.29482 250.667761 l
331.545778 250.451574 l
331.859394 249.847138 l
332.260667 248.535828 l
332.76096 246.067117 l
333.369363 241.851122 l
334.098537 235.124298 l
334.968936 224.889302 l
336.02244 209.699832 l
337.363263 186.906859 l
339.565395 145.014589 l
341.880506 102.36911 l
343.203798 81.934102 l
344.248861 69.000317 l
345.109845 60.896445 l
345.821812 56.116859 l
346.400022 53.586404 l
346.852266 52.475191 l
347.185686 52.149985 l
347.434696 52.181768 l
347.696368 52.46821 l
348.029139 53.205836 l
348.452813 54.744987 l
348.977455 57.567087 l
349.612803 62.300692 l
350.372495 69.754557 l
351.280554 81.006073 l
352.386977 97.667837 l
353.829092 123.019607 l
358.991424 217.006827 l
360.095574 231.573794 l
361.000062 240.780655 l
361.74904 246.320451 l
362.361663 249.356437 l
362.846697 250.773464 l
363.209985 251.254711 l
363.473605 251.291077 l
363.723264 251.082776 l
364.034608 250.492966 l
364.432959 249.207666 l
364.930005 246.780177 l
365.535161 242.622482 l
366.260439 235.979594 l
367.126293 225.859432 l
368.173629 210.833374 l
369.503089 188.31805 l
371.639965 147.729774 l
374.047279 103.227697 l
375.376414 82.63629 l
376.425373 69.601404 l
377.289603 61.425503 l
378.004168 56.596734 l
378.5853 54.03049 l
379.040465 52.897128 l
379.376483 52.56071 l
379.626792 52.587383 l
379.887489 52.866789 l
380.218637 53.590629 l
380.640363 55.105242 l
381.163057 57.888798 l
381.796458 62.565455 l
382.554202 69.938747 l
383.460312 81.079474 l
384.564463 97.585322 l
386.003981 122.713591 l
391.161118 215.954339 l
392.262996 230.379782 l
393.16586 239.494668 l
393.913215 244.972493 l
394.524215 247.969269 l
395.007625 249.363881 l
395.369615 249.834567 l
395.632585 249.866688 l
395.883543 249.654041 l
396.19651 249.056746 l
396.596809 247.759093 l
397.095803 245.314542 l
397.702907 241.135605 l
398.430458 234.465704 l
398.487273 233.872019 l
398.487273 233.872019 l
stroke
grestore
0.173 0.627 0.173 setrgbcolor
gsave
357.1 266.1 57.6 38.02 clipbox
73.832727 251.344265 m
74.157382 153.774779 l
74.482036 151.880427 l
75.131345 151.633388 l
75.780655 151.544666 l
76.429964 151.508906 l
77.079273 151.494064 l
112.791273 151.48293 l
119.284364 151.48293 l
125.777455 151.48293 l
132.270545 151.48293 l
138.763636 151.48293 l
171.229091 151.48293 l
203.694545 151.48293 l
236.16 151.48293 l
268.625455 151.48293 l
301.090909 151.48293 l
333.556364 151.48293 l
366.021818 151.48293 l
398.487273 151.48293 l
stroke
grestore
0.800 setlinewidth
0 setlinejoin
[] 0 setdash
0.000 setgray
gsave
57.6 38.016 m
57.6 304.128 l
stroke
grestore
gsave
414.72 38.016 m
414.72 304.128 l
stroke
grestore
gsave
57.6 38.016 m
414.72 38.016 l
stroke
grestore
gsave
57.6 304.128 m
414.72 304.128 l
stroke
grestore
1.000 setlinewidth
0 setlinecap
0.800 setgray
gsave
298.47 252.112375 m
407.72 252.112375 l
409.053333 252.112375 409.72 252.779042 409.72 254.112375 c
409.72 297.128 l
409.72 298.461333 409.053333 299.128 407.72 299.128 c
298.47 299.128 l
297.136667 299.128 296.47 298.461333 296.47 297.128 c
296.47 254.112375 l
296.47 252.779042 297.136667 252.112375 298.47 252.112375 c
cl
gsave
1.000 setgray
fill
grestore
stroke
grestore
1.500 setlinewidth
1 setlinejoin
2 setlinecap
[] 0 setdash
0.122 0.467 0.706 setrgbcolor
gsave
300.47 291.03425 m
320.47 291.03425 l
stroke
grestore
0.000 setgray
gsave
328.470000 287.534250 translate
0.000000 rotate
0.000000 0.000000 m /m glyphshow
9.741211 0.000000 m /o glyphshow
15.859375 0.000000 m /d glyphshow
22.207031 0.000000 m /e glyphshow
28.359375 0.000000 m /l glyphshow
31.137695 0.000000 m /A glyphshow
grestore
1.000 0.498 0.055 setrgbcolor
gsave
300.47 276.362375 m
320.47 276.362375 l
stroke
grestore
0.000 setgray
gsave
328.470000 272.862375 translate
0.000000 rotate
0.000000 0.000000 m /m glyphshow
9.741211 0.000000 m /o glyphshow
15.859375 0.000000 m /d glyphshow
22.207031 0.000000 m /e glyphshow
28.359375 0.000000 m /l glyphshow
31.137695 0.000000 m /B glyphshow
grestore
0.173 0.627 0.173 setrgbcolor
gsave
300.47 261.6905 m
320.47 261.6905 l
stroke
grestore
0.000 setgray
gsave
328.470000 258.190500 translate
0.000000 rotate
0.000000 0.000000 m /L glyphshow
5.571289 0.000000 m /i glyphshow
8.349609 0.000000 m /n glyphshow
14.687500 0.000000 m /e glyphshow
20.839844 0.000000 m /a glyphshow
26.967773 0.000000 m /r glyphshow
31.079102 0.000000 m /space glyphshow
34.257812 0.000000 m /d glyphshow
40.605469 0.000000 m /i glyphshow
43.383789 0.000000 m /f glyphshow
46.904297 0.000000 m /f glyphshow
50.424805 0.000000 m /u glyphshow
56.762695 0.000000 m /s glyphshow
61.972656 0.000000 m /i glyphshow
64.750977 0.000000 m /o glyphshow
70.869141 0.000000 m /n glyphshow
grestore

end
showpage
