\relax 
\@writefile{lof}{\contentsline {figure}{\numberline {1}{\ignorespaces Variation of distribution of particles with $Nt$, the M value is set to 160000, the value of $i_0$ is also given directly because this value is to big for $N=2$}}{4}}
\newlabel{fig:1}{{1}{4}}
\@writefile{lof}{\contentsline {figure}{\numberline {2}{\ignorespaces Variation of distribution of particles with $M$, the Nt value is fixed to 32}}{4}}
\newlabel{fig:2}{{2}{4}}
\@writefile{lof}{\contentsline {figure}{\numberline {3}{\ignorespaces The plot of simulation result with the operator being $L$, $L_{s}$, $L_{s}^{T}$}}{5}}
\newlabel{fig:3}{{3}{5}}
\@writefile{lof}{\contentsline {figure}{\numberline {4}{\ignorespaces The variation of i in maximum degree node with time for linear diffusion(L), model A and model B}}{7}}
\newlabel{fig:4}{{4}{7}}
\@writefile{lof}{\contentsline {figure}{\numberline {5}{\ignorespaces Variation of i value with node 100(normalised such that the maximum value is 1) with time for Linear diffusion, Model A($\beta =0.5$, $\gamma =0.1$) and Model B $\alpha =-0.01$}}{8}}
\newlabel{fig:5}{{5}{8}}
\@writefile{lof}{\contentsline {figure}{\numberline {6}{\ignorespaces Variation of total particle with time for Linear diffusion($i_0=0.5$), model A($\beta =0.5$, $\gamma =0.1$, $i_0=0.1$) and model B}}{8}}
\newlabel{fig:6}{{6}{8}}
