%!PS-Adobe-3.0 EPSF-3.0
%%Title: /home/hanwen/sc2020/project2/Linear_diffusion.eps
%%Creator: matplotlib version 3.1.1, http://matplotlib.org/
%%CreationDate: Sun Mar  1 08:58:05 2020
%%Orientation: portrait
%%BoundingBox: 75.6 223.20000000000002 536.4 568.8
%%EndComments
%%BeginProlog
/mpldict 8 dict def
mpldict begin
/m { moveto } bind def
/l { lineto } bind def
/r { rlineto } bind def
/c { curveto } bind def
/cl { closepath } bind def
/box {
m
1 index 0 r
0 exch r
neg 0 r
cl
} bind def
/clipbox {
box
clip
newpath
} bind def
%!PS-Adobe-3.0 Resource-Font
%%Title: DejaVu Sans
%%Copyright: Copyright (c) 2003 by Bitstream, Inc. All Rights Reserved. Copyright (c) 2006 by Tavmjong Bah. All Rights Reserved. DejaVu changes are in public domain 
%%Creator: Converted from TrueType to type 3 by PPR
25 dict begin
/_d{bind def}bind def
/_m{moveto}_d
/_l{lineto}_d
/_cl{closepath eofill}_d
/_c{curveto}_d
/_sc{7 -1 roll{setcachedevice}{pop pop pop pop pop pop}ifelse}_d
/_e{exec}_d
/FontName /DejaVuSans def
/PaintType 0 def
/FontMatrix[.001 0 0 .001 0 0]def
/FontBBox[-1021 -463 1793 1232]def
/FontType 3 def
/Encoding [ /period /zero /one /two /four /five /six /seven /eight /L /T /asciicircum /a /d /e /l /n /o /s /u /v ] def
/FontInfo 10 dict dup begin
/FamilyName (DejaVu Sans) def
/FullName (DejaVu Sans) def
/Notice (Copyright (c) 2003 by Bitstream, Inc. All Rights Reserved. Copyright (c) 2006 by Tavmjong Bah. All Rights Reserved. DejaVu changes are in public domain ) def
/Weight (Book) def
/Version (Version 2.35) def
/ItalicAngle 0.0 def
/isFixedPitch false def
/UnderlinePosition -130 def
/UnderlineThickness 90 def
end readonly def
/CharStrings 22 dict dup begin
/.notdef 0 def
/period{318 0 107 0 210 124 _sc
107 124 _m
210 124 _l
210 0 _l
107 0 _l
107 124 _l
_cl}_d
/zero{636 0 66 -13 570 742 _sc
318 664 _m
267 664 229 639 203 589 _c
177 539 165 464 165 364 _c
165 264 177 189 203 139 _c
229 89 267 64 318 64 _c
369 64 407 89 433 139 _c
458 189 471 264 471 364 _c
471 464 458 539 433 589 _c
407 639 369 664 318 664 _c
318 742 _m
399 742 461 709 505 645 _c
548 580 570 486 570 364 _c
570 241 548 147 505 83 _c
461 19 399 -13 318 -13 _c
236 -13 173 19 130 83 _c
87 147 66 241 66 364 _c
66 486 87 580 130 645 _c
173 709 236 742 318 742 _c
_cl}_d
/one{636 0 110 0 544 729 _sc
124 83 _m
285 83 _l
285 639 _l
110 604 _l
110 694 _l
284 729 _l
383 729 _l
383 83 _l
544 83 _l
544 0 _l
124 0 _l
124 83 _l
_cl}_d
/two{{636 0 73 0 536 742 _sc
192 83 _m
536 83 _l
536 0 _l
73 0 _l
73 83 _l
110 121 161 173 226 239 _c
290 304 331 346 348 365 _c
380 400 402 430 414 455 _c
426 479 433 504 433 528 _c
433 566 419 598 392 622 _c
365 646 330 659 286 659 _c
255 659 222 653 188 643 _c
154 632 117 616 78 594 _c
78 694 _l
118 710 155 722 189 730 _c
223 738 255 742 284 742 _c
}_e{359 742 419 723 464 685 _c
509 647 532 597 532 534 _c
532 504 526 475 515 449 _c
504 422 484 390 454 354 _c
446 344 420 317 376 272 _c
332 227 271 164 192 83 _c
_cl}_e}_d
/four{636 0 49 0 580 729 _sc
378 643 _m
129 254 _l
378 254 _l
378 643 _l
352 729 _m
476 729 _l
476 254 _l
580 254 _l
580 172 _l
476 172 _l
476 0 _l
378 0 _l
378 172 _l
49 172 _l
49 267 _l
352 729 _l
_cl}_d
/five{{636 0 77 -13 549 729 _sc
108 729 _m
495 729 _l
495 646 _l
198 646 _l
198 467 _l
212 472 227 476 241 478 _c
255 480 270 482 284 482 _c
365 482 429 459 477 415 _c
525 370 549 310 549 234 _c
549 155 524 94 475 51 _c
426 8 357 -13 269 -13 _c
238 -13 207 -10 175 -6 _c
143 -1 111 6 77 17 _c
77 116 _l
106 100 136 88 168 80 _c
199 72 232 69 267 69 _c
}_e{323 69 368 83 401 113 _c
433 143 450 183 450 234 _c
450 284 433 324 401 354 _c
368 384 323 399 267 399 _c
241 399 214 396 188 390 _c
162 384 135 375 108 363 _c
108 729 _l
_cl}_e}_d
/six{{636 0 70 -13 573 742 _sc
330 404 _m
286 404 251 388 225 358 _c
199 328 186 286 186 234 _c
186 181 199 139 225 109 _c
251 79 286 64 330 64 _c
374 64 409 79 435 109 _c
461 139 474 181 474 234 _c
474 286 461 328 435 358 _c
409 388 374 404 330 404 _c
526 713 _m
526 623 _l
501 635 476 644 451 650 _c
425 656 400 659 376 659 _c
310 659 260 637 226 593 _c
}_e{192 549 172 482 168 394 _c
187 422 211 444 240 459 _c
269 474 301 482 336 482 _c
409 482 467 459 509 415 _c
551 371 573 310 573 234 _c
573 159 550 99 506 54 _c
462 9 403 -13 330 -13 _c
246 -13 181 19 137 83 _c
92 147 70 241 70 364 _c
70 479 97 571 152 639 _c
206 707 280 742 372 742 _c
396 742 421 739 447 735 _c
472 730 498 723 526 713 _c
_cl}_e}_d
/seven{636 0 82 0 551 729 _sc
82 729 _m
551 729 _l
551 687 _l
286 0 _l
183 0 _l
432 646 _l
82 646 _l
82 729 _l
_cl}_d
/eight{{636 0 68 -13 568 742 _sc
318 346 _m
271 346 234 333 207 308 _c
180 283 167 249 167 205 _c
167 161 180 126 207 101 _c
234 76 271 64 318 64 _c
364 64 401 76 428 102 _c
455 127 469 161 469 205 _c
469 249 455 283 429 308 _c
402 333 365 346 318 346 _c
219 388 _m
177 398 144 418 120 447 _c
96 476 85 511 85 553 _c
85 611 105 657 147 691 _c
188 725 245 742 318 742 _c
}_e{390 742 447 725 489 691 _c
530 657 551 611 551 553 _c
551 511 539 476 515 447 _c
491 418 459 398 417 388 _c
464 377 501 355 528 323 _c
554 291 568 251 568 205 _c
568 134 546 80 503 43 _c
459 5 398 -13 318 -13 _c
237 -13 175 5 132 43 _c
89 80 68 134 68 205 _c
68 251 81 291 108 323 _c
134 355 171 377 219 388 _c
183 544 _m
183 506 194 476 218 455 _c
}_e{242 434 275 424 318 424 _c
360 424 393 434 417 455 _c
441 476 453 506 453 544 _c
453 582 441 611 417 632 _c
393 653 360 664 318 664 _c
275 664 242 653 218 632 _c
194 611 183 582 183 544 _c
_cl}_e}_d
/L{557 0 98 0 552 729 _sc
98 729 _m
197 729 _l
197 83 _l
552 83 _l
552 0 _l
98 0 _l
98 729 _l
_cl}_d
/T{611 0 -2 0 614 729 _sc
-2 729 _m
614 729 _l
614 646 _l
355 646 _l
355 0 _l
256 0 _l
256 646 _l
-2 646 _l
-2 729 _l
_cl}_d
/asciicircum{838 0 106 457 732 729 _sc
467 729 _m
732 457 _l
634 457 _l
419 650 _l
204 457 _l
106 457 _l
371 729 _l
467 729 _l
_cl}_d
/a{{613 0 60 -13 522 560 _sc
343 275 _m
270 275 220 266 192 250 _c
164 233 150 205 150 165 _c
150 133 160 107 181 89 _c
202 70 231 61 267 61 _c
317 61 357 78 387 114 _c
417 149 432 196 432 255 _c
432 275 _l
343 275 _l
522 312 _m
522 0 _l
432 0 _l
432 83 _l
411 49 385 25 355 10 _c
325 -5 287 -13 243 -13 _c
187 -13 142 2 109 33 _c
76 64 60 106 60 159 _c
}_e{60 220 80 266 122 298 _c
163 329 224 345 306 345 _c
432 345 _l
432 354 _l
432 395 418 427 391 450 _c
364 472 326 484 277 484 _c
245 484 215 480 185 472 _c
155 464 127 453 100 439 _c
100 522 _l
132 534 164 544 195 550 _c
226 556 256 560 286 560 _c
365 560 424 539 463 498 _c
502 457 522 395 522 312 _c
_cl}_e}_d
/d{{635 0 55 -13 544 760 _sc
454 464 _m
454 760 _l
544 760 _l
544 0 _l
454 0 _l
454 82 _l
435 49 411 25 382 10 _c
353 -5 319 -13 279 -13 _c
213 -13 159 13 117 65 _c
75 117 55 187 55 273 _c
55 359 75 428 117 481 _c
159 533 213 560 279 560 _c
319 560 353 552 382 536 _c
411 520 435 496 454 464 _c
148 273 _m
148 207 161 155 188 117 _c
215 79 253 61 301 61 _c
}_e{348 61 385 79 413 117 _c
440 155 454 207 454 273 _c
454 339 440 390 413 428 _c
385 466 348 485 301 485 _c
253 485 215 466 188 428 _c
161 390 148 339 148 273 _c
_cl}_e}_d
/e{{615 0 55 -13 562 560 _sc
562 296 _m
562 252 _l
149 252 _l
153 190 171 142 205 110 _c
238 78 284 62 344 62 _c
378 62 412 66 444 74 _c
476 82 509 95 541 113 _c
541 28 _l
509 14 476 3 442 -3 _c
408 -9 373 -13 339 -13 _c
251 -13 182 12 131 62 _c
80 112 55 181 55 268 _c
55 357 79 428 127 481 _c
175 533 241 560 323 560 _c
397 560 455 536 498 489 _c
}_e{540 441 562 377 562 296 _c
472 322 _m
471 371 457 410 431 440 _c
404 469 368 484 324 484 _c
274 484 234 469 204 441 _c
174 413 156 373 152 322 _c
472 322 _l
_cl}_e}_d
/l{278 0 94 0 184 760 _sc
94 760 _m
184 760 _l
184 0 _l
94 0 _l
94 760 _l
_cl}_d
/n{634 0 91 0 549 560 _sc
549 330 _m
549 0 _l
459 0 _l
459 327 _l
459 379 448 417 428 443 _c
408 469 378 482 338 482 _c
289 482 251 466 223 435 _c
195 404 181 362 181 309 _c
181 0 _l
91 0 _l
91 547 _l
181 547 _l
181 462 _l
202 494 227 519 257 535 _c
286 551 320 560 358 560 _c
420 560 468 540 500 501 _c
532 462 549 405 549 330 _c
_cl}_d
/o{612 0 55 -13 557 560 _sc
306 484 _m
258 484 220 465 192 427 _c
164 389 150 338 150 273 _c
150 207 163 156 191 118 _c
219 80 257 62 306 62 _c
354 62 392 80 420 118 _c
448 156 462 207 462 273 _c
462 337 448 389 420 427 _c
392 465 354 484 306 484 _c
306 560 _m
384 560 445 534 490 484 _c
534 433 557 363 557 273 _c
557 183 534 113 490 63 _c
445 12 384 -13 306 -13 _c
227 -13 165 12 121 63 _c
77 113 55 183 55 273 _c
55 363 77 433 121 484 _c
165 534 227 560 306 560 _c
_cl}_d
/s{{521 0 54 -13 472 560 _sc
443 531 _m
443 446 _l
417 458 391 468 364 475 _c
336 481 308 485 279 485 _c
234 485 200 478 178 464 _c
156 450 145 430 145 403 _c
145 382 153 366 169 354 _c
185 342 217 330 265 320 _c
296 313 _l
360 299 405 279 432 255 _c
458 230 472 195 472 151 _c
472 100 452 60 412 31 _c
372 1 316 -13 246 -13 _c
216 -13 186 -10 154 -5 _c
}_e{122 0 89 8 54 20 _c
54 113 _l
87 95 120 82 152 74 _c
184 65 216 61 248 61 _c
290 61 323 68 346 82 _c
368 96 380 117 380 144 _c
380 168 371 187 355 200 _c
339 213 303 226 247 238 _c
216 245 _l
160 257 119 275 95 299 _c
70 323 58 356 58 399 _c
58 450 76 490 112 518 _c
148 546 200 560 268 560 _c
301 560 332 557 362 552 _c
391 547 418 540 443 531 _c
}_e{_cl}_e}_d
/u{634 0 85 -13 543 560 _sc
85 216 _m
85 547 _l
175 547 _l
175 219 _l
175 167 185 129 205 103 _c
225 77 255 64 296 64 _c
344 64 383 79 411 110 _c
439 141 453 183 453 237 _c
453 547 _l
543 547 _l
543 0 _l
453 0 _l
453 84 _l
431 50 405 26 377 10 _c
348 -5 315 -13 277 -13 _c
214 -13 166 6 134 45 _c
101 83 85 140 85 216 _c
311 560 _m
311 560 _l
_cl}_d
/v{592 0 30 0 562 547 _sc
30 547 _m
125 547 _l
296 88 _l
467 547 _l
562 547 _l
357 0 _l
235 0 _l
30 547 _l
_cl}_d
end readonly def

/BuildGlyph
 {exch begin
 CharStrings exch
 2 copy known not{pop /.notdef}if
 true 3 1 roll get exec
 end}_d

/BuildChar {
 1 index /Encoding get exch get
 1 index /BuildGlyph get exec
}_d

FontName currentdict end definefont pop
end
%%EndProlog
mpldict begin
75.6 223.2 translate
460.8 345.6 0 0 clipbox
gsave
0 0 m
460.8 0 l
460.8 345.6 l
0 345.6 l
cl
1.000 setgray
fill
grestore
gsave
57.6 38.016 m
414.72 38.016 l
414.72 304.128 l
57.6 304.128 l
cl
1.000 setgray
fill
grestore
0.800 setlinewidth
1 setlinejoin
0 setlinecap
[] 0 setdash
0.000 setgray
gsave
/o {
gsave
newpath
translate
0.8 setlinewidth
1 setlinejoin
0 setlinecap
0 0 m
0 -3.5 l

gsave
0.000 setgray
fill
grestore
stroke
grestore
} bind def
73.8327 38.016 o
grestore
/DejaVuSans findfont
10.000 scalefont
setfont
gsave
70.653040 23.422250 translate
0.000000 rotate
0.000000 0.000000 m /zero glyphshow
grestore
gsave
/o {
gsave
newpath
translate
0.8 setlinewidth
1 setlinejoin
0 setlinecap
0 0 m
0 -3.5 l

gsave
0.000 setgray
fill
grestore
stroke
grestore
} bind def
114.435 38.016 o
grestore
gsave
104.895784 23.422250 translate
0.000000 rotate
0.000000 0.000000 m /two glyphshow
6.362305 0.000000 m /five glyphshow
12.724609 0.000000 m /zero glyphshow
grestore
gsave
/o {
gsave
newpath
translate
0.8 setlinewidth
1 setlinejoin
0 setlinecap
0 0 m
0 -3.5 l

gsave
0.000 setgray
fill
grestore
stroke
grestore
} bind def
155.037 38.016 o
grestore
gsave
145.497903 23.422250 translate
0.000000 rotate
0.000000 0.000000 m /five glyphshow
6.362305 0.000000 m /zero glyphshow
12.724609 0.000000 m /zero glyphshow
grestore
gsave
/o {
gsave
newpath
translate
0.8 setlinewidth
1 setlinejoin
0 setlinecap
0 0 m
0 -3.5 l

gsave
0.000 setgray
fill
grestore
stroke
grestore
} bind def
195.639 38.016 o
grestore
gsave
186.100022 23.422250 translate
0.000000 rotate
0.000000 0.000000 m /seven glyphshow
6.362305 0.000000 m /five glyphshow
12.724609 0.000000 m /zero glyphshow
grestore
gsave
/o {
gsave
newpath
translate
0.8 setlinewidth
1 setlinejoin
0 setlinecap
0 0 m
0 -3.5 l

gsave
0.000 setgray
fill
grestore
stroke
grestore
} bind def
236.241 38.016 o
grestore
gsave
223.522454 23.422250 translate
0.000000 rotate
0.000000 0.000000 m /one glyphshow
6.362305 0.000000 m /zero glyphshow
12.724609 0.000000 m /zero glyphshow
19.086914 0.000000 m /zero glyphshow
grestore
gsave
/o {
gsave
newpath
translate
0.8 setlinewidth
1 setlinejoin
0 setlinecap
0 0 m
0 -3.5 l

gsave
0.000 setgray
fill
grestore
stroke
grestore
} bind def
276.843 38.016 o
grestore
gsave
264.124573 23.422250 translate
0.000000 rotate
0.000000 0.000000 m /one glyphshow
6.362305 0.000000 m /two glyphshow
12.724609 0.000000 m /five glyphshow
19.086914 0.000000 m /zero glyphshow
grestore
gsave
/o {
gsave
newpath
translate
0.8 setlinewidth
1 setlinejoin
0 setlinecap
0 0 m
0 -3.5 l

gsave
0.000 setgray
fill
grestore
stroke
grestore
} bind def
317.445 38.016 o
grestore
gsave
304.726693 23.422250 translate
0.000000 rotate
0.000000 0.000000 m /one glyphshow
6.362305 0.000000 m /five glyphshow
12.724609 0.000000 m /zero glyphshow
19.086914 0.000000 m /zero glyphshow
grestore
gsave
/o {
gsave
newpath
translate
0.8 setlinewidth
1 setlinejoin
0 setlinecap
0 0 m
0 -3.5 l

gsave
0.000 setgray
fill
grestore
stroke
grestore
} bind def
358.048 38.016 o
grestore
gsave
345.328812 23.422250 translate
0.000000 rotate
0.000000 0.000000 m /one glyphshow
6.362305 0.000000 m /seven glyphshow
12.724609 0.000000 m /five glyphshow
19.086914 0.000000 m /zero glyphshow
grestore
gsave
/o {
gsave
newpath
translate
0.8 setlinewidth
1 setlinejoin
0 setlinecap
0 0 m
0 -3.5 l

gsave
0.000 setgray
fill
grestore
stroke
grestore
} bind def
398.65 38.016 o
grestore
gsave
385.930931 23.422250 translate
0.000000 rotate
0.000000 0.000000 m /two glyphshow
6.362305 0.000000 m /zero glyphshow
12.724609 0.000000 m /zero glyphshow
19.086914 0.000000 m /zero glyphshow
grestore
gsave
223.675625 9.750375 translate
0.000000 rotate
0.000000 0.000000 m /n glyphshow
6.337891 0.000000 m /o glyphshow
12.456055 0.000000 m /d glyphshow
18.803711 0.000000 m /e glyphshow
grestore
gsave
/o {
gsave
newpath
translate
0.8 setlinewidth
1 setlinejoin
0 setlinecap
0 0 m
-3.5 0 l

gsave
0.000 setgray
fill
grestore
stroke
grestore
} bind def
57.6 45.2247 o
grestore
gsave
21.975000 41.427852 translate
0.000000 rotate
0.000000 0.000000 m /zero glyphshow
6.362305 0.000000 m /period glyphshow
9.541016 0.000000 m /zero glyphshow
15.903320 0.000000 m /zero glyphshow
22.265625 0.000000 m /zero glyphshow
grestore
gsave
/o {
gsave
newpath
translate
0.8 setlinewidth
1 setlinejoin
0 setlinecap
0 0 m
-3.5 0 l

gsave
0.000 setgray
fill
grestore
stroke
grestore
} bind def
57.6 84.2447 o
grestore
gsave
21.975000 80.447838 translate
0.000000 rotate
0.000000 0.000000 m /zero glyphshow
6.362305 0.000000 m /period glyphshow
9.541016 0.000000 m /zero glyphshow
15.903320 0.000000 m /zero glyphshow
22.265625 0.000000 m /two glyphshow
grestore
gsave
/o {
gsave
newpath
translate
0.8 setlinewidth
1 setlinejoin
0 setlinecap
0 0 m
-3.5 0 l

gsave
0.000 setgray
fill
grestore
stroke
grestore
} bind def
57.6 123.265 o
grestore
gsave
21.975000 119.467823 translate
0.000000 rotate
0.000000 0.000000 m /zero glyphshow
6.362305 0.000000 m /period glyphshow
9.541016 0.000000 m /zero glyphshow
15.903320 0.000000 m /zero glyphshow
22.265625 0.000000 m /four glyphshow
grestore
gsave
/o {
gsave
newpath
translate
0.8 setlinewidth
1 setlinejoin
0 setlinecap
0 0 m
-3.5 0 l

gsave
0.000 setgray
fill
grestore
stroke
grestore
} bind def
57.6 162.285 o
grestore
gsave
21.975000 158.487809 translate
0.000000 rotate
0.000000 0.000000 m /zero glyphshow
6.362305 0.000000 m /period glyphshow
9.541016 0.000000 m /zero glyphshow
15.903320 0.000000 m /zero glyphshow
22.265625 0.000000 m /six glyphshow
grestore
gsave
/o {
gsave
newpath
translate
0.8 setlinewidth
1 setlinejoin
0 setlinecap
0 0 m
-3.5 0 l

gsave
0.000 setgray
fill
grestore
stroke
grestore
} bind def
57.6 201.305 o
grestore
gsave
21.975000 197.507794 translate
0.000000 rotate
0.000000 0.000000 m /zero glyphshow
6.362305 0.000000 m /period glyphshow
9.541016 0.000000 m /zero glyphshow
15.903320 0.000000 m /zero glyphshow
22.265625 0.000000 m /eight glyphshow
grestore
gsave
/o {
gsave
newpath
translate
0.8 setlinewidth
1 setlinejoin
0 setlinecap
0 0 m
-3.5 0 l

gsave
0.000 setgray
fill
grestore
stroke
grestore
} bind def
57.6 240.325 o
grestore
gsave
21.975000 236.527780 translate
0.000000 rotate
0.000000 0.000000 m /zero glyphshow
6.362305 0.000000 m /period glyphshow
9.541016 0.000000 m /zero glyphshow
15.903320 0.000000 m /one glyphshow
22.265625 0.000000 m /zero glyphshow
grestore
gsave
/o {
gsave
newpath
translate
0.8 setlinewidth
1 setlinejoin
0 setlinecap
0 0 m
-3.5 0 l

gsave
0.000 setgray
fill
grestore
stroke
grestore
} bind def
57.6 279.345 o
grestore
gsave
21.975000 275.547765 translate
0.000000 rotate
0.000000 0.000000 m /zero glyphshow
6.362305 0.000000 m /period glyphshow
9.541016 0.000000 m /zero glyphshow
15.903320 0.000000 m /one glyphshow
22.265625 0.000000 m /two glyphshow
grestore
gsave
15.896875 157.407937 translate
90.000000 rotate
0.000000 0.000000 m /v glyphshow
5.917969 0.000000 m /a glyphshow
12.045898 0.000000 m /l glyphshow
14.824219 0.000000 m /u glyphshow
21.162109 0.000000 m /e glyphshow
grestore
0.300 setlinewidth
2 setlinecap
0.122 0.467 0.706 setrgbcolor
gsave
357.1 266.1 57.6 38.02 clipbox
73.832727 54.979724 m
398.487273 54.979724 l
398.487273 54.979724 l
stroke
grestore
1.000 0.498 0.055 setrgbcolor
gsave
357.1 266.1 57.6 38.02 clipbox
73.832727 177.181091 m
398.487273 177.181091 l
398.487273 177.181091 l
stroke
grestore
0.173 0.627 0.173 setrgbcolor
gsave
357.1 266.1 57.6 38.02 clipbox
73.832727 79.435636 m
74.157544 140.526545 l
74.319953 81.879273 l
74.482361 292.032 l
74.64477 177.181091 l
74.807178 201.617455 l
75.131995 111.202909 l
75.294404 114.868364 l
75.456812 134.417455 l
75.619221 116.090182 l
75.781629 134.417455 l
75.944037 120.977455 l
76.106446 72.104727 l
76.268854 69.661091 l
76.431263 79.435636 l
76.593671 63.552 l
76.75608 100.206545 l
76.918488 64.773818 l
77.080897 134.417455 l
77.405714 79.435636 l
77.568122 109.981091 l
77.892939 94.097455 l
78.055348 96.541091 l
78.217756 122.199273 l
78.380165 101.428364 l
78.542573 96.541091 l
78.86739 64.773818 l
79.029799 109.981091 l
79.192207 76.992 l
79.354615 67.217455 l
79.517024 103.872 l
79.679432 114.868364 l
80.004249 78.213818 l
80.166658 79.435636 l
80.329066 58.664727 l
80.491475 76.992 l
80.653883 62.330182 l
80.816292 61.108364 l
80.9787 101.428364 l
81.141109 73.326545 l
81.303517 83.101091 l
81.465926 116.090182 l
81.628334 103.872 l
81.790743 69.661091 l
81.953151 102.650182 l
82.11556 59.886545 l
82.277968 96.541091 l
82.440377 90.432 l
82.602785 91.653818 l
82.765194 69.661091 l
83.09001 74.548364 l
83.414827 61.108364 l
83.577236 70.882909 l
83.739644 72.104727 l
83.902053 94.097455 l
84.064461 76.992 l
84.22687 72.104727 l
84.389278 96.541091 l
84.551687 57.442909 l
84.714095 86.766545 l
84.876504 84.322909 l
85.201321 59.886545 l
85.526138 74.548364 l
85.688546 61.108364 l
85.850955 76.992 l
86.013363 59.886545 l
86.175772 101.428364 l
86.33818 67.217455 l
86.500588 63.552 l
86.825405 63.552 l
86.987814 75.770182 l
87.312631 58.664727 l
87.475039 81.879273 l
87.637448 62.330182 l
87.799856 75.770182 l
87.962265 75.770182 l
88.124673 54.999273 l
88.44949 78.213818 l
88.611899 80.657455 l
88.774307 70.882909 l
88.936716 72.104727 l
89.099124 72.104727 l
89.261533 64.773818 l
89.58635 75.770182 l
89.748758 73.326545 l
89.911166 61.108364 l
90.073575 73.326545 l
90.235983 74.548364 l
90.398392 85.544727 l
90.5608 54.999273 l
90.723209 81.879273 l
90.885617 68.439273 l
91.048026 76.992 l
91.210434 72.104727 l
91.372843 75.770182 l
91.535251 62.330182 l
91.69766 61.108364 l
91.860068 69.661091 l
92.022477 64.773818 l
92.184885 50.112 l
92.347294 62.330182 l
92.672111 54.999273 l
92.834519 56.221091 l
92.996928 79.435636 l
93.321745 52.555636 l
93.484153 62.330182 l
93.80897 57.442909 l
93.971378 63.552 l
94.133787 61.108364 l
94.458604 69.661091 l
94.621012 79.435636 l
94.783421 53.777455 l
94.945829 57.442909 l
95.108238 83.101091 l
95.270646 59.886545 l
95.433055 65.995636 l
95.595463 54.999273 l
95.757872 52.555636 l
95.92028 76.992 l
96.082689 67.217455 l
96.245097 83.101091 l
96.407506 80.657455 l
96.569914 58.664727 l
96.732323 75.770182 l
96.894731 72.104727 l
97.219548 52.555636 l
97.381956 85.544727 l
97.544365 64.773818 l
97.869182 67.217455 l
98.03159 57.442909 l
98.193999 58.664727 l
98.356407 76.992 l
98.518816 59.886545 l
98.681224 58.664727 l
98.843633 72.104727 l
99.16845 58.664727 l
99.330858 72.104727 l
99.493267 58.664727 l
99.655675 57.442909 l
99.818084 65.995636 l
99.980492 68.439273 l
100.142901 59.886545 l
100.305309 59.886545 l
100.630126 67.217455 l
100.792534 61.108364 l
100.954943 59.886545 l
101.117351 75.770182 l
101.27976 63.552 l
101.442168 59.886545 l
101.604577 73.326545 l
101.929394 64.773818 l
102.254211 51.333818 l
102.416619 64.773818 l
102.579028 63.552 l
102.903845 57.442909 l
103.066253 69.661091 l
103.228662 57.442909 l
103.39107 57.442909 l
103.553479 58.664727 l
103.715887 69.661091 l
103.878296 54.999273 l
104.040704 53.777455 l
104.203112 62.330182 l
104.365521 50.112 l
104.527929 63.552 l
104.690338 56.221091 l
104.852746 58.664727 l
105.015155 54.999273 l
105.177563 70.882909 l
105.339972 67.217455 l
105.50238 58.664727 l
105.664789 76.992 l
105.989606 52.555636 l
106.152014 69.661091 l
106.314423 69.661091 l
106.63924 58.664727 l
106.964057 58.664727 l
107.126465 59.886545 l
107.288874 62.330182 l
107.451282 70.882909 l
107.61369 69.661091 l
107.776099 58.664727 l
107.938507 61.108364 l
108.100916 59.886545 l
108.263324 53.777455 l
108.425733 67.217455 l
108.588141 56.221091 l
108.75055 59.886545 l
108.912958 68.439273 l
109.400184 52.555636 l
109.562592 65.995636 l
109.725001 54.999273 l
109.887409 52.555636 l
110.049818 68.439273 l
110.374635 54.999273 l
110.537043 58.664727 l
110.699452 57.442909 l
110.86186 63.552 l
111.024268 63.552 l
111.186677 56.221091 l
111.349085 61.108364 l
111.511494 53.777455 l
111.673902 57.442909 l
111.836311 51.333818 l
111.998719 58.664727 l
112.323536 58.664727 l
112.485945 64.773818 l
112.648353 56.221091 l
112.810762 56.221091 l
113.135579 63.552 l
113.297987 57.442909 l
113.460396 59.886545 l
113.622804 52.555636 l
113.785213 70.882909 l
113.947621 58.664727 l
114.11003 56.221091 l
114.272438 59.886545 l
114.434847 53.777455 l
114.597255 70.882909 l
114.759663 58.664727 l
114.922072 59.886545 l
115.246889 54.999273 l
115.409297 61.108364 l
115.734114 53.777455 l
115.896523 52.555636 l
116.058931 52.555636 l
116.22134 51.333818 l
116.383748 63.552 l
116.546157 58.664727 l
116.708565 76.992 l
116.870974 54.999273 l
117.033382 54.999273 l
117.195791 56.221091 l
117.358199 58.664727 l
117.520608 65.995636 l
117.683016 57.442909 l
117.845425 59.886545 l
118.007833 57.442909 l
118.170241 63.552 l
118.33265 53.777455 l
118.495058 58.664727 l
118.657467 58.664727 l
118.819875 51.333818 l
118.982284 57.442909 l
119.144692 58.664727 l
119.307101 52.555636 l
119.469509 53.777455 l
119.631918 56.221091 l
119.794326 54.999273 l
119.956735 57.442909 l
120.119143 64.773818 l
120.44396 53.777455 l
120.606369 61.108364 l
120.931186 52.555636 l
121.093594 62.330182 l
121.256003 63.552 l
121.58082 58.664727 l
121.743228 58.664727 l
121.905636 62.330182 l
122.068045 61.108364 l
122.230453 52.555636 l
122.392862 59.886545 l
122.55527 54.999273 l
122.880087 57.442909 l
123.042496 59.886545 l
123.204904 51.333818 l
123.367313 59.886545 l
123.529721 52.555636 l
123.69213 57.442909 l
123.854538 58.664727 l
124.016947 63.552 l
124.179355 54.999273 l
124.341764 61.108364 l
124.504172 61.108364 l
124.828989 67.217455 l
124.991398 52.555636 l
125.153806 59.886545 l
125.316214 52.555636 l
125.641031 54.999273 l
125.80344 54.999273 l
125.965848 50.112 l
126.128257 51.333818 l
126.290665 58.664727 l
126.453074 53.777455 l
126.615482 54.999273 l
127.102708 51.333818 l
127.427525 58.664727 l
127.752342 53.777455 l
127.91475 64.773818 l
128.077159 54.999273 l
128.239567 53.777455 l
128.564384 64.773818 l
128.889201 51.333818 l
129.051609 65.995636 l
129.376426 52.555636 l
129.538835 53.777455 l
129.701243 59.886545 l
129.863652 56.221091 l
130.02606 58.664727 l
130.188469 52.555636 l
130.350877 57.442909 l
130.513286 57.442909 l
130.675694 59.886545 l
131.000511 53.777455 l
131.16292 57.442909 l
131.325328 54.999273 l
131.487737 58.664727 l
131.650145 67.217455 l
131.812554 56.221091 l
131.974962 56.221091 l
132.137371 54.999273 l
132.462187 54.999273 l
132.624596 53.777455 l
132.787004 63.552 l
132.949413 56.221091 l
133.27423 64.773818 l
133.436638 53.777455 l
133.761455 53.777455 l
133.923864 61.108364 l
134.086272 51.333818 l
134.248681 69.661091 l
134.411089 53.777455 l
134.573498 54.999273 l
134.735906 65.995636 l
134.898315 62.330182 l
135.060723 54.999273 l
135.223132 53.777455 l
135.38554 57.442909 l
135.547949 53.777455 l
135.710357 56.221091 l
135.872765 61.108364 l
136.035174 54.999273 l
136.359991 52.555636 l
136.684808 62.330182 l
136.847216 56.221091 l
137.009625 57.442909 l
137.172033 53.777455 l
137.334442 58.664727 l
137.49685 53.777455 l
137.659259 61.108364 l
137.821667 54.999273 l
137.984076 56.221091 l
138.146484 53.777455 l
138.308893 62.330182 l
138.471301 52.555636 l
138.63371 54.999273 l
138.796118 51.333818 l
138.958527 59.886545 l
139.283343 52.555636 l
139.445752 58.664727 l
139.60816 51.333818 l
139.770569 51.333818 l
139.932977 59.886545 l
140.095386 53.777455 l
140.257794 52.555636 l
140.420203 53.777455 l
140.582611 57.442909 l
140.74502 51.333818 l
140.907428 61.108364 l
141.069837 51.333818 l
141.394654 65.995636 l
141.557062 52.555636 l
141.719471 58.664727 l
141.881879 57.442909 l
142.206696 57.442909 l
142.369105 58.664727 l
142.531513 54.999273 l
142.693922 68.439273 l
142.85633 56.221091 l
143.018738 59.886545 l
143.181147 53.777455 l
143.343555 56.221091 l
143.505964 52.555636 l
143.668372 63.552 l
143.830781 52.555636 l
143.993189 63.552 l
144.155598 57.442909 l
144.642823 53.777455 l
144.805232 51.333818 l
144.96764 51.333818 l
145.292457 57.442909 l
145.454866 53.777455 l
145.617274 53.777455 l
145.779683 52.555636 l
145.942091 54.999273 l
146.266908 54.999273 l
146.429316 51.333818 l
146.591725 59.886545 l
146.754133 51.333818 l
146.916542 51.333818 l
147.241359 56.221091 l
147.403767 53.777455 l
147.566176 58.664727 l
147.728584 59.886545 l
148.053401 52.555636 l
148.21581 59.886545 l
148.540627 51.333818 l
148.703035 54.999273 l
148.865444 51.333818 l
149.027852 57.442909 l
149.190261 58.664727 l
149.515078 53.777455 l
149.677486 61.108364 l
149.839894 53.777455 l
150.002303 57.442909 l
150.164711 51.333818 l
150.32712 58.664727 l
150.489528 51.333818 l
150.814345 61.108364 l
150.976754 58.664727 l
151.139162 51.333818 l
151.301571 51.333818 l
151.626388 56.221091 l
151.788796 53.777455 l
151.951205 57.442909 l
152.113613 51.333818 l
152.276022 52.555636 l
152.43843 56.221091 l
152.763247 53.777455 l
152.925656 57.442909 l
153.088064 53.777455 l
153.412881 62.330182 l
153.575289 53.777455 l
153.737698 59.886545 l
153.900106 52.555636 l
154.062515 56.221091 l
154.224923 50.112 l
154.54974 59.886545 l
154.712149 58.664727 l
154.874557 56.221091 l
155.036966 50.112 l
155.199374 53.777455 l
155.361783 51.333818 l
155.524191 57.442909 l
155.6866 58.664727 l
155.849008 58.664727 l
156.011417 61.108364 l
156.173825 53.777455 l
156.336234 58.664727 l
156.661051 53.777455 l
156.823459 53.777455 l
156.985867 56.221091 l
157.148276 56.221091 l
157.310684 52.555636 l
157.473093 52.555636 l
157.635501 50.112 l
157.960318 54.999273 l
158.122727 53.777455 l
158.285135 51.333818 l
158.447544 58.664727 l
158.609952 52.555636 l
158.772361 52.555636 l
158.934769 58.664727 l
159.097178 50.112 l
159.259586 58.664727 l
159.421995 50.112 l
159.584403 57.442909 l
159.746812 58.664727 l
159.90922 53.777455 l
160.071629 58.664727 l
160.396445 51.333818 l
160.558854 51.333818 l
160.883671 54.999273 l
161.046079 50.112 l
161.208488 54.999273 l
161.370896 53.777455 l
161.533305 54.999273 l
161.695713 52.555636 l
161.858122 54.999273 l
162.182939 54.999273 l
162.345347 56.221091 l
162.507756 52.555636 l
162.670164 54.999273 l
162.832573 51.333818 l
162.994981 52.555636 l
163.15739 50.112 l
163.319798 50.112 l
163.482207 52.555636 l
163.644615 51.333818 l
163.969432 53.777455 l
164.13184 62.330182 l
164.294249 52.555636 l
164.456657 52.555636 l
164.619066 57.442909 l
164.943883 51.333818 l
165.106291 54.999273 l
165.2687 50.112 l
165.593517 53.777455 l
165.755925 52.555636 l
165.918334 56.221091 l
166.080742 50.112 l
166.243151 54.999273 l
166.405559 56.221091 l
166.567968 53.777455 l
166.892785 53.777455 l
167.055193 54.999273 l
167.38001 63.552 l
167.542418 51.333818 l
167.704827 50.112 l
167.867235 61.108364 l
168.029644 52.555636 l
168.192052 51.333818 l
168.354461 63.552 l
168.516869 52.555636 l
168.841686 56.221091 l
169.166503 52.555636 l
169.328912 57.442909 l
169.49132 52.555636 l
169.653729 51.333818 l
169.816137 53.777455 l
169.978546 52.555636 l
170.140954 50.112 l
170.303363 50.112 l
170.465771 54.999273 l
170.62818 51.333818 l
170.790588 51.333818 l
170.952996 59.886545 l
171.115405 51.333818 l
171.277813 50.112 l
171.440222 57.442909 l
171.60263 51.333818 l
171.765039 51.333818 l
171.927447 53.777455 l
172.089856 50.112 l
172.252264 54.999273 l
172.414673 56.221091 l
172.73949 52.555636 l
172.901898 51.333818 l
173.064307 59.886545 l
173.226715 50.112 l
173.389124 51.333818 l
173.551532 56.221091 l
173.713941 52.555636 l
173.876349 59.886545 l
174.038758 52.555636 l
174.201166 53.777455 l
174.363575 57.442909 l
174.525983 51.333818 l
174.688391 56.221091 l
174.8508 51.333818 l
175.013208 52.555636 l
175.175617 50.112 l
175.500434 53.777455 l
175.662842 52.555636 l
175.825251 57.442909 l
175.987659 50.112 l
176.150068 51.333818 l
176.312476 51.333818 l
176.474885 57.442909 l
176.799702 53.777455 l
176.96211 54.999273 l
177.124519 54.999273 l
177.286927 53.777455 l
177.611744 53.777455 l
177.774153 50.112 l
177.936561 51.333818 l
178.098969 50.112 l
178.423786 52.555636 l
178.586195 51.333818 l
178.748603 54.999273 l
178.911012 53.777455 l
179.07342 51.333818 l
179.235829 53.777455 l
179.398237 51.333818 l
179.723054 53.777455 l
179.885463 51.333818 l
180.047871 51.333818 l
180.21028 56.221091 l
180.372688 52.555636 l
180.697505 58.664727 l
180.859914 52.555636 l
181.022322 56.221091 l
181.347139 50.112 l
181.509548 54.999273 l
181.671956 53.777455 l
181.834364 53.777455 l
181.996773 56.221091 l
182.159181 54.999273 l
182.32159 52.555636 l
182.483998 56.221091 l
182.646407 54.999273 l
182.971224 51.333818 l
183.133632 54.999273 l
183.296041 52.555636 l
183.620858 54.999273 l
183.783266 52.555636 l
183.945675 52.555636 l
184.108083 50.112 l
184.270492 51.333818 l
184.595309 59.886545 l
184.757717 52.555636 l
185.082534 54.999273 l
185.407351 52.555636 l
185.732168 58.664727 l
185.894576 51.333818 l
186.056985 56.221091 l
186.219393 53.777455 l
186.381802 54.999273 l
186.54421 53.777455 l
186.706619 54.999273 l
187.031436 50.112 l
187.193844 56.221091 l
187.356253 50.112 l
187.518661 54.999273 l
187.843478 51.333818 l
188.005887 50.112 l
188.168295 52.555636 l
188.330704 52.555636 l
188.493112 54.999273 l
188.65552 61.108364 l
188.817929 52.555636 l
189.142746 50.112 l
189.305154 57.442909 l
189.467563 56.221091 l
189.629971 52.555636 l
189.79238 53.777455 l
189.954788 53.777455 l
190.117197 51.333818 l
190.279605 56.221091 l
190.442014 52.555636 l
190.604422 52.555636 l
190.766831 56.221091 l
191.091648 50.112 l
191.254056 51.333818 l
191.416465 53.777455 l
191.578873 52.555636 l
191.90369 54.999273 l
192.066099 50.112 l
192.390915 54.999273 l
192.553324 53.777455 l
192.715732 54.999273 l
192.878141 57.442909 l
193.202958 54.999273 l
193.365366 52.555636 l
193.852592 52.555636 l
194.015 51.333818 l
194.177409 57.442909 l
194.339817 53.777455 l
194.502226 53.777455 l
194.827043 51.333818 l
194.989451 52.555636 l
195.15186 57.442909 l
195.314268 51.333818 l
195.476677 52.555636 l
195.639085 52.555636 l
195.801493 53.777455 l
196.12631 51.333818 l
196.288719 52.555636 l
196.451127 51.333818 l
196.613536 52.555636 l
196.775944 51.333818 l
196.938353 58.664727 l
197.100761 50.112 l
197.26317 53.777455 l
197.425578 50.112 l
197.750395 53.777455 l
197.912804 52.555636 l
198.075212 59.886545 l
198.237621 50.112 l
198.400029 51.333818 l
198.562438 50.112 l
198.724846 52.555636 l
198.887255 52.555636 l
199.212071 54.999273 l
199.37448 52.555636 l
199.536888 53.777455 l
199.699297 51.333818 l
199.861705 54.999273 l
200.024114 52.555636 l
200.186522 52.555636 l
200.348931 57.442909 l
200.511339 54.999273 l
200.673748 50.112 l
200.836156 51.333818 l
200.998565 53.777455 l
201.160973 51.333818 l
201.323382 51.333818 l
201.48579 50.112 l
201.810607 56.221091 l
201.973016 52.555636 l
202.135424 53.777455 l
202.297833 50.112 l
202.62265 56.221091 l
202.785058 53.777455 l
202.947466 53.777455 l
203.109875 58.664727 l
203.434692 50.112 l
203.5971 50.112 l
203.921917 58.664727 l
204.084326 52.555636 l
204.246734 51.333818 l
204.409143 53.777455 l
204.571551 52.555636 l
204.73396 52.555636 l
204.896368 51.333818 l
205.058777 51.333818 l
205.221185 50.112 l
205.546002 50.112 l
205.708411 54.999273 l
205.870819 53.777455 l
206.033228 51.333818 l
206.195636 54.999273 l
206.358044 51.333818 l
206.520453 51.333818 l
206.682861 53.777455 l
206.84527 50.112 l
207.007678 51.333818 l
207.170087 54.999273 l
207.332495 50.112 l
207.494904 51.333818 l
207.657312 54.999273 l
207.819721 50.112 l
207.982129 51.333818 l
208.144538 51.333818 l
208.306946 52.555636 l
208.469355 57.442909 l
208.631763 52.555636 l
208.794172 51.333818 l
209.118989 51.333818 l
209.281397 50.112 l
209.606214 53.777455 l
209.768622 51.333818 l
209.931031 53.777455 l
210.093439 50.112 l
210.418256 53.777455 l
210.580665 51.333818 l
210.743073 54.999273 l
210.905482 52.555636 l
211.06789 52.555636 l
211.230299 53.777455 l
211.392707 51.333818 l
211.555116 52.555636 l
211.717524 51.333818 l
211.879933 51.333818 l
212.042341 57.442909 l
212.20475 51.333818 l
212.367158 51.333818 l
212.529567 56.221091 l
212.691975 56.221091 l
212.854384 53.777455 l
213.179201 53.777455 l
213.341609 51.333818 l
213.504017 51.333818 l
213.666426 50.112 l
213.828834 52.555636 l
214.153651 50.112 l
214.31606 51.333818 l
214.478468 56.221091 l
214.640877 50.112 l
214.803285 51.333818 l
214.965694 51.333818 l
215.128102 57.442909 l
215.290511 50.112 l
215.615328 56.221091 l
215.777736 50.112 l
215.940145 54.999273 l
216.102553 56.221091 l
216.264962 56.221091 l
216.42737 52.555636 l
216.589779 52.555636 l
216.752187 54.999273 l
216.914595 50.112 l
217.077004 51.333818 l
217.239412 50.112 l
217.401821 54.999273 l
217.564229 53.777455 l
217.726638 53.777455 l
217.889046 50.112 l
218.051455 50.112 l
218.213863 53.777455 l
218.376272 52.555636 l
218.53868 56.221091 l
218.701089 52.555636 l
219.025906 52.555636 l
219.188314 56.221091 l
219.350723 51.333818 l
219.513131 53.777455 l
219.837948 53.777455 l
220.000357 50.112 l
220.325173 50.112 l
220.487582 51.333818 l
220.64999 54.999273 l
220.812399 50.112 l
220.974807 52.555636 l
221.137216 51.333818 l
221.299624 52.555636 l
221.462033 50.112 l
221.624441 52.555636 l
221.78685 50.112 l
221.949258 53.777455 l
222.111667 51.333818 l
222.274075 53.777455 l
222.436484 51.333818 l
222.598892 52.555636 l
222.761301 52.555636 l
222.923709 50.112 l
223.086118 51.333818 l
223.248526 53.777455 l
223.410935 50.112 l
223.573343 50.112 l
223.735752 53.777455 l
223.89816 51.333818 l
224.060568 53.777455 l
224.222977 50.112 l
224.547794 54.999273 l
224.872611 50.112 l
225.035019 52.555636 l
225.197428 50.112 l
225.522245 54.999273 l
225.684653 50.112 l
225.847062 50.112 l
226.00947 58.664727 l
226.171879 50.112 l
226.334287 59.886545 l
226.496696 52.555636 l
226.659104 53.777455 l
226.821513 52.555636 l
226.983921 52.555636 l
227.14633 51.333818 l
227.308738 52.555636 l
227.633555 52.555636 l
227.795963 53.777455 l
227.958372 51.333818 l
228.12078 54.999273 l
228.283189 54.999273 l
228.445597 51.333818 l
228.608006 54.999273 l
228.770414 51.333818 l
228.932823 52.555636 l
229.25764 52.555636 l
229.420048 53.777455 l
229.582457 52.555636 l
229.907274 52.555636 l
230.069682 51.333818 l
230.232091 54.999273 l
230.394499 51.333818 l
230.556908 52.555636 l
230.719316 51.333818 l
230.881724 52.555636 l
231.206541 52.555636 l
231.36895 50.112 l
231.531358 53.777455 l
231.693767 53.777455 l
231.856175 51.333818 l
232.018584 54.999273 l
232.180992 50.112 l
232.343401 52.555636 l
232.505809 51.333818 l
232.668218 51.333818 l
232.830626 50.112 l
233.155443 58.664727 l
233.48026 50.112 l
233.642669 51.333818 l
233.805077 56.221091 l
233.967486 50.112 l
234.129894 53.777455 l
234.454711 50.112 l
234.617119 51.333818 l
234.779528 51.333818 l
235.104345 53.777455 l
235.429162 50.112 l
235.59157 50.112 l
235.753979 52.555636 l
235.916387 50.112 l
236.241204 53.777455 l
236.403613 50.112 l
236.566021 54.999273 l
236.890838 50.112 l
237.215655 53.777455 l
237.378064 50.112 l
237.702881 53.777455 l
237.865289 51.333818 l
238.190106 51.333818 l
238.514923 54.999273 l
238.677331 50.112 l
238.83974 51.333818 l
239.002148 50.112 l
239.164557 51.333818 l
239.326965 51.333818 l
239.489374 53.777455 l
239.651782 50.112 l
239.814191 50.112 l
239.976599 51.333818 l
240.139008 50.112 l
240.301416 54.999273 l
240.463825 51.333818 l
240.626233 51.333818 l
240.788642 50.112 l
240.95105 50.112 l
241.113459 52.555636 l
241.275867 52.555636 l
241.438276 50.112 l
241.600684 53.777455 l
241.763092 52.555636 l
241.925501 54.999273 l
242.087909 50.112 l
242.899952 50.112 l
243.06236 54.999273 l
243.224769 51.333818 l
243.387177 52.555636 l
243.549586 50.112 l
243.711994 56.221091 l
243.874403 53.777455 l
244.036811 53.777455 l
244.19922 54.999273 l
244.361628 53.777455 l
244.686445 50.112 l
244.848854 53.777455 l
245.011262 53.777455 l
245.17367 52.555636 l
245.336079 50.112 l
245.498487 54.999273 l
245.660896 50.112 l
245.823304 52.555636 l
245.985713 50.112 l
246.148121 52.555636 l
246.31053 50.112 l
246.472938 51.333818 l
246.635347 50.112 l
246.797755 51.333818 l
246.960164 51.333818 l
247.122572 50.112 l
247.284981 53.777455 l
247.447389 52.555636 l
247.609798 50.112 l
247.772206 54.999273 l
248.097023 50.112 l
248.259432 51.333818 l
248.42184 50.112 l
248.584248 50.112 l
248.746657 51.333818 l
248.909065 53.777455 l
249.071474 53.777455 l
249.233882 51.333818 l
249.396291 51.333818 l
249.558699 50.112 l
249.721108 52.555636 l
250.045925 50.112 l
250.208333 52.555636 l
250.53315 50.112 l
250.695559 50.112 l
250.857967 51.333818 l
251.020376 51.333818 l
251.182784 52.555636 l
251.345193 52.555636 l
251.67001 50.112 l
251.832418 51.333818 l
251.994827 51.333818 l
252.319643 54.999273 l
252.482052 51.333818 l
252.969277 51.333818 l
253.131686 50.112 l
253.294094 52.555636 l
253.456503 50.112 l
253.618911 52.555636 l
253.78132 52.555636 l
253.943728 51.333818 l
254.106137 52.555636 l
254.268545 52.555636 l
254.430954 54.999273 l
254.593362 51.333818 l
254.755771 53.777455 l
255.080588 50.112 l
255.242996 52.555636 l
255.405405 52.555636 l
255.567813 50.112 l
255.730221 51.333818 l
255.89263 50.112 l
256.217447 52.555636 l
256.379855 50.112 l
256.542264 53.777455 l
256.704672 51.333818 l
256.867081 51.333818 l
257.029489 53.777455 l
257.191898 50.112 l
257.516715 50.112 l
257.679123 51.333818 l
257.841532 57.442909 l
258.00394 50.112 l
258.166349 52.555636 l
258.491166 50.112 l
258.653574 50.112 l
258.815983 52.555636 l
258.978391 51.333818 l
259.140799 52.555636 l
259.303208 56.221091 l
259.465616 51.333818 l
259.628025 50.112 l
259.790433 51.333818 l
259.952842 50.112 l
260.11525 53.777455 l
260.277659 50.112 l
260.602476 50.112 l
260.764884 51.333818 l
260.927293 51.333818 l
261.089701 50.112 l
261.25211 50.112 l
261.414518 51.333818 l
261.576927 50.112 l
261.739335 50.112 l
261.901744 51.333818 l
262.064152 50.112 l
262.226561 53.777455 l
262.388969 51.333818 l
262.551378 53.777455 l
262.713786 50.112 l
262.876194 54.999273 l
263.038603 51.333818 l
263.201011 52.555636 l
263.36342 50.112 l
263.688237 50.112 l
263.850645 51.333818 l
264.013054 50.112 l
264.175462 50.112 l
264.337871 51.333818 l
264.500279 54.999273 l
264.825096 50.112 l
264.987505 51.333818 l
265.149913 50.112 l
265.312322 56.221091 l
265.47473 54.999273 l
265.637139 54.999273 l
265.799547 50.112 l
265.961956 51.333818 l
266.124364 50.112 l
266.286772 53.777455 l
266.611589 50.112 l
266.773998 52.555636 l
266.936406 50.112 l
267.261223 50.112 l
267.423632 53.777455 l
267.58604 50.112 l
267.910857 53.777455 l
268.073266 50.112 l
268.235674 56.221091 l
268.560491 51.333818 l
268.7229 51.333818 l
268.885308 52.555636 l
269.047717 52.555636 l
269.210125 53.777455 l
269.372534 50.112 l
269.534942 50.112 l
269.859759 52.555636 l
270.022167 50.112 l
270.184576 50.112 l
270.346984 51.333818 l
270.996618 51.333818 l
271.159027 50.112 l
271.321435 54.999273 l
271.483844 50.112 l
272.620703 50.112 l
272.94552 52.555636 l
273.107929 54.999273 l
273.432745 50.112 l
273.595154 52.555636 l
273.757562 50.112 l
273.919971 50.112 l
274.244788 52.555636 l
274.407196 50.112 l
274.569605 50.112 l
274.732013 51.333818 l
274.894422 53.777455 l
275.05683 51.333818 l
275.544056 51.333818 l
275.706464 50.112 l
276.031281 52.555636 l
276.19369 51.333818 l
276.518507 51.333818 l
276.680915 53.777455 l
276.843323 52.555636 l
277.005732 50.112 l
277.330549 52.555636 l
277.655366 50.112 l
277.817774 50.112 l
277.980183 52.555636 l
278.142591 51.333818 l
278.305 53.777455 l
278.467408 50.112 l
278.954634 50.112 l
279.117042 52.555636 l
279.279451 50.112 l
279.604268 52.555636 l
279.766676 50.112 l
279.929085 51.333818 l
280.091493 50.112 l
280.253901 50.112 l
280.41631 51.333818 l
280.578718 51.333818 l
280.903535 53.777455 l
281.065944 50.112 l
281.228352 51.333818 l
281.390761 50.112 l
281.553169 51.333818 l
281.715578 53.777455 l
281.877986 51.333818 l
282.040395 53.777455 l
282.202803 50.112 l
282.365212 51.333818 l
282.52762 51.333818 l
282.690029 53.777455 l
282.852437 50.112 l
283.014846 52.555636 l
283.177254 50.112 l
283.339663 53.777455 l
283.502071 51.333818 l
283.66448 52.555636 l
283.989296 50.112 l
284.151705 50.112 l
284.314113 52.555636 l
284.63893 52.555636 l
284.801339 50.112 l
284.963747 50.112 l
285.126156 51.333818 l
285.613381 51.333818 l
285.77579 50.112 l
285.938198 53.777455 l
286.263015 50.112 l
286.425424 51.333818 l
286.587832 53.777455 l
286.750241 50.112 l
286.912649 51.333818 l
287.075058 50.112 l
287.237466 51.333818 l
287.399874 50.112 l
287.562283 53.777455 l
287.8871 50.112 l
288.049508 51.333818 l
288.211917 50.112 l
288.861551 54.999273 l
289.023959 50.112 l
289.186368 50.112 l
289.348776 52.555636 l
289.511185 50.112 l
289.673593 53.777455 l
289.99841 50.112 l
290.160819 52.555636 l
290.323227 50.112 l
290.485636 50.112 l
290.648044 51.333818 l
290.810452 50.112 l
290.972861 50.112 l
291.135269 51.333818 l
291.297678 56.221091 l
291.460086 51.333818 l
291.622495 51.333818 l
291.784903 50.112 l
292.434537 50.112 l
292.596946 51.333818 l
292.921763 51.333818 l
293.084171 54.999273 l
293.408988 51.333818 l
293.733805 51.333818 l
293.896214 50.112 l
294.221031 50.112 l
294.383439 52.555636 l
294.545847 50.112 l
294.708256 51.333818 l
294.870664 50.112 l
295.033073 51.333818 l
295.195481 50.112 l
295.35789 52.555636 l
295.520298 50.112 l
295.845115 50.112 l
296.169932 54.999273 l
296.494749 50.112 l
296.657158 51.333818 l
296.819566 50.112 l
296.981975 50.112 l
297.144383 52.555636 l
297.4692 50.112 l
297.631609 50.112 l
298.118834 53.777455 l
298.281242 50.112 l
298.443651 51.333818 l
298.606059 51.333818 l
298.768468 50.112 l
298.930876 51.333818 l
299.093285 51.333818 l
299.255693 53.777455 l
299.58051 50.112 l
299.742919 51.333818 l
299.905327 50.112 l
300.067736 51.333818 l
300.230144 53.777455 l
300.392553 53.777455 l
300.554961 51.333818 l
300.71737 53.777455 l
300.879778 50.112 l
301.042187 51.333818 l
301.204595 50.112 l
301.367004 51.333818 l
301.529412 50.112 l
301.69182 52.555636 l
301.854229 50.112 l
302.016637 51.333818 l
302.179046 50.112 l
302.503863 52.555636 l
302.666271 52.555636 l
302.82868 50.112 l
303.478314 50.112 l
303.640722 52.555636 l
303.803131 50.112 l
303.965539 50.112 l
304.290356 52.555636 l
304.452765 50.112 l
304.615173 50.112 l
304.777582 56.221091 l
304.93999 51.333818 l
305.102398 50.112 l
305.264807 50.112 l
305.427215 54.999273 l
305.589624 50.112 l
305.752032 51.333818 l
305.914441 50.112 l
306.076849 50.112 l
306.239258 52.555636 l
306.401666 50.112 l
306.564075 50.112 l
306.726483 52.555636 l
307.0513 50.112 l
307.863343 50.112 l
308.025751 52.555636 l
308.18816 50.112 l
308.837793 50.112 l
309.000202 52.555636 l
309.16261 50.112 l
309.325019 52.555636 l
309.487427 51.333818 l
309.649836 51.333818 l
309.812244 50.112 l
310.949104 50.112 l
311.111512 51.333818 l
311.273921 50.112 l
311.436329 52.555636 l
311.598738 50.112 l
311.923555 50.112 l
312.085963 52.555636 l
312.248371 50.112 l
312.573188 50.112 l
312.735597 51.333818 l
312.898005 50.112 l
313.872456 50.112 l
314.034865 51.333818 l
314.197273 50.112 l
314.684499 50.112 l
314.846907 51.333818 l
315.009316 50.112 l
315.171724 50.112 l
315.334133 51.333818 l
315.496541 50.112 l
316.146175 50.112 l
316.308583 51.333818 l
316.470992 51.333818 l
316.6334 53.777455 l
316.958217 50.112 l
318.257485 50.112 l
318.419894 52.555636 l
318.582302 50.112 l
318.744711 50.112 l
318.907119 51.333818 l
319.069527 50.112 l
319.231936 50.112 l
319.394344 51.333818 l
319.556753 51.333818 l
319.719161 50.112 l
319.88157 52.555636 l
320.043978 50.112 l
320.206387 50.112 l
320.368795 51.333818 l
320.531204 51.333818 l
320.693612 52.555636 l
320.856021 50.112 l
321.018429 51.333818 l
321.180838 50.112 l
322.155289 50.112 l
322.317697 52.555636 l
322.642514 50.112 l
322.804922 51.333818 l
322.967331 50.112 l
323.292148 50.112 l
323.454556 51.333818 l
323.616965 50.112 l
323.779373 52.555636 l
323.941782 50.112 l
324.266599 50.112 l
324.429007 51.333818 l
324.591416 53.777455 l
324.753824 50.112 l
324.916233 50.112 l
325.078641 51.333818 l
325.24105 50.112 l
325.565867 50.112 l
325.728275 51.333818 l
325.890684 51.333818 l
326.053092 50.112 l
327.027543 50.112 l
327.189951 53.777455 l
327.35236 50.112 l
327.514768 51.333818 l
327.677177 50.112 l
328.489219 50.112 l
328.651628 52.555636 l
328.814036 50.112 l
329.138853 52.555636 l
329.301262 50.112 l
329.46367 53.777455 l
329.626078 51.333818 l
329.788487 51.333818 l
329.950895 50.112 l
330.438121 50.112 l
330.600529 52.555636 l
330.762938 51.333818 l
330.925346 53.777455 l
331.250163 50.112 l
331.412572 50.112 l
331.57498 51.333818 l
331.737389 50.112 l
332.062206 50.112 l
332.224614 52.555636 l
332.387023 50.112 l
332.71184 50.112 l
332.874248 51.333818 l
333.036657 50.112 l
333.199065 51.333818 l
333.361473 51.333818 l
333.523882 52.555636 l
333.848699 50.112 l
334.498333 50.112 l
334.660741 52.555636 l
334.82315 50.112 l
334.985558 51.333818 l
335.147967 50.112 l
335.310375 51.333818 l
335.472784 50.112 l
335.635192 52.555636 l
335.960009 50.112 l
336.122418 50.112 l
336.284826 51.333818 l
336.447235 51.333818 l
336.609643 50.112 l
336.772051 51.333818 l
336.93446 50.112 l
337.096868 51.333818 l
337.259277 50.112 l
337.421685 50.112 l
337.584094 52.555636 l
337.746502 51.333818 l
337.908911 51.333818 l
338.071319 50.112 l
338.233728 51.333818 l
338.396136 50.112 l
338.558545 51.333818 l
338.720953 50.112 l
339.04577 50.112 l
339.208179 51.333818 l
339.370587 50.112 l
339.532996 51.333818 l
339.695404 51.333818 l
339.857813 50.112 l
340.020221 50.112 l
340.182629 51.333818 l
340.345038 50.112 l
340.507446 51.333818 l
340.669855 51.333818 l
340.832263 50.112 l
340.994672 51.333818 l
341.15708 50.112 l
341.969123 50.112 l
342.131531 51.333818 l
342.618757 51.333818 l
342.943574 53.777455 l
343.105982 50.112 l
343.268391 50.112 l
343.430799 51.333818 l
343.593208 50.112 l
343.755616 51.333818 l
343.918024 50.112 l
344.080433 51.333818 l
344.242841 50.112 l
344.40525 50.112 l
344.567658 51.333818 l
344.730067 50.112 l
345.217292 50.112 l
345.379701 51.333818 l
345.542109 50.112 l
345.704518 50.112 l
345.866926 51.333818 l
346.029335 50.112 l
346.191743 51.333818 l
346.354152 50.112 l
346.51656 52.555636 l
346.678969 52.555636 l
346.841377 51.333818 l
347.003786 51.333818 l
347.166194 50.112 l
347.653419 50.112 l
347.815828 51.333818 l
347.978236 50.112 l
348.140645 50.112 l
348.303053 52.555636 l
348.465462 50.112 l
348.790279 50.112 l
348.952687 51.333818 l
349.115096 50.112 l
349.927138 50.112 l
350.089547 53.777455 l
350.251955 52.555636 l
350.414364 50.112 l
350.576772 51.333818 l
350.73918 50.112 l
350.901589 50.112 l
351.226406 52.555636 l
351.388814 52.555636 l
351.551223 50.112 l
351.87604 50.112 l
352.038448 51.333818 l
352.200857 50.112 l
355.286618 50.112 l
355.449026 52.555636 l
355.611435 50.112 l
355.773843 51.333818 l
355.936252 51.333818 l
356.09866 50.112 l
356.423477 50.112 l
356.585886 51.333818 l
356.748294 50.112 l
357.23552 50.112 l
357.397928 52.555636 l
357.560337 52.555636 l
357.722745 50.112 l
358.047562 50.112 l
358.20997 51.333818 l
358.372379 50.112 l
358.534787 52.555636 l
358.697196 52.555636 l
358.859604 50.112 l
359.022013 50.112 l
359.184421 51.333818 l
359.34683 50.112 l
360.808506 50.112 l
360.970915 51.333818 l
361.133323 51.333818 l
361.295732 50.112 l
364.219084 50.112 l
364.381493 51.333818 l
364.543901 50.112 l
364.70631 50.112 l
364.868718 51.333818 l
365.031126 51.333818 l
365.193535 50.112 l
365.68076 50.112 l
365.843169 51.333818 l
366.005577 50.112 l
367.792071 50.112 l
367.954479 51.333818 l
368.116888 50.112 l
368.441704 50.112 l
368.604113 51.333818 l
368.766521 50.112 l
370.065789 50.112 l
370.228198 51.333818 l
370.390606 50.112 l
371.202649 50.112 l
371.365057 51.333818 l
371.527466 50.112 l
371.689874 51.333818 l
371.852283 50.112 l
375.262861 50.112 l
375.425269 51.333818 l
375.587677 50.112 l
378.186213 50.112 l
378.348622 51.333818 l
378.51103 50.112 l
385.819412 50.112 l
385.98182 51.333818 l
386.144228 50.112 l
387.768313 50.112 l
387.930722 51.333818 l
388.09313 50.112 l
398.487273 50.112 l
398.487273 50.112 l
stroke
grestore
0.800 setlinewidth
0 setlinejoin
[] 0 setdash
0.000 setgray
gsave
57.6 38.016 m
57.6 304.128 l
stroke
grestore
gsave
414.72 38.016 m
414.72 304.128 l
stroke
grestore
gsave
57.6 38.016 m
414.72 38.016 l
stroke
grestore
gsave
57.6 304.128 m
414.72 304.128 l
stroke
grestore
1.000 setlinewidth
0 setlinecap
0.800 setgray
gsave
350.43875 252.112375 m
407.72 252.112375 l
409.053333 252.112375 409.72 252.779042 409.72 254.112375 c
409.72 297.128 l
409.72 298.461333 409.053333 299.128 407.72 299.128 c
350.43875 299.128 l
349.105417 299.128 348.43875 298.461333 348.43875 297.128 c
348.43875 254.112375 l
348.43875 252.779042 349.105417 252.112375 350.43875 252.112375 c
cl
gsave
1.000 setgray
fill
grestore
stroke
grestore
0.300 setlinewidth
1 setlinejoin
2 setlinecap
[] 0 setdash
0.122 0.467 0.706 setrgbcolor
gsave
352.43875 291.03425 m
372.43875 291.03425 l
stroke
grestore
0.000 setgray
gsave
380.438750 287.534250 translate
0.000000 rotate
0.000000 0.000000 m /L glyphshow
grestore
1.000 0.498 0.055 setrgbcolor
gsave
352.43875 276.362375 m
372.43875 276.362375 l
stroke
grestore
0.000 setgray
gsave
380.438750 272.862375 translate
0.000000 rotate
0.000000 0.000000 m /L glyphshow
5.571289 0.000000 m /s glyphshow
grestore
0.173 0.627 0.173 setrgbcolor
gsave
352.43875 261.6905 m
372.43875 261.6905 l
stroke
grestore
0.000 setgray
gsave
380.438750 258.190500 translate
0.000000 rotate
0.000000 0.000000 m /L glyphshow
5.571289 0.000000 m /s glyphshow
10.781250 0.000000 m /asciicircum glyphshow
19.160156 0.000000 m /T glyphshow
grestore

end
showpage
